Name,Age,WeightClassKg,Division,Sex,Best3SquatKg,Best3BenchKg,Best3DeadliftKg,TotalKg,Event,Equipment,Place
Y. Hung,,52,Drug Free,F,,38.56,,38.56,B,Multi-ply,1
J. Wood,41,60,Drug Free,F,,72.57,,72.57,B,Multi-ply,1
J. Wood,41,60,Masters 40-44,F,,74.84,,74.84,B,Multi-ply,1
J. Finley,39,67.5,Submasters,F,,70.31,,70.31,B,Multi-ply,1
D. Quimby,36,67.5,Submasters,F,,,,,B,Multi-ply,DQ
D. Quimby,36,67.5,Drug Free,F,,,,,B,Multi-ply,DQ
D. Quimby,36,67.5,Open,F,,,,,B,Multi-ply,DQ
G. Moore,41,67.5,Masters 40-44,F,,79.38,,79.38,B,Multi-ply,1
Shannon Pole-Summers,14,90+,Teen,F,,102.06,,102.06,B,Single-ply,1
Shannon Pole-Summers,14,90+,Drug Free,F,,113.4,,113.4,B,Single-ply,1
Shannon Pole-Summers,14,90+,Open,F,,113.4,,113.4,B,Single-ply,1
Darrell Hamby,45,75,Drug Free,M,,181.44,,181.44,B,Multi-ply,1
D. Hagen,24,75,Drug Free,M,,149.69,,149.69,B,Multi-ply,2
C. Nadeau,27,75,Drug Free,M,,145.15,,145.15,B,Multi-ply,3
P. Sacco,42,75,Masters 40-44,M,,158.76,,158.76,B,Multi-ply,1
Darrell Hamby,45,75,Masters 45-49,M,,181.44,,181.44,B,Multi-ply,1
T. Satterfield,,82.5,Drug Free,M,,215.46,,215.46,B,Multi-ply,1
Mike Feinberg,,82.5,Drug Free,M,,201.85,,201.85,B,Multi-ply,2
Bob Mabus,,82.5,Drug Free,M,,197.31,,197.31,B,Multi-ply,3
A. Wood,21,82.5,Drug Free,M,,183.71,,183.71,B,Multi-ply,4
A. Patti,31,82.5,Drug Free,M,,167.83,,167.83,B,Multi-ply,5
B. Peterson,30,82.5,Drug Free,M,,163.29,,163.29,B,Multi-ply,6
B. Zeillard,29,82.5,Drug Free,M,,161.03,,161.03,B,Multi-ply,7
N. Pestanski,28,82.5,Drug Free,M,,158.76,,158.76,B,Multi-ply,8
R. Orson,34,82.5,Drug Free,M,,156.49,,156.49,B,Multi-ply,9
O. Rosseau,,82.5,Drug Free,M,,102.06,,102.06,B,Multi-ply,10
Corey Mote,18,82.5,Teen,M,,136.08,,136.08,B,Multi-ply,1
A. Wood,21,82.5,Juniors,M,,183.71,,183.71,B,Multi-ply,1
S. Pough,35,82.5,Submasters,M,,183.71,,183.71,B,Multi-ply,1
B. Baldwin,,82.5,Masters 40-44,M,,136.08,,136.08,B,Multi-ply,1
T. Satterfield,,82.5,Open,M,,215.46,,215.46,B,Multi-ply,1
Mike Feinberg,,82.5,Open,M,,201.85,,201.85,B,Multi-ply,2
C. Matthews,,82.5,Open,M,,183.71,,183.71,B,Multi-ply,3
R. Zabotinski,32,82.5,Open,M,,181.44,,181.44,B,Multi-ply,4
S. Cardarelli,31,82.5,Open,M,,179.17,,179.17,B,Multi-ply,5
O. Rosseau,,82.5,Open,M,,102.06,,102.06,B,Multi-ply,6
Greg Campbell #1,32,90,Drug Free,M,,222.26,,222.26,B,Multi-ply,1
William Morehouse,23,90,Drug Free,M,,204.12,,204.12,B,Multi-ply,2
A. Wilson #3,19,90,Drug Free,M,,174.63,,174.63,B,Multi-ply,3
J. Palcheco,24,90,Drug Free,M,,172.37,,172.37,B,Multi-ply,4
L. Cortezzo,19,90,Teen,M,,140.61,,140.61,B,Multi-ply,1
Brad Kelley,,100,Drug Free,M,,242.67,,242.67,B,Multi-ply,1
Mike Ferrantelli,,100,Drug Free,M,,217.72,,217.72,B,Single-ply,2
R. James,,100,Drug Free,M,,204.12,,204.12,B,Multi-ply,3
A. Cabrerra,,100,Drug Free,M,,176.9,,176.9,B,Multi-ply,4
Rick Lawrence,,100,Open,M,,256.28,,256.28,B,Multi-ply,1
Brad Kelley,,100,Open,M,,242.67,,242.67,B,Multi-ply,2
Mike Ferrantelli,,100,Open,M,,217.72,,217.72,B,Single-ply,3
W. Julian,,100,Open,M,,165.56,,165.56,B,Multi-ply,4
B. Ferebe,,110,Open,M,,254.01,,254.01,B,Multi-ply,1
A. Vellake,,110,Open,M,,240.4,,240.4,B,Multi-ply,2
Kevin Stewart #1,36,110,Open,M,,235.87,,235.87,B,Multi-ply,3
Brad Kelley,,110,Open,M,,231.33,,231.33,B,Multi-ply,4
S. Elmore,,110,Open,M,,,,,B,Multi-ply,DQ
Brad Kelley,,110,Drug Free,M,,231.33,,231.33,B,Multi-ply,1
M. Hummel,,110,Drug Free,M,,,,,B,Multi-ply,DQ
A. Vellake,37,110,Submasters,M,,240.4,,240.4,B,Multi-ply,1
M. Hummel,,110,Submasters,M,,,,,B,Multi-ply,DQ
A. Clarkson,57,110,Masters 55-59,M,,136.08,,136.08,B,Multi-ply,1
B. Crawford,,125,Open,M,,290.3,,290.3,B,Multi-ply,1
S. Morton,,125,Open,M,,,,,B,Multi-ply,DQ
Tim Lee,22,125,Drug Free,M,,217.72,,217.72,B,Multi-ply,1
R. Dejesus,23,125,Drug Free,M,,201.85,,201.85,B,Multi-ply,2
K. Wiley,28,125,Drug Free,M,,195.04,,195.04,B,Multi-ply,3
Tim Lee,22,125,Juniors,M,,217.72,,217.72,B,Multi-ply,1
B. Gregory,23,125,Juniors,M,,,,,B,Multi-ply,DQ
Carl Summers,56,125,Masters 55-59,M,,161.03,,161.03,B,Multi-ply,1
Jerry Tancil,45,140+,Drug Free,M,,249.48,,249.48,B,Multi-ply,1
C. James,,140+,Drug Free,M,,197.31,,197.31,B,Multi-ply,2
Jerry Tancil,45,140+,Open,M,,249.48,,249.48,B,Multi-ply,1
C. James,,140+,Open,M,,197.31,,197.31,B,Multi-ply,2
G. Moore,41,67.5,Masters 40-44,F,,,95.25,95.25,D,Multi-ply,1
Shannon Pole-Summers,14,90+,Drug Free,F,,,142.88,142.88,D,Single-ply,1
Shannon Pole-Summers,14,90+,Open,F,,,142.88,142.88,D,Single-ply,1
Shannon Pole-Summers,14,90+,Teen,F,,,142.88,142.88,D,Single-ply,1
T. Rabaza,37,60,Submasters,M,,,197.31,197.31,D,Multi-ply,1
W. Paulk,17,67.5,Teen,M,,,147.42,147.42,D,Multi-ply,1
O. Rosseau,,82.5,Open,M,,,181.44,181.44,D,Multi-ply,1
O. Rosseau,,82.5,Drug Free,M,,,181.44,181.44,D,Multi-ply,1
B. Eastham,24,90,Drug Free,M,,,249.48,249.48,D,Multi-ply,1
S. Lynch,33,90,Drug Free,M,,,217.72,217.72,D,Multi-ply,2
S. Lynch,33,90,Open,M,,,217.72,217.72,D,Multi-ply,1
S. Lynch,33,90,Submasters,M,,,217.72,217.72,D,Multi-ply,1
Tee Meyers,42,90,Masters 40-44,M,,,328.85,328.85,D,Multi-ply,1
Mike Ferrantelli,,100,Drug Free,M,,,290.3,290.3,D,Single-ply,1
Mike Ferrantelli,,100,Open,M,,,290.3,290.3,D,Single-ply,1
W. Julian,,100,Open,M,,,256.28,256.28,D,Multi-ply,2
A. Cabrerra,,100,Submasters,M,,,278.96,278.96,D,Multi-ply,1
Mike Darrah,,110,Drug Free,M,,,299.37,299.37,D,Multi-ply,1
J. Green #12,,110,Drug Free,M,,,272.16,272.16,D,Multi-ply,2
A. Clarkson,,110,Masters 55-59,M,,,219.99,219.99,D,Multi-ply,1
Mark Dimiduk,,125,Open,M,,,281.23,281.23,D,Multi-ply,1
Mark Dimiduk,,125,Masters 40-44,M,,,281.23,281.23,D,Multi-ply,1
Mo Washington,24,140,Drug Free,M,,,233.6,233.6,D,Multi-ply,1
Tom McCullough,42,140,Masters 40-44,M,,,328.85,328.85,D,Multi-ply,1
C. James,,140+,Drug Free,M,,,244.94,244.94,D,Multi-ply,1
C. James,,140+,Open,M,,,244.94,244.94,D,Multi-ply,1
B. Duncan,,140+,Open,M,,,217.72,217.72,D,Multi-ply,2
N. Baker,41,44,Open,F,97.52,65.77,129.27,292.57,SBD,Multi-ply,1
Margaret Kirkland,35,48,Drug Free,F,106.59,65.77,111.13,283.5,SBD,Multi-ply,1
Margaret Kirkland,35,48,Submasters,F,106.59,65.77,111.13,283.5,SBD,Multi-ply,1
Margaret Kirkland,35,48,Open,F,106.59,65.77,111.13,283.5,SBD,Multi-ply,1
Kate Taillon,39,56,Submasters,F,90.72,49.9,106.59,247.21,SBD,Multi-ply,1
S. Johnson #1,19,60,Drug Free,F,97.52,61.24,124.74,283.5,SBD,Multi-ply,1
S. Johnson #1,19,60,Teen,F,97.52,61.24,124.74,283.5,SBD,Multi-ply,1
M. Galante #1,16,75,Drug Free,F,149.69,86.18,151.95,387.82,SBD,Multi-ply,1
M. Galante #1,16,75,Teen,F,149.69,86.18,151.95,387.82,SBD,Multi-ply,1
C. James,23,90,Juniors,F,145.15,77.11,147.42,369.68,SBD,Multi-ply,1
Shannon Pole-Summers,14,90+,Drug Free,F,167.83,113.4,158.76,439.99,SBD,Single-ply,1
Shannon Pole-Summers,14,90+,Open,F,167.83,113.4,158.76,439.99,SBD,Single-ply,1
Shannon Pole-Summers,14,90+,Teen,F,167.83,113.4,158.76,439.99,SBD,Single-ply,1
T. Rabaza,35,60,Submasters,M,165.56,92.99,197.31,455.86,SBD,Multi-ply,1
O. Grayson,21,60,Juniors,M,181.44,122.47,199.58,503.49,SBD,Multi-ply,1
T. Dover,22,67.5,Drug Free,M,158.76,122.47,163.29,444.52,SBD,Multi-ply,1
W. Paulk,17,67.5,Drug Free,M,172.37,115.67,147.42,435.45,SBD,Multi-ply,2
W. Paulk,17,67.5,Teen,M,172.37,115.67,147.42,435.45,SBD,Multi-ply,1
W. Paulk,17,67.5,Open,M,172.37,115.67,147.42,435.45,SBD,Multi-ply,1
Michael Ticknor,,67.5,Juniors,M,158.76,113.4,204.12,476.27,SBD,Multi-ply,1
T. Dover,22,67.5,Juniors,M,158.76,122.47,163.29,444.52,SBD,Multi-ply,2
Gregory Kiser,39,75,Drug Free,M,272.16,176.9,308.44,757.5,SBD,Multi-ply,1
D. Hagan,24,75,Drug Free,M,199.58,149.69,204.12,553.38,SBD,Multi-ply,2
A. Judge,25,75,Drug Free,M,181.44,140.61,204.12,526.17,SBD,Multi-ply,3
P. Sacco,42,75,Masters 40-44,M,247.21,163.29,226.8,637.3,SBD,Multi-ply,1
C. Leveritt,43,75,Masters 40-44,M,147.42,92.99,199.58,439.99,SBD,Multi-ply,2
Corey Mote,18,82.5,Teen,M,176.9,136.08,213.19,526.17,SBD,Multi-ply,1
Douglas Scarborough,33,82.5,Submasters,M,181.44,124.74,204.12,510.29,SBD,Multi-ply,1
Bob Mabus,,82.5,Drug Free,M,215.46,197.31,238.14,650.91,SBD,Multi-ply,1
O. Rosseau,,82.5,Drug Free,M,142.88,102.06,181.44,426.38,SBD,Multi-ply,2
S. Cripe,19,90,Teen,M,190.51,102.06,217.72,510.29,SBD,Multi-ply,1
LB Baker,62,90,Masters 60-64,M,229.06,161.03,226.8,616.89,SBD,Multi-ply,1
William Morehouse,33,90,Submasters,M,,,,,SBD,Multi-ply,DQ
William Morehouse,33,90,Open,M,,,,,SBD,Multi-ply,DQ
J. Roberson,,90,Drug Free,M,260.82,179.17,249.48,689.46,SBD,Multi-ply,1
Doug Petersen,,90,Drug Free,M,249.48,179.17,226.8,655.44,SBD,Multi-ply,2
Adam Martin,19,100,Teen,M,283.5,192.78,288.03,764.3,SBD,Multi-ply,1
A. Cabrerra,37,100,Submasters,M,290.3,176.9,278.96,746.16,SBD,Multi-ply,1
B. Bridges,42,100,Masters 40-44,M,172.37,145.15,185.97,503.49,SBD,Multi-ply,1
Mike Ferrantelli,,100,Drug Free,M,356.07,217.72,290.3,864.09,SBD,Single-ply,1
A. Gaines,,100,Drug Free,M,249.48,204.12,272.16,725.75,SBD,Multi-ply,2
S. Dempski,,100,Drug Free,M,269.89,181.44,267.62,718.94,SBD,Multi-ply,3
Mike Ferrantelli,,100,Open,M,356.07,217.72,290.3,864.09,SBD,Single-ply,1
David Jones #5,,100,Open,M,274.42,165.56,238.14,678.12,SBD,Multi-ply,2
W. Julian,,100,Open,M,219.99,165.56,256.28,641.83,SBD,Multi-ply,3
Mike Darrah,,110,Drug Free,M,297.1,192.78,299.37,789.25,SBD,Multi-ply,1
P. Watson,24,110,Drug Free,M,258.55,172.37,226.8,657.71,SBD,Multi-ply,2
D. Hit,33,110,Drug Free,M,181.44,136.08,204.12,521.63,SBD,Multi-ply,3
B. Ferebe,,110,Open,M,285.76,254.01,276.69,816.47,SBD,Multi-ply,1
Mike Darrah,,110,Open,M,297.1,192.78,299.37,789.25,SBD,Multi-ply,2
Howard Owens,15,110,Teen,M,145.15,72.57,174.63,392.36,SBD,Multi-ply,1
Kevin Stewart #1,36,110,Submasters,M,326.59,226.8,299.37,852.75,SBD,Multi-ply,1
Mike Darrah,,110,Submasters,M,297.1,192.78,299.37,789.25,SBD,Multi-ply,2
R. Johnson,36,110,Submasters,M,249.48,174.63,260.82,684.93,SBD,Multi-ply,3
T. Maxted,,110,Submasters,M,183.71,136.08,192.78,512.56,SBD,Multi-ply,4
Roger Finley,40,110,Masters 40-44,M,244.94,183.71,215.46,644.1,SBD,Single-ply,1
E. Ellison,42,110,Masters 40-44,M,192.78,142.88,278.96,614.62,SBD,Multi-ply,2
R. Harrison,51,110,Masters 50-54,M,192.78,161.03,249.48,603.28,SBD,Multi-ply,1
Rich Sandlin,41,125,Masters 40-44,M,349.27,199.58,308.44,857.29,SBD,Multi-ply,1
Mark Dimiduk,44,125,Masters 40-44,M,272.16,167.83,281.23,721.21,SBD,Multi-ply,2
S. Schultz,60,125,Masters 60-64,M,249.48,181.44,249.48,680.39,SBD,Multi-ply,1
Rich Sandlin,41,125,Open,M,349.27,199.58,308.44,857.29,SBD,Multi-ply,1
N. Bramlet,33,125,Open,M,306.18,260.82,283.5,850.49,SBD,Multi-ply,2
Mark Dimiduk,44,125,Open,M,272.16,167.83,281.23,721.21,SBD,Multi-ply,3
John Martin,49,140,Drug Free,M,317.52,215.46,249.48,782.45,SBD,Multi-ply,1
John Martin,49,140,Masters 45-49,M,317.52,215.46,249.48,782.45,SBD,Multi-ply,1
T. Schnider,45,140+,Open,M,,,,,SBD,Multi-ply,DQ
