Place,Name,Division,BirthYear,Country,BodyweightKg,Squat1Kg,Squat2Kg,Squat3Kg,Best3SquatKg,Bench1Kg,Bench2Kg,Bench3Kg,Best3BenchKg,Bench4Kg,Deadlift1Kg,Deadlift2Kg,Deadlift3Kg,Best3DeadliftKg,TotalKg,WeightClassKg,Sex,CyrillicName,Event,Equipment
1,Anastasiya Voschenko,J,1995,Ukraine,48,100,-107.5,-107.5,100,65,-70,-70,65,,110,120,-125,120,285,48,F,Анастасія Вощенко,SBD,Raw
1,Anastasiya Voschenko,O,1995,Ukraine,48,100,-107.5,-107.5,100,65,-70,-70,65,,110,120,-125,120,285,48,F,Анастасія Вощенко,SBD,Raw
1,Lyudmila Andrusenko,T2,2002,Ukraine,51.1,60,65,70,70,35,-37.5,-37.5,35,,90,-100,-105,90,195,52,F,Людмила Андрусенко,SBD,Raw
1,Elena Kanunikova,O,1980,Ukraine,52,75,-80,80,80,45,47.5,50,50,,95,97.5,100,100,230,52,F,Елена Кануникова,SBD,Raw
2,Lyudmila Andrusenko,O,2002,Ukraine,51.1,60,65,70,70,35,-37.5,-37.5,35,,90,-100,-105,90,195,52,F,Людмила Андрусенко,SBD,Raw
1,Viktoriya Lagun,T3,1999,Ukraine,56,85,90,-95,90,47.5,-50,-50,47.5,,92.5,97.5,-102.5,97.5,235,56,F,Виктория Лагун,SBD,Raw
1,Anastasiya Rydvanskaya,J,1993,Ukraine,55.4,90,95,-97.5,95,47.5,-50,50,50,,102.5,-107.5,-107.5,102.5,247.5,56,F,Анастасия Рыдванская,SBD,Raw
1,Anastasiya Rydvanskaya,O,1993,Ukraine,55.4,90,95,-97.5,95,47.5,-50,50,50,,102.5,-107.5,-107.5,102.5,247.5,56,F,Анастасия Рыдванская,SBD,Raw
2,Viktoriya Lagun,O,1999,Ukraine,56,85,90,-95,90,47.5,-50,-50,47.5,,92.5,97.5,-102.5,97.5,235,56,F,Виктория Лагун,SBD,Raw
3,Tatyana Dzherelyuk,O,1983,Ukraine,54.8,67.5,75,-80,75,40,42.5,-45,42.5,,105,-117.5,-117.5,105,222.5,56,F,Татьяна Джерелюк,SBD,Raw
1,Alena Zolotareva,J,1993,Ukraine,59,-105,-105,105,105,55,-60,62.5,62.5,,110,117.5,-122.5,117.5,285,60,F,Алена Золотарева,SBD,Raw
1,Alena Zolotareva,O,1993,Ukraine,59,-105,-105,105,105,55,-60,62.5,62.5,,110,117.5,-122.5,117.5,285,60,F,Алена Золотарева,SBD,Raw
1,Lada Reznik,T3,1999,Ukraine,62.6,75,82.5,-87.5,82.5,30,-35,35,35,,80,90,100,100,217.5,67.5,F,Лада Резник,SBD,Raw
1,Ekaterina Scheblikina,J,1993,Ukraine,67.3,82.5,87.5,90,90,47.5,-50,-50,47.5,,80,-87.5,-87.5,80,217.5,67.5,F,Екатерина Щебликина,SBD,Raw
1,Lada Reznik,O,1999,Ukraine,62.6,75,82.5,-87.5,82.5,30,-35,35,35,,80,90,100,100,217.5,67.5,F,Лада Резник,SBD,Raw
2,Valentina Steshenko,O,1970,Ukraine,67,60,70,75,75,35,42.5,47.5,47.5,,75,85,95,95,217.5,67.5,F,Валентина Стешенко,SBD,Raw
3,Ekaterina Scheblikina,O,1993,Ukraine,67.3,82.5,87.5,90,90,47.5,-50,-50,47.5,,80,-87.5,-87.5,80,217.5,67.5,F,Екатерина Щебликина,SBD,Raw
4,Yuliya Dudko,O,1986,Ukraine,61.8,-60,65,70,70,35,-40,40,40,,70,80,90,90,200,67.5,F,Юлия Дудко,SBD,Raw
1,Valentina Steshenko,M2,1970,Ukraine,67,60,70,75,75,35,42.5,47.5,47.5,,75,85,95,95,217.5,67.5,F,Валентина Стешенко,SBD,Raw
1,Valeriya Virchenko,O,1982,Ukraine,75,115,-125,-130,115,62.5,-67.5,-70,62.5,,-135,135,-145,135,312.5,75,F,Валерія Вірченко,SBD,Raw
1,Valeriya Virchenko,MS,1982,Ukraine,75,115,-125,-130,115,62.5,-67.5,-70,62.5,,-135,135,-145,135,312.5,75,F,Валерія Вірченко,SBD,Raw
1,Ekaterina Minyaylenko,J,1993,Ukraine,82.4,-115,120,-125,120,-60,62.5,-65,62.5,,120,-130,-130,120,302.5,82.5,F,Екатерина Миняйленко,SBD,Raw
1,Ekaterina Minyaylenko,O,1993,Ukraine,82.4,-115,120,-125,120,-60,62.5,-65,62.5,,120,-130,-130,120,302.5,82.5,F,Екатерина Миняйленко,SBD,Raw
1,Gleb Oboznyy,Y,2007,Ukraine,33.5,30,35,40,40,25,27.5,30,30,,50,55,60,60,130,48,M,Глеб Обозный,SBD,Raw
2,Andrey Glinskiy,T1,2005,Ukraine,34.5,25,35,40,40,25,30,-32.5,30,,35,45,50,50,120,48,M,Андрей Глинский,SBD,Raw
3,Anton Gnatusin,Y,2009,Ukraine,30.7,20,22.5,25,25,20,-22.5,22.5,22.5,,20,25,30,30,77.5,48,M,Антон Гнатусин,SBD,Raw
1,Anton Sharko,T2,2002,Ukraine,48,70,75,80,80,50,55,-60,55,,80,90,100,100,235,48,M,Антон Шарко,SBD,Raw
1,Anton Sharko,O,2002,Ukraine,48,70,75,80,80,50,55,-60,55,,80,90,100,100,235,48,M,Антон Шарко,SBD,Raw
2,Gleb Oboznyy,O,2007,Ukraine,33.5,30,35,40,40,25,27.5,30,30,,50,55,60,60,130,48,M,Глеб Обозный,SBD,Raw
3,Andrey Glinskiy,O,2005,Ukraine,34.5,25,35,40,40,25,30,-32.5,30,,35,45,50,50,120,48,M,Андрей Глинский,SBD,Raw
4,Anton Gnatusin,O,2009,Ukraine,30.7,20,22.5,25,25,20,-22.5,22.5,22.5,,20,25,30,30,77.5,48,M,Антон Гнатусин,SBD,Raw
1,Maksim Kravchenko,J,1994,Ukraine,67.5,160,-175,-175,160,85,-90,-90,85,,190,210,-220,210,455,67.5,M,Максим Кравченко,SBD,Raw
2,Vitaliy Tsyurak,J,1997,Ukraine,63.3,-115,115,-120,115,90,-95,-95,90,,140,160,-175,160,365,67.5,M,Виталий Цюрак,SBD,Raw
1,Maksim Kravchenko,O,1994,Ukraine,67.5,160,-175,-175,160,85,-90,-90,85,,190,210,-220,210,455,67.5,M,Максим Кравченко,SBD,Raw
2,Vitaliy Tsyurak,O,1997,Ukraine,63.3,-115,115,-120,115,90,-95,-95,90,,140,160,-175,160,365,67.5,M,Виталий Цюрак,SBD,Raw
1,Maksim Alesandrenko,T2,2002,Ukraine,72.5,100,110,117.5,117.5,55,-60,-60,55,,120,130,142.5,142.5,315,75,M,Максим Алесандренко,SBD,Raw
2,Ruslan Biletskiy,T2,2001,Ukraine,74.8,95,-105,110,110,65,70,-75,70,,115,-125,125,125,305,75,M,Руслан Билецкий,SBD,Raw
1,Stanislav Kinyakin,T3,1999,Ukraine,69,165,175,-180,175,115,125,-130,125,,200,210,215,215,515,75,M,Станислав Кинякин,SBD,Raw
2,Nikita Latukha,T3,2000,Ukraine,75,130,140,150,150,100,107.5,112.5,112.5,,190,205,217.5,217.5,480,75,M,Никита Латуха,SBD,Raw
3,Maksim Tkachenko,T3,1999,Ukraine,73.2,145,-155,160,160,-90,-90,90,90,,180,190,-210,190,440,75,M,Максим Ткаченко,SBD,Raw
4,Andrey Tatarnikov,T3,1999,Ukraine,73.4,135,-140,140,140,90,-95,97.5,97.5,,140,145,150,150,387.5,75,M,Андрей Татарников,SBD,Raw
5,Valeriy Govorun,T3,2000,Ukraine,70.1,115,125,-130,125,65,-70,75,75,,120,132.5,150,150,350,75,M,Валерий Говорун,SBD,Raw
1,Artem Fadeev,J,1998,Ukraine,75,140,145,-155,145,110,115,-117.5,115,,180,192.5,202.5,202.5,462.5,75,M,Артем Фадеев,SBD,Raw
1,Stanislav Kinyakin,O,1999,Ukraine,69,165,175,-180,175,115,125,-130,125,,200,210,215,215,515,75,M,Станислав Кинякин,SBD,Raw
2,Nikita Latukha,O,2000,Ukraine,75,130,140,150,150,100,107.5,112.5,112.5,,190,205,217.5,217.5,480,75,M,Никита Латуха,SBD,Raw
3,Sergey Denisenko,O,1982,Ukraine,71.6,150,155,160,160,110,117.5,120,120,,180,190,-200,190,470,75,M,Сергей Денисенко,SBD,Raw
4,Artem Fadeev,O,1998,Ukraine,75,140,145,-155,145,110,115,-117.5,115,,180,192.5,202.5,202.5,462.5,75,M,Артем Фадеев,SBD,Raw
5,Maksim Tkachenko,O,1999,Ukraine,73.2,145,-155,160,160,-90,-90,90,90,,180,190,-210,190,440,75,M,Максим Ткаченко,SBD,Raw
6,Andrey Belogub,O,1979,Ukraine,71.1,-140,140,150,150,110,-115,-115,110,,160,-180,-180,160,420,75,M,Андрей Белогуб,SBD,Raw
7,Andrey Tatarnikov,O,1999,Ukraine,73.4,135,-140,140,140,90,-95,97.5,97.5,,140,145,150,150,387.5,75,M,Андрей Татарников,SBD,Raw
8,Valeriy Govorun,O,2000,Ukraine,70.1,115,125,-130,125,65,-70,75,75,,120,132.5,150,150,350,75,M,Валерий Говорун,SBD,Raw
9,Maksim Alesandrenko,O,2002,Ukraine,72.5,100,110,117.5,117.5,55,-60,-60,55,,120,130,142.5,142.5,315,75,M,Максим Алесандренко,SBD,Raw
10,Ruslan Biletskiy,O,2001,Ukraine,74.8,95,-105,110,110,65,70,-75,70,,115,-125,125,125,305,75,M,Руслан Билецкий,SBD,Raw
1,Sergey Denisenko,MS,1982,Ukraine,71.6,150,155,160,160,110,117.5,120,120,,180,190,-200,190,470,75,M,Сергей Денисенко,SBD,Raw
2,Andrey Belogub,MS,1979,Ukraine,71.1,-140,140,150,150,110,-115,-115,110,,160,-180,-180,160,420,75,M,Андрей Белогуб,SBD,Raw
1,Akram Elshaaer Mesab,T1,2003,Ukraine,82,90,100,110,110,80,90,-92.5,90,,120,140,160,160,360,82.5,M,Акрам Эльшааер Месаб,SBD,Raw
1,Bogdan Smolyakov,T3,1999,Ukraine,82.2,160,-170,170,170,110,120,125,125,,200,210,-212.5,210,505,82.5,M,Богдан Смоляков,SBD,Raw
1,Ruslan Chiken,O,1986,Ukraine,81.1,200,210,217.5,217.5,125,132.5,-137.5,132.5,,245,255,262.5,262.5,612.5,82.5,M,Руслан Чикен,SBD,Raw
2,Bogdan Smolyakov,O,1999,Ukraine,82.2,160,-170,170,170,110,120,125,125,,200,210,-212.5,210,505,82.5,M,Богдан Смоляков,SBD,Raw
3,Akram Elshaaer Mesab,O,2003,Ukraine,82,90,100,110,110,80,90,-92.5,90,,120,140,160,160,360,82.5,M,Акрам Эльшааер Месаб,SBD,Raw
DQ,Yuriy Prokopenko #1,O,1982,Ukraine,80.5,135,140,145,145,-90,-95,-95,,,135,142.5,150,150,,82.5,M,Юрий Прокопенко,SBD,Raw
DQ,Yuriy Prokopenko #1,MS,1982,Ukraine,80.5,135,140,145,145,-90,-95,-95,,,135,142.5,150,150,,82.5,M,Юрий Прокопенко,SBD,Raw
1,Mykhaylo Chumak,J,1995,Ukraine,88.5,225,-235,235,235,130,135,140,140,,255,265,270,270,645,90,M,Михайло Чумак,SBD,Raw
1,Mykhaylo Chumak,O,1995,Ukraine,88.5,225,-235,235,235,130,135,140,140,,255,265,270,270,645,90,M,Михайло Чумак,SBD,Raw
2,Andrey Novokhatskiy,O,1985,Ukraine,87.1,170,185,200,200,120,130,-135,130,,200,227.5,-230,227.5,557.5,90,M,Андрей Новохацкий,SBD,Raw
1,Vadim Vadimenko,O,1992,Ukraine,98.4,230,-240,240,240,160,170,-175,170,,240,250,260,260,670,100,M,Вадим Вадименко,SBD,Raw
2,Igor Dubovik,O,1992,Ukraine,97.5,175,200,212.5,212.5,130,140,-142.5,140,,225,250,-262.5,250,602.5,100,M,Игорь Дубовик,SBD,Raw
3,Andrey Yuryev,O,1987,Ukraine,95.7,175,185,200,200,130,140,150,150,,200,220,240,240,590,100,M,Андрей Юрьев,SBD,Raw
4,Konstantin Vaschenko,O,1980,Ukraine,97.1,135,140,152.5,152.5,95,-102.5,102.5,102.5,,150,160,170,170,425,100,M,Константин Ващенко,SBD,Raw
1,Konstantin Vaschenko,MS,1980,Ukraine,97.1,135,140,152.5,152.5,95,-102.5,102.5,102.5,,150,160,170,170,425,100,M,Константин Ващенко,SBD,Raw
1,Denis Nazarenko,J,1993,Ukraine,108.3,190,200,210,210,130,145,155,155,,230,245,255,255,620,110,M,Денис Назаренко,SBD,Raw
2,Maksim Volkov,J,1994,Ukraine,107.7,180,190,200,200,130,135,140,140,,195,210,-220,210,550,110,M,Максим Волков,SBD,Raw
3,Anton Shabelnikov,J,1995,Ukraine,105.4,170,180,-200,180,130,-135,,130,,170,190,-210,190,500,110,M,Антон Шабельников,SBD,Raw
1,Denis Nazarenko,O,1993,Ukraine,108.3,190,200,210,210,130,145,155,155,,230,245,255,255,620,110,M,Денис Назаренко,SBD,Raw
2,Kirill Kramar,O,1992,Ukraine,105.9,180,195,-202.5,195,-160,165,-170,165,,220,235,245,245,605,110,M,Кирилл Крамар,SBD,Raw
3,Maksim Volkov,O,1994,Ukraine,107.7,180,190,200,200,130,135,140,140,,195,210,-220,210,550,110,M,Максим Волков,SBD,Raw
4,Sergiy Zakharov,O,1977,Ukraine,101.8,180,190,-195,190,150,155,160,160,,180,,,180,530,110,M,Сергій Захаров,SBD,Raw
5,Anton Shabelnikov,O,1995,Ukraine,105.4,170,180,-200,180,130,-135,,130,,170,190,-210,190,500,110,M,Антон Шабельников,SBD,Raw
1,Sergiy Zakharov,M1,1977,Ukraine,101.8,180,190,-195,190,150,155,160,160,,180,,,180,530,110,M,Сергій Захаров,SBD,Raw
1,Maksim Stanislavov,O,1972,Ukraine,123.3,245,257.5,265,265,165,172.5,-177.5,172.5,,257.5,270,277.5,277.5,715,125,M,Максим Станиславов,SBD,Raw
2,Dmitro Kravchinskiy,O,1982,Ukraine,118.5,170,185,190,190,175,185,-190,185,,-240,250,275,275,650,125,M,Дмитро Кравчинський,SBD,Raw
3,Rostislav Zachepa,O,1992,Ukraine,124.2,210,220,-225,220,175,185,-190,185,,230,-245,245,245,650,125,M,Ростислав Зачепа,SBD,Raw
1,Maksim Stanislavov,M2,1972,Ukraine,123.3,245,257.5,265,265,165,172.5,-177.5,172.5,,257.5,270,277.5,277.5,715,125,M,Максим Станиславов,SBD,Raw
1,Dmitro Kravchinskiy,MS,1982,Ukraine,118.5,170,185,190,190,175,185,-190,185,,-240,250,275,275,650,125,M,Дмитро Кравчинський,SBD,Raw
1,Anastasiya Voschenko,J,1995,Ukraine,48,,,,,65,-67.5,67.5,67.5,,,,,,67.5,48,F,Анастасія Вощенко,B,Raw
2,Mariya Shvedskaya,J,1993,Ukraine,46.3,,,,,47.5,-50,-50,47.5,,,,,,47.5,48,F,Мария Шведская,B,Raw
1,Anastasiya Voschenko,O,1995,Ukraine,48,,,,,65,-67.5,67.5,67.5,,,,,,67.5,48,F,Анастасія Вощенко,B,Raw
2,Mariya Shvedskaya,O,1993,Ukraine,46.3,,,,,47.5,-50,-50,47.5,,,,,,47.5,48,F,Мария Шведская,B,Raw
1,Karina Mityaeva,T2,2001,Ukraine,49.8,,,,,35,45,-48,45,,,,,,45,52,F,Карина Митяева,B,Raw
1,Anna Chibisova,O,1992,Ukraine,51,,,,,67.5,69,-71,69,,,,,,69,52,F,Анна Чибисова,B,Raw
2,Darya Melnikova,O,1990,Ukraine,49.2,,,,,57.5,62.5,-65,62.5,,,,,,62.5,52,F,Дар'я Мельникова,B,Raw
3,Karina Mityaeva,O,2001,Ukraine,49.8,,,,,35,45,-48,45,,,,,,45,52,F,Карина Митяева,B,Raw
1,Anastasiya Vinnik,T3,1999,Ukraine,55.6,,,,,65,-70,-70,65,,,,,,65,56,F,Анастасія Винник,B,Raw
2,Tatyana Baksheeva,T3,2000,Ukraine,54,,,,,40,45,-47.5,45,,,,,,45,56,F,Татьяна Бакшеева,B,Raw
1,Anastasiya Vinnik,O,1999,Ukraine,55.6,,,,,65,-70,-70,65,,,,,,65,56,F,Анастасія Винник,B,Raw
2,Tatyana Baksheeva,O,2000,Ukraine,54,,,,,40,45,-47.5,45,,,,,,45,56,F,Татьяна Бакшеева,B,Raw
1,Elizaveta Tolubenko,T3,1999,Ukraine,59.6,,,,,62.5,65,67.5,67.5,,,,,,67.5,60,F,Єлизавета Толубенко,B,Raw
1,Elizaveta Tolubenko,O,1999,Ukraine,59.6,,,,,62.5,65,67.5,67.5,,,,,,67.5,60,F,Єлизавета Толубенко,B,Raw
1,Yuliya Sazonova,O,1992,Ukraine,67,,,,,67.5,70,-72.5,70,,,,,,70,67.5,F,Юлия Сазонова,B,Raw
2,Elena Chuchupal,O,1986,Ukraine,61.1,,,,,62.5,65,-70,65,,,,,,65,67.5,F,Елена Чучупал,B,Raw
1,Anastasiya Fursova,J,1994,Ukraine,71.1,,,,,55,57.5,60,60,,,,,,60,75,F,Анастасия Фурсова,B,Raw
1,Anastasiya Fursova,O,1994,Ukraine,71.1,,,,,55,57.5,60,60,,,,,,60,75,F,Анастасия Фурсова,B,Raw
1,Vladislav Vyrodov,T1,2003,Ukraine,54.9,,,,,50,55,57.5,57.5,60,,,,,57.5,56,M,Владислав Выродов,B,Raw
2,Vladislav Medvedev,T1,2004,Ukraine,55.1,,,,,47.5,-52.5,52.5,52.5,,,,,,52.5,56,M,Владислав Медведев,B,Raw
1,Evgeniy Marchenko,T2,2001,Ukraine,56,,,,,70,80,82.5,82.5,,,,,,82.5,56,M,Евгений Марченко,B,Raw
1,Evgeniy Marchenko,O,2001,Ukraine,56,,,,,70,80,82.5,82.5,,,,,,82.5,56,M,Евгений Марченко,B,Raw
2,Vladislav Vyrodov,O,2003,Ukraine,54.9,,,,,50,55,57.5,57.5,60,,,,,57.5,56,M,Владислав Выродов,B,Raw
3,Vladislav Medvedev,O,2004,Ukraine,55.1,,,,,47.5,-52.5,52.5,52.5,,,,,,52.5,56,M,Владислав Медведев,B,Raw
1,Vladislav Gatsura,T1,2004,Ukraine,58.2,,,,,60,62.5,-65,62.5,,,,,,62.5,60,M,Владислав Гацура,B,Raw
1,Abed Dhurgham Khalid,J,1995,Iraq,58,,,,,70,72.5,-75,72.5,,,,,,72.5,60,M,,B,Raw
1,Abed Dhurgham Khalid,O,1995,Iraq,58,,,,,70,72.5,-75,72.5,,,,,,72.5,60,M,,B,Raw
2,Vladislav Gatsura,O,2004,Ukraine,58.2,,,,,60,62.5,-65,62.5,,,,,,62.5,60,M,Владислав Гацура,B,Raw
1,Aleksandr Pochekuev,T2,2001,Ukraine,65.9,,,,,75,85,90,90,,,,,,90,67.5,M,Александр Почекуев,B,Raw
1,Kostyantyn Kryvonos,J,1996,Ukraine,66.4,,,,,125,130,-132.5,130,,,,,,130,67.5,M,Костянтин Кривонос,B,Raw
2,Sirozhiddin Zhumaev,J,1997,Ukraine,66.5,,,,,-120,-125,127.5,127.5,132.5,,,,,127.5,67.5,M,Сирожиддин Жумаев,B,Raw
3,Ruslan Sorochinskiy,J,1993,Ukraine,65.9,,,,,117.5,122.5,-125,122.5,,,,,,122.5,67.5,M,Руслан Сорочинський,B,Raw
1,Kostyantyn Kryvonos,O,1996,Ukraine,66.4,,,,,125,130,-132.5,130,,,,,,130,67.5,M,Костянтин Кривонос,B,Raw
2,Sirozhiddin Zhumaev,O,1997,Ukraine,66.5,,,,,-120,-125,127.5,127.5,132.5,,,,,127.5,67.5,M,Сирожиддин Жумаев,B,Raw
3,Ruslan Sorochinskiy,O,1993,Ukraine,65.9,,,,,117.5,122.5,-125,122.5,,,,,,122.5,67.5,M,Руслан Сорочинський,B,Raw
4,Sergey Morozov,O,1979,Ukraine,67.2,,,,,115,-120,-125,115,,,,,,115,67.5,M,Сергей Морозов,B,Raw
5,Aleksandr Pochekuev,O,2001,Ukraine,65.9,,,,,75,85,90,90,,,,,,90,67.5,M,Александр Почекуев,B,Raw
1,Sergey Morozov,MS,1979,Ukraine,67.2,,,,,115,-120,-125,115,,,,,,115,67.5,M,Сергей Морозов,B,Raw
1,Vladislav Katrechko,T3,1999,Ukraine,71,,,,,-150,155,-157.5,155,,,,,,155,75,M,Владислав Катречко,B,Raw
2,Maksim Mironov,T3,1999,Ukraine,72.4,,,,,100,-110,-110,100,,,,,,100,75,M,Максим Миронов,B,Raw
1,Anatoliy Chervinskiy,J,1995,Ukraine,74.5,,,,,135,140,-145,140,,,,,,140,75,M,Анатолий Червинский,B,Raw
2,Kirill Shevchenko,J,1997,Ukraine,74.56,,,,,100,115,122.5,122.5,,,,,,122.5,75,M,Кирилл Шевченко,B,Raw
3,Yaroslav Kalchenko,J,1993,Ukraine,73.4,,,,,115,-122.5,-122.5,115,,,,,,115,75,M,Ярослав Кальченко,B,Raw
4,Evgeniy Vorobyev,J,1993,Ukraine,74.9,,,,,110,-120,-120,110,,,,,,110,75,M,Евгений Воробьев,B,Raw
1,Sergey Skosarev,O,1990,Ukraine,74.56,,,,,150,157.5,-160,157.5,,,,,,157.5,75,M,Сергей Скосарев,B,Raw
2,Vladislav Katrechko,O,1999,Ukraine,71,,,,,-150,155,-157.5,155,,,,,,155,75,M,Владислав Катречко,B,Raw
3,Anatoliy Chervinskiy,O,1995,Ukraine,74.5,,,,,135,140,-145,140,,,,,,140,75,M,Анатолий Червинский,B,Raw
4,Vitaliy Khoruzhenko,O,1983,Ukraine,71.5,,,,,130,137.5,-142.5,137.5,,,,,,137.5,75,M,Виталий Хоруженко,B,Raw
5,Yuriy Medvedev #1,O,1978,Ukraine,73.1,,,,,115,122.5,-130,122.5,,,,,,122.5,75,M,Юрий Медведев,B,Raw
6,Kirill Shevchenko,O,1997,Ukraine,74.56,,,,,100,115,122.5,122.5,,,,,,122.5,75,M,Кирилл Шевченко,B,Raw
7,Yaroslav Kalchenko,O,1993,Ukraine,73.4,,,,,115,-122.5,-122.5,115,,,,,,115,75,M,Ярослав Кальченко,B,Raw
8,Evgeniy Vorobyev,O,1993,Ukraine,74.9,,,,,110,-120,-120,110,,,,,,110,75,M,Евгений Воробьев,B,Raw
9,Maksim Mironov,O,1999,Ukraine,72.4,,,,,100,-110,-110,100,,,,,,100,75,M,Максим Миронов,B,Raw
1,Yuriy Medvedev #1,MS,1978,Ukraine,73.1,,,,,115,122.5,-130,122.5,,,,,,122.5,75,M,Юрий Медведев,B,Raw
DQ,Vladislav Sokolov,T3,1999,Ukraine,81.7,,,,,-100,-105,,,,,,,,,82.5,M,Владислав Соколов,B,Raw
1,Nikita Isaev,J,1996,Ukraine,79.8,,,,,170,177.5,182.5,182.5,-188,,,,,182.5,82.5,M,Никита Исаев,B,Raw
2,Leonid Koloda,J,1993,Ukraine,80.5,,,,,-140,155,-170,155,,,,,,155,82.5,M,Леонид Колода,B,Raw
3,Sergey Popovich,J,1997,Ukraine,80,,,,,125,-130,-130,125,,,,,,125,82.5,M,Сергей Попович,B,Raw
4,Aleksandr Gundertaylo,J,1996,Ukraine,77.56,,,,,115,120,-125,120,,,,,,120,82.5,M,Александр Гундертайло,B,Raw
1,Nikita Isaev,O,1996,Ukraine,79.8,,,,,170,177.5,182.5,182.5,-188,,,,,182.5,82.5,M,Никита Исаев,B,Raw
2,Evgeniy Lukyanov #4,O,1981,Ukraine,78.8,,,,,160,170,-175,170,,,,,,170,82.5,M,Евгений Лукьянов,B,Raw
3,Nikolay Gotvyanskiy,O,1986,Ukraine,81.7,,,,,155,160,162.5,162.5,-165,,,,,162.5,82.5,M,Николай Готвянский,B,Raw
4,Leonid Koloda,O,1993,Ukraine,80.5,,,,,-140,155,-170,155,,,,,,155,82.5,M,Леонид Колода,B,Raw
5,Aleksandr Boychenko,O,1986,Ukraine,81.5,,,,,-122.5,127.5,132.5,132.5,,,,,,132.5,82.5,M,Александр Бойченко,B,Raw
6,Sergey Popovich,O,1997,Ukraine,80,,,,,125,-130,-130,125,,,,,,125,82.5,M,Сергей Попович,B,Raw
7,Aleksandr Gundertaylo,O,1996,Ukraine,77.56,,,,,115,120,-125,120,,,,,,120,82.5,M,Александр Гундертайло,B,Raw
DQ,Vladislav Sokolov,O,1999,Ukraine,81.7,,,,,-100,-105,,,,,,,,,82.5,M,Владислав Соколов,B,Raw
1,Evgeniy Lukyanov #4,MS,1981,Ukraine,78.8,,,,,160,170,-175,170,,,,,,170,82.5,M,Евгений Лукьянов,B,Raw
1,Vasil Tovkan,T3,1999,Ukraine,89.46,,,,,170,-175,-175,170,,,,,,170,90,M,Василь Товкан,B,Raw
1,Nikita Kizim,J,1993,Ukraine,88.1,,,,,187.5,192.5,-200,192.5,,,,,,192.5,90,M,Никита Кизим,B,Raw
2,Roman Antonov,J,1995,Ukraine,88.5,,,,,-180,180,-190,180,,,,,,180,90,M,Роман Антонов,B,Raw
3,David Rogava,J,1995,Ukraine,86.34,,,,,160,165,-172.5,165,,,,,,165,90,M,Давид Рогава,B,Raw
4,Maksim Pavlyuchenko,J,1994,Ukraine,88.8,,,,,-140,145,-157.5,145,,,,,,145,90,M,Максим Павлюченко,B,Raw
DQ,Denis Gradovskiy,J,1995,Ukraine,85.94,,,,,-140,-140,-140,,,,,,,,90,M,Денис Градовский,B,Raw
1,Nikita Kizim,O,1993,Ukraine,88.1,,,,,187.5,192.5,-200,192.5,,,,,,192.5,90,M,Никита Кизим,B,Raw
2,Roman Antonov,O,1995,Ukraine,88.5,,,,,-180,180,-190,180,,,,,,180,90,M,Роман Антонов,B,Raw
3,Vasil Tovkan,O,1999,Ukraine,89.46,,,,,170,-175,-175,170,,,,,,170,90,M,Василь Товкан,B,Raw
4,David Rogava,O,1995,Ukraine,86.34,,,,,160,165,-172.5,165,,,,,,165,90,M,Давид Рогава,B,Raw
5,Andrey Kozlov,O,1982,Ukraine,89.8,,,,,145,157.5,162.5,162.5,,,,,,162.5,90,M,Андрей Козлов,B,Raw
6,Denis Kharkovskiy,O,1988,Ukraine,89.9,,,,,155,162.5,-167.5,162.5,,,,,,162.5,90,M,Денис Харьковский,B,Raw
7,Anton Gladkikh,O,1985,Ukraine,87.8,,,,,140,150,157.5,157.5,,,,,,157.5,90,M,Антон Гладких,B,Raw
8,Oleg Kravchenko,O,1986,Ukraine,89.1,,,,,147.5,157.5,-162.5,157.5,,,,,,157.5,90,M,Олег Кравченко,B,Raw
9,Maksim Pavlyuchenko,O,1994,Ukraine,88.8,,,,,-140,145,-157.5,145,,,,,,145,90,M,Максим Павлюченко,B,Raw
10,Denis Golovko,O,1987,Ukraine,86.3,,,,,140,-157.5,-157.5,140,,,,,,140,90,M,Денис Головко,B,Raw
11,Andrey Usatov,O,1980,Ukraine,89.3,,,,,130,140,-145,140,,,,,,140,90,M,Андрей Усатов,B,Raw
12,Stanislav Anischenko,O,1985,Ukraine,89.9,,,,,135,-142.5,-142.5,135,,,,,,135,90,M,Станислав Анищенко,B,Raw
13,Dmitriy Pashkov,O,1986,Ukraine,89.3,,,,,112.5,120,-122.5,120,,,,,,120,90,M,Дмитрий Пашков,B,Raw
14,Ivan Kalmykov,O,1973,Ukraine,89.5,,,,,115,-117.5,-117.5,115,,,,,,115,90,M,Іван Калмиков,B,Raw
DQ,Denis Gradovskiy,O,1995,Ukraine,85.94,,,,,-140,-140,-140,,,,,,,,90,M,Денис Градовский,B,Raw
1,Ivan Kalmykov,M1,1973,Ukraine,89.5,,,,,115,-117.5,-117.5,115,,,,,,115,90,M,Іван Калмиков,B,Raw
1,Andrey Kozlov,MS,1982,Ukraine,89.8,,,,,145,157.5,162.5,162.5,,,,,,162.5,90,M,Андрей Козлов,B,Raw
2,Andrey Usatov,MS,1980,Ukraine,89.3,,,,,130,140,-145,140,,,,,,140,90,M,Андрей Усатов,B,Raw
1,Nikita Bulgakov,T3,1998,Ukraine,97.3,,,,,140,-145,-145,140,,,,,,140,100,M,Никита Булгаков,B,Raw
2,Yaroslav Skidan,T3,1998,Ukraine,95.2,,,,,110,120,-125,120,,,,,,120,100,M,Ярослав Скидан,B,Raw
1,Andriy Ogorodnikov,J,1996,Ukraine,100,,,,,-180,180,190,190,,,,,,190,100,M,Андрій Огородніков,B,Raw
2,Vitaliy Blazhko,J,1994,Ukraine,98.88,,,,,160,165,-170,165,,,,,,165,100,M,Віталій Блажко,B,Raw
3,Vladislav Levdikov,J,1995,Ukraine,98.98,,,,,-165,165,-175,165,,,,,,165,100,M,Владислав Левдиков,B,Raw
4,Anton Nosanev,J,1997,Ukraine,98,,,,,130,135,-140,135,,,,,,135,100,M,Антон Носанев,B,Raw
5,Denis Kuchmistiy,J,1997,Ukraine,92.8,,,,,125,130,-140,130,,,,,,130,100,M,Денис Кучмистий,B,Raw
1,Anatoliy Kalachinskiy,O,1978,Ukraine,98,,,,,200,210,-215,210,,,,,,210,100,M,Анатолій Калачинський,B,Raw
2,Andriy Ogorodnikov,O,1996,Ukraine,100,,,,,-180,180,190,190,,,,,,190,100,M,Андрій Огородніков,B,Raw
3,Stanislav Shevchenko,O,1982,Ukraine,98.4,,,,,150,165,172.5,172.5,,,,,,172.5,100,M,Станислав Шевченко,B,Raw
4,Maksim Nechausov,O,1972,Ukraine,97.6,,,,,165,170,-172.5,170,,,,,,170,100,M,Максим Нечаусов,B,Raw
5,Vitaliy Blazhko,O,1994,Ukraine,98.88,,,,,160,165,-170,165,,,,,,165,100,M,Віталій Блажко,B,Raw
6,Vladislav Levdikov,O,1995,Ukraine,98.98,,,,,-165,165,-175,165,,,,,,165,100,M,Владислав Левдиков,B,Raw
7,Viktor Ovcharenko,O,1986,Ukraine,95.24,,,,,147.5,157.5,-165,157.5,,,,,,157.5,100,M,Виктор Овчаренко,B,Raw
8,Sergey Bagrich,O,1973,Ukraine,99.6,,,,,140,147.5,155,155,-165,,,,,155,100,M,Сергей Багрич,B,Raw
9,Dmitriy Ivanov,O,1980,Ukraine,97.8,,,,,130,140,150,150,,,,,,150,100,M,Дмитрий Иванов,B,Raw
10,Andrey Fokin,O,1986,Ukraine,94.6,,,,,140,147.5,-157.5,147.5,,,,,,147.5,100,M,Андрей Фокин,B,Raw
11,Nikita Bulgakov,O,1998,Ukraine,97.3,,,,,140,-145,-145,140,,,,,,140,100,M,Никита Булгаков,B,Raw
12,Artem Oskolkov,O,1981,Ukraine,98.6,,,,,130,135,140,140,,,,,,140,100,M,Артем Осколков,B,Raw
13,Anton Nosanev,O,1997,Ukraine,98,,,,,130,135,-140,135,,,,,,135,100,M,Антон Носанев,B,Raw
14,Denis Kuchmistiy,O,1997,Ukraine,92.8,,,,,125,130,-140,130,,,,,,130,100,M,Денис Кучмистий,B,Raw
15,Sergiy Pavlov,O,1954,Ukraine,91.5,,,,,110,115,120,120,,,,,,120,100,M,Сергій Павлов,B,Raw
16,Yaroslav Skidan,O,1998,Ukraine,95.2,,,,,110,120,-125,120,,,,,,120,100,M,Ярослав Скидан,B,Raw
17,Konstantin Mikhaylenko,O,1969,Ukraine,97,,,,,100,-105,105,105,,,,,,105,100,M,Константин Михайленко,B,Raw
DQ,Aleksey Paliy,O,1981,Ukraine,93.5,,,,,-160,-160,-165,,,,,,,,100,M,Алексей Палий,B,Raw
DQ,Sergey Kaloshin,O,1975,Ukraine,98.1,,,,,-165,-165,,,,,,,,,100,M,Сергей Калошин,B,Raw
DQ,Sergey Kaloshin,M1,1975,Ukraine,98.1,,,,,-165,-165,,,,,,,,,100,M,Сергей Калошин,B,Raw
1,Maksim Nechausov,M2,1972,Ukraine,97.6,,,,,165,170,-172.5,170,,,,,,170,100,M,Максим Нечаусов,B,Raw
2,Sergey Bagrich,M2,1973,Ukraine,99.6,,,,,140,147.5,155,155,-165,,,,,155,100,M,Сергей Багрич,B,Raw
3,Konstantin Mikhaylenko,M2,1969,Ukraine,97,,,,,100,-105,105,105,,,,,,105,100,M,Константин Михайленко,B,Raw
1,Sergiy Pavlov,M5,1954,Ukraine,91.5,,,,,110,115,120,120,,,,,,120,100,M,Сергій Павлов,B,Raw
1,Anatoliy Kalachinskiy,MS,1978,Ukraine,98,,,,,200,210,-215,210,,,,,,210,100,M,Анатолій Калачинський,B,Raw
2,Stanislav Shevchenko,MS,1982,Ukraine,98.4,,,,,150,165,172.5,172.5,,,,,,172.5,100,M,Станислав Шевченко,B,Raw
3,Dmitriy Ivanov,MS,1980,Ukraine,97.8,,,,,130,140,150,150,,,,,,150,100,M,Дмитрий Иванов,B,Raw
4,Artem Oskolkov,MS,1981,Ukraine,98.6,,,,,130,135,140,140,,,,,,140,100,M,Артем Осколков,B,Raw
DQ,Aleksey Paliy,MS,1981,Ukraine,93.5,,,,,-160,-160,-165,,,,,,,,100,M,Алексей Палий,B,Raw
1,Vladimir Stelmakh,J,1994,Ukraine,105.5,,,,,155,175,-180,175,,,,,,175,110,M,Владимир Стельмах,B,Raw
1,Sergiy Solomakha,O,1982,Ukraine,109.6,,,,,200,210,,210,,,,,,210,110,M,Сергій Соломаха,B,Raw
2,Andrey Markelov,O,1973,Ukraine,104,,,,,185,190,195,195,-200,,,,,195,110,M,Андрей Маркелов,B,Raw
3,Mykola Korniyenko,O,1966,Ukraine,106,,,,,180,185,190,190,-192.5,,,,,190,110,M,Микола Корнієнко,B,Raw
4,Viktor Kozhushko,O,1987,Ukraine,102,,,,,175,185,-195,185,,,,,,185,110,M,Виктор Кожушко,B,Raw
5,Vladimir Stelmakh,O,1994,Ukraine,105.5,,,,,155,175,-180,175,,,,,,175,110,M,Владимир Стельмах,B,Raw
6,Dmitriy Maryenko,O,1970,Ukraine,107.65,,,,,160,170,175,175,,,,,,175,110,M,Дмитрий Марьенко,B,Raw
7,Sergiy Zakharov,O,1977,Ukraine,101.8,,,,,160,,,160,,,,,,160,110,M,Сергій Захаров,B,Raw
8,Roman Khokhlov,O,1987,Ukraine,109.9,,,,,152.5,157.5,160,160,,,,,,160,110,M,Роман Хохлов,B,Raw
9,Igor Maryenkov,O,1969,Ukraine,108.12,,,,,140,-145,-145,140,,,,,,140,110,M,Ігор Мар'єнков,B,Raw
1,Andrey Markelov,M1,1973,Ukraine,104,,,,,185,190,195,195,-200,,,,,195,110,M,Андрей Маркелов,B,Raw
2,Sergiy Zakharov,M1,1977,Ukraine,101.8,,,,,160,,,160,,,,,,160,110,M,Сергій Захаров,B,Raw
1,Dmitriy Maryenko,M2,1970,Ukraine,107.65,,,,,160,170,175,175,,,,,,175,110,M,Дмитрий Марьенко,B,Raw
2,Igor Maryenkov,M2,1969,Ukraine,108.12,,,,,140,-145,-145,140,,,,,,140,110,M,Ігор Мар'єнков,B,Raw
1,Mykola Korniyenko,M3,1966,Ukraine,106,,,,,180,185,190,190,-192.5,,,,,190,110,M,Микола Корнієнко,B,Raw
1,Sergiy Solomakha,MS,1982,Ukraine,109.6,,,,,200,210,,210,,,,,,210,110,M,Сергій Соломаха,B,Raw
1,Sergiy Dyak,O,1993,Ukraine,121.5,,,,,200,210,-220,210,,,,,,210,125,M,Сергій Дяк,B,Raw
2,Dmitro Kravchinskiy,O,1982,Ukraine,118.5,,,,,175,-182.5,182.5,182.5,,,,,,182.5,125,M,Дмитро Кравчинський,B,Raw
3,Roman Ogulchanskiy,O,1971,Ukraine,120,,,,,-165,165,177.5,177.5,,,,,,177.5,125,M,Роман Огульчанский,B,Raw
4,Sergey Khristyuk,O,1993,Ukraine,111.7,,,,,165,170,175,175,,,,,,175,125,M,Сергей Христюк,B,Raw
1,Roman Ogulchanskiy,M2,1971,Ukraine,120,,,,,-165,165,177.5,177.5,,,,,,177.5,125,M,Роман Огульчанский,B,Raw
1,Dmitro Kravchinskiy,MS,1982,Ukraine,118.5,,,,,175,-182.5,182.5,182.5,,,,,,182.5,125,M,Дмитро Кравчинський,B,Raw
