Place,Name,CyrillicName,BodyweightKg,Bench1Kg,Bench2Kg,Bench3Kg,TotalKg,WeightClassKg,Division,Sex,Event,Equipment,Best3BenchKg,BirthYear
1,Stas Sheyko,Стас Шейко,67.5,110,-115,-115,110,67.5,Pro Open,M,B,Raw,110,1986
2,Vladislav Gorbenko,Владислав Горбенко,63.4,95,100,102.5,102.5,67.5,Pro Open,M,B,Raw,102.5,1972
3,Maksim Lastovskiy,Максим Ластовский,62.5,85,90,-92.5,90,67.5,Pro Open,M,B,Raw,90,1974
1,Vadim Barannik,Вадим Баранник,70.5,125,130,-135,130,75,Pro Open,M,B,Raw,130,1984
2,Denis Zhirov,Денис Жиров,75,115,-120,-120,115,75,Pro Open,M,B,Raw,115,1988
3,Artur Larchenko,Артур Ларченко,75,95,100,-102.5,100,75,Pro Open,M,B,Raw,100,1986
4,Konstantin Berezhnoy,Константин Бережной,74.7,95,-97.5,-100,95,75,Pro Open,M,B,Raw,95,1980
DQ,Dmitriy Sinitsin,Дмитрий Синицин,74.4,-115,,,,75,Pro Open,M,B,Raw,,1987
1,Vyacheslav Ovcharuk,Вячеслав Овчарук,80.7,135,-140,140,140,82.5,Pro Open,M,B,Raw,140,1985
2,Vitaliy Torkay,Віталій Торкай,76,-130,-130,130,130,82.5,Pro Open,M,B,Raw,130,1976
3,Ruslan Lebedinskiy,Руслан Лебединский,78,100,107.5,115,115,82.5,Pro Open,M,B,Raw,115,1984
4,Maksim Trokhimchuk,Максим Трохимчук,82.5,102.5,-110,-110,102.5,82.5,Pro Open,M,B,Raw,102.5,1981
1,Oleksandr Golovko,Олександр Головко,89.4,180,-185,-185,180,90,Pro Open,M,B,Raw,180,1986
2,Oleg Volkov,Олег Волков,88,175,-190,-190,175,90,Pro Open,M,B,Raw,175,1973
3,Dmitriy Shatokhin,Дмитрий Шатохин,88.8,145,-150,-150,145,90,Pro Open,M,B,Raw,145,1977
3,Anatoliy Lopatkin,Анатолій Лопаткін,88.8,-140,140,145,145,90,Pro Open,M,B,Raw,145,1979
5,Andrey Tarnovskiy,Андрей Тарновский,88,130,-135,135,135,90,Pro Open,M,B,Raw,135,1973
6,Andrey KuYshkin,Андрей КуЫшкин,89.2,130,-135,-135,130,90,Pro Open,M,B,Raw,130,1977
DQ,Dmitriy Stupak,Дмитрий Ступак,84.4,-140,,,,90,Pro Open,M,B,Raw,,1976
DQ,Denis Petrov,Денис Петров,95.4,-135,-135,-135,,100,Pro Open,M,B,Raw,,1984
1,Andrey Lomnitskiy,Андрей Ломницкий,108.3,170,180,-182.5,180,110,Pro Open,M,B,Raw,180,1980
2,Aleksey Gurtovoy,Алексей Гуртовой,101.8,130,-135,-135,130,110,Pro Open,M,B,Raw,130,1984
1,Vitaliy Chunikhovskiy,Віталій Чуніховський,115.5,-170,170,-177.5,170,125,Pro Open,M,B,Raw,170,1983
1,Igor Starchenko,Ігор Старченко,42.5,27.5,32.5,35,35,52,Pro Teen 13-15,M,B,Raw,35,
1,Vladimir Kolesnik,Владимир Колесник,56,70,75,-80,75,56,Pro Teen 13-15,M,B,Raw,75,1997
1,Artur Sozinov,Артур Созінов,56.7,47.5,-52.5,-55,47.5,60,Pro Teen 13-15,M,B,Raw,47.5,1998
DQ,Andrey Rudoy,Андрей Рудой,65.6,-95,-95,-95,,67.5,Pro Teen 13-15,M,B,Raw,,1995
1,Ernest Tavakalyan,Эрнест Тавакалян,59.5,62.5,65,-67.5,65,60,Pro Teen 16-17,M,B,Raw,65,1995
1,Vladislav Kovalenko,Владислав Коваленко,65.7,82.5,87.5,92.5,92.5,67.5,Pro Teen 16-17,M,B,Raw,92.5,1995
1,Aleksey Kizyma,Алексей Кизыма,70.5,95,-102.5,-102.5,95,75,Pro Teen 16-17,M,B,Raw,95,1995
2,Nikita Smirnov,Никита Смирнов,75,77.5,80,-82.5,80,75,Pro Teen 16-17,M,B,Raw,80,1994
1,Rodion Shmalko,Родион Шмалько,89.9,77.5,-80,-80,77.5,90,Pro Teen 16-17,M,B,Raw,77.5,1995
1,Aleksandr Bychkov,Александр Бычков,75,120,122.5,-125,122.5,75,Pro Teen 18-19,M,B,Raw,122.5,1992
2,Vyacheslav Khayan,Вячеслав Хаян,74,90,95,-100,95,75,Pro Teen 18-19,M,B,Raw,95,1993
1,Efim Voloshin,Ефим Волошин,82.5,125,-132.5,135,135,82.5,Pro Teen 18-19,M,B,Raw,135,1992
1,Artyom Berezhnoy,Артём Бережной,59,80,-90,90,90,60,Pro Juniors 20-23,M,B,Raw,90,1990
1,Ashot Eganyan,Ашот Єганян,64,130,140,145,145,67.5,Pro Juniors 20-23,M,B,Raw,145,1990
1,Andrey Verkhovtsev,Андрей Верховцев,75,130,132.5,135,135,75,Pro Juniors 20-23,M,B,Raw,135,1991
2,Aleksandr Klimenko,Александр Клименко,74.3,115,120,125,125,75,Pro Juniors 20-23,M,B,Raw,125,1990
3,Rustam Dzhabarov,Рустам Джабаров,73,110,115,-120,115,75,Pro Juniors 20-23,M,B,Raw,115,1990
1,Sergey Skorodumov,Сергей Скородумов,81,140,150,-155,150,82.5,Pro Juniors 20-23,M,B,Raw,150,1991
2,Artyom Arakelyan,Артём Аракелян,79.2,90,-95,-95,90,82.5,Pro Juniors 20-23,M,B,Raw,90,1993
1,Denis Trishin,Денис Тришин,90,90,100,105,105,90,Pro Juniors 20-23,M,B,Raw,105,1989
1,Bogdan Skupeyko,Богдан Скупейко,98.9,120,125,-130,125,100,Pro Juniors 20-23,M,B,Raw,125,1992
1,Vitaliy Reyda,Віталій Рейда,109.5,115,120,-125,120,110,Pro Juniors 20-23,M,B,Raw,120,1990
1,Vitaliy Stolpak,Виталий Столпак,73.3,125,-130,-135,125,75,Pro Masters 40-44,M,B,Raw,125,1970
1,Vladislav Marchenko,Владислав Марченко,113,130,135,-137.5,135,125,Pro Masters 40-44,M,B,Raw,135,1967
1,Yuriy Kislitsa,Юрий Кислица,89.8,50,55,62.5,62.5,90,Pro Masters 70-74,M,B,Raw,62.5,1938
1,Marina Chirva,Марина Чирва,52,37.5,-40,-40,37.5,52,Pro Open,F,B,Raw,37.5,1981
2,Elena Bogomaz,Елена Богомаз,51.8,25,30,-32.5,30,52,Pro Open,F,B,Raw,30,1988
1,Olga Malaya,Ольга Малая,55.6,40,-42.5,-42.5,40,56,Pro Open,F,B,Raw,40,1976
2,Yana Gorelik,Яна Горелик,56,25,27.5,30,30,56,Pro Open,F,B,Raw,30,1983
1,Larisa Poddubnaya,Лариса Поддубная,60,35,40,-42.5,40,60,Pro Open,F,B,Raw,40,1970
1,Elena Anenkova,Елена Аненкова,73.3,35,37.5,-40,37.5,75,Pro Open,F,B,Raw,37.5,1988
1,Tatyana Dzhevinskaya,Татьяна Джевинская,93.2,52.5,55,-57.5,55,90+,Pro Open,F,B,Raw,55,1984
1,Tatyana Shiryaeva,Татьяна Ширяева,59.9,32.5,35,37.5,37.5,60,Pro Open,F,B,Raw,37.5,1992
1,Kseniya Piskaryova,Ксения Пискарёва,72,47.5,-50,50,50,75,Pro Open,F,B,Raw,50,1990
1,Lyudmila Tsvetkova,Людмила Цветкова,55.1,47.5,50,52.5,52.5,56,Pro Masters 45-49,F,B,Raw,52.5,1961
