Place,Name,CyrillicName,Country,BirthDate,BodyweightKg,WeightClassKg,Division,Sex,Squat1Kg,Squat2Kg,Squat3Kg,Best3SquatKg,Squat4Kg,Bench1Kg,Bench2Kg,Bench3Kg,Best3BenchKg,Bench4Kg,Deadlift1Kg,Deadlift2Kg,Deadlift3Kg,Best3DeadliftKg,Deadlift4Kg,TotalKg,Event,Equipment,Tested
1,Maksim Sidenko,Максим Сіденко,Ukraine,2003-09-09,66.15,67.5,Teen 13-15,M,120,127.5,130,130,,110,-115,-115,110,,150,157.5,170,170,,410,SBD,Wraps,Yes
1,Mikhaylo Babenko,Михайло Бабенко,Ukraine,2005-05-19,73.45,75,Teen 13-15,M,65,-77.5,-80,65,,-47.5,52.5,-57.5,52.5,,70,82.5,-92.5,82.5,,200,SBD,Wraps,Yes
1,Azizov Akmal,Азизов Акмал,Sweden,2004-05-16,84.95,90,Teen 13-15,M,90,100,-107.5,100,,55,65,70,70,,-110,115,130,130,,300,SBD,Wraps,Yes
1,Oleksiy Bodashivskiy,Олексій Бодашівський,Ukraine,2002-02-27,51.48,56,Teen 16-17,M,-100,-105,110,110,,60,65,70,70,,145,-155,155,155,,335,SBD,Wraps,Yes
1,Dmitro Ardashov,Дмитро Ардашов,Ukraine,2001-10-21,56.45,60,Teen 16-17,M,135,-145,145,145,,67.5,-77.5,-77.5,67.5,,135,-145,-145,135,,347.5,SBD,Wraps,Yes
1,Andriy Kobernik,Андрій Коберник,Ukraine,2002-12-06,65.55,67.5,Teen 16-17,M,115,-125,-125,115,,80,85,90,90,,155,165,170,170,,375,SBD,Wraps,Yes
1,Andriy Deryabin,Андрій Дерябін,Ukraine,2002-03-06,75,75,Teen 16-17,M,165,-180,-180,165,,95,-105,105,105,,160,175,185,185,,455,SBD,Wraps,Yes
2,Dmitro Miroshnichenko,Дмитро Мірошніченко,Ukraine,2001-12-08,72.2,75,Teen 16-17,M,150,-155,-155,150,,100,-105,-105,100,,150,160,170,170,,420,SBD,Wraps,Yes
1,Bogdan Savosta,Богдан Савоста,Ukraine,1999-07-09,58.84,60,Teen 18-19,M,130,-140,140,140,,65,70,-75,70,,115,125,130,130,,340,SBD,Wraps,Yes
1,Ruslan Ivanchik,Руслан Іванчик,Ukraine,1999-08-09,73.8,75,Teen 18-19,M,170,180,190,190,,130,137.5,-142.5,137.5,,190,202.5,-210,202.5,,530,SBD,Wraps,Yes
2,Pavlo Pidobid,Павло Підобід,Ukraine,2000-04-13,74.95,75,Teen 18-19,M,155,160,170,170,,100,105,-107.5,105,,175,190,200,200,,475,SBD,Wraps,Yes
1,Ivan Bugay,Іван Бугай,Ukraine,1996-01-26,58.2,60,Juniors 20-23,M,155,165,-170,165,,95,97.5,100,100,,175,185,-190,185,,450,SBD,Wraps,Yes
2,Denis Tariverdiev,Денис Тарівердієв,Ukraine,1995-08-21,58.94,60,Juniors 20-23,M,150,-160,-160,150,,90,100,105,105,,170,175,180,180,,435,SBD,Wraps,Yes
1,Oleksandr Brusnik,Олександр Бруснік,Ukraine,1999-01-25,67.5,67.5,Juniors 20-23,M,185,195,-205,195,,115,122.5,130,130,140,185,200,215,215,,540,SBD,Wraps,Yes
1,Yaroslav Krot,Ярослав Крот,Ukraine,1998-09-15,72.75,75,Juniors 20-23,M,180,-200,200,200,,100,107.5,-112.5,107.5,,210,225,237.5,237.5,,545,SBD,Wraps,Yes
2,Volodimir Ocheretniy,Володимир Очеретний,Ukraine,1995-05-22,73.5,75,Juniors 20-23,M,-165,-165,170,170,,95,105,110,110,,180,190,-207.5,190,,470,SBD,Wraps,Yes
3,Oleksandr Onishchenko,Олександр Оніщенко,Ukraine,1996-03-05,68.9,75,Juniors 20-23,M,135,145,-155,145,,95,102.5,105,105,,165,170,177.5,177.5,,427.5,SBD,Wraps,Yes
4,Vladislav Prozorovskiy,Владислав Прозоровський,Ukraine,1998-06-02,73.8,75,Juniors 20-23,M,140,150,-160,150,,85,92.5,-97.5,92.5,,160,175,185,185,,427.5,SBD,Wraps,Yes
DQ,Oleksandr Stefurak,Олександр Стефурак,Ukraine,1997-12-18,81.1,82.5,Juniors 20-23,M,-190,-190,-190,,,,,,,,,,,,,,SBD,Wraps,Yes
1,Anatoliy Kuzyura,Анатолій Кузюра,Ukraine,1998-08-07,82.75,90,Juniors 20-23,M,-210,210,-217.5,210,,130,140,-145,140,,240,250,-262.5,250,,600,SBD,Wraps,Yes
2,Andriy Ruban,Андрій Рубан,Ukraine,1999-01-27,89.3,90,Juniors 20-23,M,220,-240,-240,220,,120,-127.5,,120,,240,-250,,240,,580,SBD,Wraps,Yes
3,Oleksandr Alforov,Олександр Алфьоров,Ukraine,1998-03-04,90,90,Juniors 20-23,M,-160,170,-187.5,170,,132.5,137.5,-142.5,137.5,,205,210,-215,210,,517.5,SBD,Wraps,Yes
1,Mikita Ivanchenko,Микита Іванченко,Ukraine,1997-11-19,98.3,100,Juniors 20-23,M,260,270,275,275,,-170,-170,170,170,,270,280,-300,280,,725,SBD,Wraps,Yes
2,Dmitro Nikolaev,Дмитро Ніколаєв,Ukraine,1996-09-11,94.2,100,Juniors 20-23,M,220,-240,240,240,,140,150,-160,150,,-280,280,-302.5,280,,670,SBD,Wraps,Yes
3,Danilo Sobol,Данило Соболь,Ukraine,1998-10-19,95.6,100,Juniors 20-23,M,250,260,270,270,,-140,150,155,155,,210,-220,220,220,,645,SBD,Wraps,Yes
4,Sergiy Seleznov,Сергій Селезньов,Ukraine,1996-04-13,98.75,100,Juniors 20-23,M,210,-225,225,225,,140,150,-160,150,,200,215,-225,215,,590,SBD,Wraps,Yes
1,Maksim Moskalenko,Максим Москаленко,Ukraine,1996-04-03,100.95,110,Juniors 20-23,M,-220,220,230,230,,125,132.5,-140,132.5,,-220,220,230,230,,592.5,SBD,Wraps,Yes
2,Oleksandr Mikhaylenko,Олександр Михайленко,Ukraine,1997-02-07,106.4,110,Juniors 20-23,M,195,207.5,220,220,,110,120,127.5,127.5,,185,200,210,210,,557.5,SBD,Wraps,Yes
1,Roman Bilonog,Роман Білоног,Ukraine,1998-07-15,116.7,125,Juniors 20-23,M,-255,255,275,275,,167.5,177.5,185,185,,270,285,300,300,,760,SBD,Wraps,Yes
2,Bogdan Malginov,Богдан Мальгінов,Ukraine,1998-01-19,120.9,125,Juniors 20-23,M,230,240,255,255,,150,160,-170,160,,210,222.5,230,230,,645,SBD,Wraps,Yes
1,Valentin Gontar,Валентин Гонтар,Ukraine,1987-09-26,75,75,Open,M,230,-242.5,-242.5,230,,140,145,150,150,,250,260,270,270,,650,SBD,Wraps,Yes
2,Oleg Zhuchkov,Олег Жучков,Ukraine,1994-03-18,74.4,75,Open,M,200,-210,220,220,,125,130,132.5,132.5,,240,255,262.5,262.5,,615,SBD,Wraps,Yes
3,Sergiy Shevchenko,Сергій Шевченко,Ukraine,1991-08-13,74.85,75,Open,M,195,205,215,215,,115,120,125,125,,225,235,245,245,,585,SBD,Wraps,Yes
4,Yaroslav Krot,Ярослав Крот,Ukraine,1998-09-15,72.75,75,Open,M,180,-200,200,200,,100,107.5,-112.5,107.5,,210,225,237.5,237.5,,545,SBD,Wraps,Yes
1,Ruslan Slyusarenko,Руслан Слюсаренко,Ukraine,1992-02-27,78.05,82.5,Open,M,220,235,245,245,,110,-115,115,115,,230,245,250,250,,610,SBD,Wraps,Yes
2,Yuriy Mikhnenko,Юрій Міхненко,Ukraine,1974-04-14,78.65,82.5,Open,M,200,-220,220,220,,115,130,135,135,,210,225,-235,225,,580,SBD,Wraps,Yes
3,Sergiy Chaliy,Сергій Чалий,Ukraine,1993-08-31,81.45,82.5,Open,M,-190,190,-210,190,,115,120,-122.5,120,,230,-235,,230,,540,SBD,Wraps,Yes
4,Volodimir Kondratyuk,Володимир Кондратюк,Ukraine,1981-03-10,79.9,82.5,Open,M,-115,115,125,125,,85,100,-105,100,,125,135,150,150,,375,SBD,Wraps,Yes
DQ,Oleksandr Lisitsya,Олександр Лисиця,Ukraine,1986-03-03,81.9,82.5,Open,M,-195,-200,-210,,,,,,,,,,,,,,SBD,Wraps,Yes
1,Dmitro Goropakha,Дмитро Горопаха,Ukraine,1992-06-13,89.95,90,Open,M,280,-292.5,-292.5,280,,147.5,152.5,157.5,157.5,,-250,250,260,260,,697.5,SBD,Wraps,Yes
2,Yuriy Yaremiy,Юрій Яремій,Ukraine,1993-05-14,89.65,90,Open,M,215,230,235,235,,-135,135,140,140,,230,-240,-240,230,,605,SBD,Wraps,Yes
3,Mikhaylo Moshkovich,Михайло Мошкович,Ukraine,1984-06-14,83.3,90,Open,M,-155,155,160,160,,85,92.5,-95,92.5,,200,210,217.5,217.5,,470,SBD,Wraps,Yes
DQ,Volodimir Plyuta,Володимир Плюта,Ukraine,1992-03-01,88,90,Open,M,200,220,240,240,,130,142.5,-145,142.5,,-230,-230,-230,,,,SBD,Wraps,Yes
DQ,Roman Stepanov,Роман Степанов,Ukraine,1990-08-18,88.2,90,Open,M,200,210,-220,210,,160,165,-170,165,,-250,-250,-250,,,,SBD,Wraps,Yes
DD,Oleksandr Gurbich,Олександр Гурбич,Ukraine,1989-08-27,90,90,Open,M,250,260,270,270,,170,175,180,180,,260,280,300,300,,,SBD,Wraps,Yes
1,Oleksandr Lisovskiy #1,Олександр Лісовський,Ukraine,1990-01-17,99.35,100,Open,M,250,265,-275,265,,155,165,-175,165,,270,-285,-290,270,,700,SBD,Wraps,Yes
2,Stanislav Shubin,Станіслав Шубін,Ukraine,1992-06-30,98.05,100,Open,M,220,-235,-240,220,,150,160,-165,160,,240,255,-265,255,,635,SBD,Wraps,Yes
3,Evgeniy Omelyanovskiy,Євгеній Омельяновський,Ukraine,1989-09-20,98.3,100,Open,M,-210,210,225,225,,145,155,-160,155,,245,255,-260,255,,635,SBD,Wraps,Yes
4,Pavlo Ivashchenko,Павло Іващенко,Ukraine,1986-01-31,97.4,100,Open,M,210,225,-230,225,,140,150,155,155,,215,230,-240,230,,610,SBD,Wraps,Yes
5,Roman Postika,Роман Постика,Ukraine,1989-02-23,98.2,100,Open,M,200,210,-220,210,,-140,140,-145,140,,230,-240,-240,230,,580,SBD,Wraps,Yes
6,Konstantin Shatalin,Константин Шаталін,Ukraine,1991-06-21,94.8,100,Open,M,210,-230,-230,210,,120,125,-130,125,,-240,240,-250,240,,575,SBD,Wraps,Yes
DQ,Vasil Mikheev,Василь Міхєєв,Ukraine,1990-02-20,97.5,100,Open,M,-190,-190,-190,,,,,,,,,,,,,,SBD,Wraps,Yes
1,Mikhaylo Starovoyt,Михайло Старовойт,Ukraine,1989-11-12,110,110,Open,M,-245,245,-250,245,,175,180,-185,180,,250,270,-280,270,,695,SBD,Wraps,Yes
2,Volodimir Moskalenko,Володимир Москаленко,Ukraine,1988-03-08,106,110,Open,M,210,-220,-220,210,,145,152.5,157.5,157.5,,220,230,-235,230,,597.5,SBD,Wraps,Yes
1,Oleksandr Bespalko,Олександр Беспалко,Ukraine,1983-02-08,119.05,125,Open,M,190,200,205,205,,135,140,145,145,,210,225,240,240,,590,SBD,Wraps,Yes
1,Yuriy Mikhnenko,Юрій Міхненко,Ukraine,1974-04-14,78.65,82.5,Masters 40-49,M,200,-220,220,220,,115,130,135,135,,210,225,-235,225,,580,SBD,Wraps,Yes
1,Valentin Gostev,Валентин Гостєв,Ukraine,1975-02-18,89.3,90,Masters 40-49,M,190,200,-210,200,,125,132.5,-135,132.5,,180,-185,,180,,512.5,SBD,Wraps,Yes
1,Yuriy Stetsenko,Юрій Стеценко,Ukraine,1975-09-06,95.2,100,Masters 40-49,M,190,200,-205,200,,125,130,-135,130,,190,200,205,205,,535,SBD,Wraps,Yes
1,Igor Onishchak,Ігор Онищак,Ukraine,1973-06-12,105.7,110,Masters 40-49,M,200,-210,210,210,,115,-120,-120,115,,210,225,230,230,,555,SBD,Wraps,Yes
2,Sergiy Danilenko,Сергій Даниленко,Ukraine,1977-10-27,102.2,110,Masters 40-49,M,150,-170,170,170,,130,140,150,150,,150,175,205,205,,525,SBD,Wraps,Yes
DQ,Sergiy Kirilovskiy,Сергій Кириловський,Ukraine,1975-02-12,109.45,110,Masters 40-49,M,-180,-200,-200,,,,,,,,,,,,,,SBD,Wraps,Yes
1,Valeriy Lanko,Валерій Ланько,Ukraine,1965-01-25,80.5,82.5,Masters 50-59,M,160,-170,-175,160,,135,-140,140,140,,185,195,-202.5,195,,495,SBD,Wraps,Yes
1,Tetyana Korostel,Тетяна Коростель,Ukraine,2007-01-07,35.4,44,Youth,F,20,25,30,30,,-20,20,22.5,22.5,,45,55,65,65,,117.5,SBD,Wraps,Yes
1,Yana Radchenko,Яна Радченко,Ukraine,2002-11-06,55.04,56,Teen 16-17,F,75,-77.5,-80,75,,40,45,-47.5,45,,70,75,-80,75,,195,SBD,Wraps,Yes
1,Anastasiya Stetsenko,Анастасія Стеценко,Ukraine,2003-02-21,67.1,67.5,Teen 16-17,F,95,105,110,110,,57.5,-62.5,-62.5,57.5,,100,110,115,115,122.5,282.5,SBD,Wraps,Yes
1,Katerina Prokopenko,Катерина Прокопенко,Ukraine,1996-08-18,59.72,60,Juniors 20-23,F,90,-102.5,-102.5,90,,50,55,57.5,57.5,,115,120,-125,120,,267.5,SBD,Wraps,Yes
DQ,Anna Gerasimenko,Анна Герасименко,Ukraine,1999-02-23,58.12,60,Juniors 20-23,F,-80,-90,-90,,,,,,,,,,,,,,SBD,Wraps,Yes
1,Kira Petlenko,Кіра Петленко,Ukraine,1995-09-14,75,75,Juniors 20-23,F,100,110,-117.5,110,,60,-65,65,65,,100,110,-115,110,,285,SBD,Wraps,Yes
1,Galina Danilenko,Галина Даниленко,Ukraine,1991-02-10,43.3,44,Open,F,-95,-100,100,100,,-40,40,42.5,42.5,,107.5,115,117.5,117.5,,260,SBD,Wraps,Yes
1,Tetyana Oliynik,Тетяна Олійник,Ukraine,1994-07-31,47.9,48,Open,F,-125,-125,125,125,,50,52.5,55,55,,110,117.5,125,125,,305,SBD,Wraps,Yes
1,Oksana Storozhuk,Оксана Сторожук,Ukraine,1984-07-03,51.9,52,Open,F,132.5,-140,140,140,,75,80,-82.5,80,,147.5,155,162.5,162.5,167.5,382.5,SBD,Wraps,Yes
2,Nataliya Chernish,Наталія Черниш,Ukraine,1989-03-21,51.2,52,Open,F,-60,60,67.5,67.5,,35,40,42.5,42.5,,70,80,-90,80,,190,SBD,Wraps,Yes
DQ,Anastasiya Kalashnikova,Анастасія Калашнікова,Ukraine,1985-08-09,51.08,52,Open,F,-140,-145,-145,,,,,,,,,,,,,,SBD,Wraps,Yes
1,Nataliya Sokurenko,Наталія Сокуренко,Ukraine,1981-01-12,55.82,56,Open,F,150,-160,-160,150,,70,-72.5,72.5,72.5,,155,-162.5,-162.5,155,,377.5,SBD,Wraps,Yes
2,Ganna Zemlyanska,Ганна Землянська,Ukraine,1981-03-10,56,56,Open,F,-127.5,-132.5,135,135,,65,67.5,-70,67.5,,120,132.5,147.5,147.5,,350,SBD,Wraps,Yes
DQ,Oksana Matsera,Оксана Мацера,Ukraine,1983-12-04,54.66,56,Open,F,-65,-65,-65,,,,,,,,,,,,,,SBD,Wraps,Yes
1,Darina Kovalova,Дарина Ковальова,Ukraine,1990-12-27,59.72,60,Open,F,-155,155,-162.5,155,,67.5,72.5,-75,72.5,,175,182.5,185,185,-190,412.5,SBD,Wraps,Yes
2,Adelaida Poddueva,Аделаїда Поддуєва,Ukraine,1989-10-12,59.8,60,Open,F,-112.5,115,-120,115,,67.5,70,72.5,72.5,,122.5,132.5,-140,132.5,,320,SBD,Wraps,Yes
3,Tetyana Dzherelyuk,Тетяна Джерелюк,Ukraine,1983-07-08,56.3,60,Open,F,80,87.5,95,95,,50,-55,-55,50,,125,-132.5,-135,125,,270,SBD,Wraps,Yes
DQ,Irina Ryumina,Ірина Рюміна,Ukraine,1989-05-19,60,60,Open,F,65,-70,-70,65,,-42.5,,,,,,,,,,,SBD,Wraps,Yes
DQ,Lyudmila Grishchenko,Людмила Грищенко,Ukraine,1984-10-20,60,60,Open,F,90,100,105,105,,-50,-55,-55,,,,,,,,,SBD,Wraps,Yes
1,Katerina Filipova,Катерина Філіпова,Ukraine,1982-06-25,64.95,67.5,Open,F,120,130,-135,130,,57.5,60,-62.5,60,,115,125,130,130,,320,SBD,Wraps,Yes
2,Oksana Ostroushko,Оксана Остроушко,Ukraine,1983-04-26,60.45,67.5,Open,F,100,-105,105,105,,-62.5,-62.5,62.5,62.5,,130,140,-142.5,140,,307.5,SBD,Wraps,Yes
3,Lyudmila Malikhatko,Людмила Маліхатко,Ukraine,1993-03-31,64.9,67.5,Open,F,85,95,100,100,,32.5,-35,-35,32.5,,80,85,92.5,92.5,,225,SBD,Wraps,Yes
DQ,Anna Mazikina,Анна Мазикіна,Ukraine,1990-04-06,62.5,67.5,Open,F,75,-82.5,82.5,82.5,,55,57.5,-62.5,57.5,,-110,-110,-110,,,,SBD,Wraps,Yes
DQ,Vita Rudakova,Віта Рудакова,Ukraine,1980-02-03,72.35,75,Open,F,-110,-110,-110,,,,,,,,,,,,,,SBD,Wraps,Yes
1,Svitlana Kravchenko,Світлана Кравченко,Ukraine,1971-05-11,55.22,56,Masters 40-49,F,-95,97.5,100,100,,45,47.5,50,50,,95,100,105,105,,255,SBD,Wraps,Yes
1,Nataliya Kolyada,Наталія Коляда,Ukraine,1976-04-27,60,60,Masters 40-49,F,85,90,95,95,,47.5,-52.5,-52.5,47.5,,100,110,-115,110,,252.5,SBD,Wraps,Yes
DQ,Anna Savchenko,Анна Савченко,Ukraine,1979-03-03,82.1,82.5,Masters 40-49,F,-125,-125,-125,,,,,,,,,,,,,,SBD,Wraps,Yes
1,Alla Lanko,Алла Ланько,Ukraine,1965-01-19,50.5,52,Masters 50-59,F,75,-87.5,-87.5,75,,52.5,-55,-55,52.5,,115,125,130,130,,257.5,SBD,Wraps,Yes
1,Raїsa Salimova,Раїса Салімова,Ukraine,1967-03-13,69.6,75,Masters 50-59,F,-70,-70,70,70,,42.5,45,50,50,,100,110,120,120,,240,SBD,Wraps,Yes
1,Glib Trazanov,Гліб Тразанов,Ukraine,1998-09-30,81.65,82.5,Juniors 20-23,M,225,232.5,237.5,237.5,,140,145,147.5,147.5,,220,230,-237.5,230,,615,SBD,Wraps,No
1,Evgen Konovalov,Євген Коновалов,Ukraine,1987-09-08,81.9,82.5,Open,M,210,-220,-220,210,,140,-150,150,150,,240,250,-260,250,,610,SBD,Wraps,No
2,Dmitro Solonenko,Дмитро Солоненко,Ukraine,1994-06-11,79.1,82.5,Open,M,210,-220,-220,210,,-130,130,135,135,,235,245,-250,245,,590,SBD,Wraps,No
3,Dmitro Yadrentsov,Дмитро Ядренцов,Ukraine,1986-11-16,80.65,82.5,Open,M,160,167.5,170,170,,115,122.5,-125,122.5,,200,205,-210,205,,497.5,SBD,Wraps,No
4,Oleksiy Karpenko,Олексій Карпенко,Ukraine,1993-08-12,79.45,82.5,Open,M,270,280,-300,280,,125,135,-140,135,,75,,,75,,490,SBD,Wraps,No
1,Dmitro Vorobey,Дмитро Воробей,Ukraine,1988-09-13,88.3,90,Open,M,240,-250,,240,,160,-170,,160,,260,275,-280,275,,675,SBD,Wraps,No
1,Mikhaylo Zhelyazkov,Михайло Желязков,Ukraine,1980-09-12,98.45,100,Open,M,-320,320,-335,320,,180,185,190,190,,310,325,335,335,,845,SBD,Wraps,No
2,Sergiy Novokhatskiy,Сергій Новохацький,Ukraine,1982-10-23,95.8,100,Open,M,200,215,225,225,,140,145,150,150,,240,250,255,255,,630,SBD,Wraps,No
1,Sergiy Plotnikov,Сергій Плотніков,Ukraine,1995-01-08,102.8,110,Open,M,260,-275,285,285,,180,190,195,195,,250,-260,260,260,,740,SBD,Wraps,No
2,Andriy Dorin,Андрій Дорін,Ukraine,1994-04-03,107.55,110,Open,M,250,-260,,250,,160,170,180,180,,200,230,260,260,,690,SBD,Wraps,No
DQ,Mikita Eyrushevich,Микита Єйрушевич,Ukraine,1989-06-30,108.15,110,Open,M,300,-315,,300,,-190,-190,-190,,,,,,,,,SBD,Wraps,No
1,Igor Kotsyuba,Ігор Коцюба,Ukraine,1982-09-21,126,140,Open,M,270,-280,,270,,162.5,170,180,180,,265,285,-300,285,,735,SBD,Wraps,No
2,Dmitro Kravchinskiy,Дмитро Кравчинський,Ukraine,1982-05-19,126.2,140,Open,M,195,207.5,215,215,,180,187.5,-190,187.5,,270,287.5,-302.5,287.5,,690,SBD,Wraps,No
1,Yuriy Kostenko,Юрій Костенко,Ukraine,1971-07-28,98.7,100,Masters 40-49,M,245,260,-275,260,,170,177.5,,177.5,,250,,,250,,687.5,SBD,Wraps,No
1,Andriy Bobilev,Андрій Бобилєв,Ukraine,1976-12-28,109.65,110,Masters 40-49,M,250,265,-270,265,,170,177.5,-182.5,177.5,,250,265,-275,265,,707.5,SBD,Wraps,No
2,Sergiy Zakharov,Сергій Захаров,Ukraine,1977-12-17,103.2,110,Masters 40-49,M,200,215,-225,215,,150,-155,-155,150,,220,-235,-235,220,,585,SBD,Wraps,No
1,Volodimir Kolomiets,Володимир Коломіець,Ukraine,1966-05-09,95.3,100,Masters 50-59,M,-185,-185,185,185,,142.5,-147.5,-147.5,142.5,,210,-220,-220,210,,537.5,SBD,Wraps,No
1,Oleksandr Dudik,Олександр Дудик,Ukraine,2001-09-28,72.6,75,Teen 16-17,M,130,140,147.5,147.5,,-100,100,-110,100,,130,140,152.5,152.5,,400,SBD,Single-ply,Yes
1,Maksim Gurinenko,Максим Гуриненко,Ukraine,1998-11-16,77.85,82.5,Juniors 20-23,M,-200,200,-210,200,,140,150,-155,150,,190,200,210,210,,560,SBD,Single-ply,Yes
1,Renata Ignatova,Рената Ігнатова,Ukraine,2004-11-05,67,67.5,Teen 13-15,F,62.5,70,75,75,,52.5,57.5,60,60,,70,77.5,-85,77.5,,212.5,SBD,Wraps,Yes
1,Nataliya Salogor,Наталія Салогор,Ukraine,1999-06-28,62.8,67.5,Teen 18-19,F,85,95,100,100,,47.5,52.5,-55,52.5,,85,95,100,100,,252.5,SBD,Wraps,Yes
2,Liliya Timofiїva,Лілія Тимофіїва,Ukraine,1999-09-27,60.5,67.5,Teen 18-19,F,85,-92.5,-92.5,85,,40,-45,-45,40,,95,110,-127.5,110,,235,SBD,Wraps,Yes
1,Ivanna Onisko,Іванна Онисько,Ukraine,1997-08-07,45.28,48,Juniors 20-23,F,60,-80,-80,60,,35,40,-42.5,40,,60,75,-80,75,,175,SBD,Wraps,Yes
1,Olena Valegova,Олена Валегова,Ukraine,1987-05-01,51.28,52,Open,F,-90,-90,90,90,,52.5,57.5,-60,57.5,,130,135,,135,,282.5,SBD,Wraps,Yes
DQ,Dariya Zdorovtsova,Дарія Здоровцова,Ukraine,1989-07-30,67.5,67.5,Open,F,-90,-90,-90,,,,,,,,,,,,,,SBD,Wraps,Yes
1,Yuliya Perekhrest,Юлія Перехрест,Ukraine,1981-10-26,68.75,75,Open,F,-70,70,-80,70,,50,55,60,60,,100,105,110,110,,240,SBD,Wraps,Yes
1,Evgeniya Shevchuk,Євгенія Шевчук,Ukraine,1982-05-03,53.92,56,Open,F,57.5,62.5,65,65,,40,42.5,-45,42.5,,80,85,-90,85,,192.5,SBD,Wraps,No
1,Zhaneta Shostak,Жанета Шостак,Ukraine,1972-07-26,67.4,67.5,Masters 40-49,F,72.5,80,87.5,87.5,,57.5,60,62.5,62.5,,95,105,115,115,,265,SBD,Wraps,No
1,Oleksandr Logvin,Олександр Логвин,Ukraine,2001-03-06,55.22,56,Teen 18-19,M,,,,,,65,70,-75,70,,145,150,-157.5,150,,220,BD,Raw,Yes
1,Ruslan Ivanchik,Руслан Іванчик,Ukraine,1999-08-09,73.8,75,Teen 18-19,M,,,,,,130,137.5,-142.5,137.5,,190,202.5,-210,202.5,,340,BD,Raw,Yes
2,Mikola Polishchuk,Микола Поліщук,Ukraine,2000-11-19,74.4,75,Teen 18-19,M,,,,,,100,105,110,110,,185,195,202.5,202.5,,312.5,BD,Raw,Yes
3,Oleksiy Kiyanovskiy,Олексій Кияновський,Ukraine,2001-06-20,73.3,75,Teen 16-17,M,,,,,,80,87.5,-95,87.5,,115,122.5,132.5,132.5,,220,BD,Raw,Yes
1,Yaroslav Slutskiy,Ярослав Слуцький,Ukraine,2001-01-24,77.5,82.5,Teen 18-19,M,,,,,,105,110,-115,110,,150,165,177.5,177.5,,287.5,BD,Raw,Yes
2,Illya Chaban,Ілля Чабан,Ukraine,1999-12-31,77.7,82.5,Teen 18-19,M,,,,,,112.5,-115,-115,112.5,,160,170,175,175,,287.5,BD,Raw,Yes
1,Yaroslav Krot,Ярослав Крот,Ukraine,1998-09-15,72.75,75,Juniors 20-23,M,,,,,,100,107.5,-112.5,107.5,,210,225,237.5,237.5,,345,BD,Raw,Yes
1,Valentin Gontar,Валентин Гонтар,Ukraine,1987-09-26,75,75,Open,M,,,,,,140,145,150,150,,250,260,270,270,,420,BD,Raw,Yes
2,Yaroslav Krot,Ярослав Крот,Ukraine,1998-09-15,72.75,75,Open,M,,,,,,100,107.5,-112.5,107.5,,210,225,237.5,237.5,,345,BD,Raw,Yes
3,Vadim Makarov,Вадим Макаров,Ukraine,1989-06-09,71.7,75,Open,M,,,,,,115,120,-122.5,120,,170,180,-185,180,,300,BD,Raw,Yes
1,Dmitro Galik,Дмитро Галік,Ukraine,1992-06-26,81.7,82.5,Open,M,,,,,,105,107.5,110,110,,205,-207.5,-207.5,205,,315,BD,Raw,Yes
1,Yuriy Yaremiy,Юрій Яремій,Ukraine,1993-05-14,89.65,90,Open,M,,,,,,-135,135,140,140,,230,-240,-240,230,,370,BD,Raw,Yes
DQ,Volodimir Plyuta,Володимир Плюта,Ukraine,1992-03-01,88,90,Open,M,,,,,,130,142.5,-145,142.5,,-230,-230,-230,,,,BD,Raw,Yes
DQ,Roman Stepanov,Роман Степанов,Ukraine,1990-08-18,88.2,90,Open,M,,,,,,160,165,-170,165,,-250,-250,-250,,,,BD,Raw,Yes
1,Oleksandr Lisovskiy #1,Олександр Лісовський,Ukraine,1990-01-17,99.35,100,Open,M,,,,,,155,165,-175,165,,270,-285,-290,270,,435,BD,Raw,Yes
2,Denis Dashkovskiy,Денис Дашковський,Belarus,1988-01-18,96.95,100,Open,M,,,,,,145,152.5,160,160,,230,235,245,245,,405,BD,Raw,Yes
3,Oleksiy Zhadko,Олексій Жадько,Ukraine,1991-03-30,100,100,Open,M,,,,,,-120,125,130,130,,210,222.5,230,230,,360,BD,Raw,Yes
1,Sergiy Radchenko,Сергій Радченко,Ukraine,1989-03-27,106.55,110,Open,M,,,,,,175,-185,-185,175,,250,265,-282.5,265,,440,BD,Raw,Yes
2,Eduard Gusev,Едуард Гусєв,Ukraine,1990-07-27,106.75,110,Open,M,,,,,,-150,-150,150,150,,220,-240,-250,220,,370,BD,Raw,Yes
1,Oleksiy Boris,Олексій Борис,Ukraine,1992-02-06,129.65,140,Open,M,,,,,,152.5,162.5,-170,162.5,,240,260,270,270,,432.5,BD,Raw,Yes
1,Sergiy Mironchuk,Сергій Мирончук,Ukraine,1974-06-23,89.2,90,Masters 40-49,M,,,,,,-120,-120,120,120,,200,-217.5,-217.5,200,,320,BD,Raw,Yes
1,Yuriy Stetsenko,Юрій Стеценко,Ukraine,1975-09-06,95.2,100,Masters 40-49,M,,,,,,125,130,-135,130,,190,200,205,205,,335,BD,Raw,Yes
1,Vyacheslav Karpenko,Вячеслав Карпенко,Ukraine,1975-05-28,108.6,110,Masters 40-49,M,,,,,,-140,-140,140,140,,240,245,-250,245,,385,BD,Raw,Yes
1,Igor Furmanov,Ігор Фурманов,Belarus,1968-04-24,111.45,125,Masters 50-59,M,,,,,,140,145,-150,145,,220,230,-240,230,,375,BD,Raw,Yes
1,Anastasiya Stetsenko,Анастасія Стеценко,Ukraine,2003-02-21,67.1,67.5,Teen 16-17,F,,,,,,57.5,-62.5,-62.5,57.5,,100,110,115,115,-122.5,172.5,BD,Raw,Yes
1,Oksana Storozhuk,Оксана Сторожук,Ukraine,1984-07-03,51.9,52,Open,F,,,,,,75,80,-82.5,80,,147.5,155,162.5,162.5,167.5,242.5,BD,Raw,Yes
2,Anastasiya Kalashnikova,Анастасія Калашнікова,Ukraine,1985-08-09,51.08,52,Open,F,,,,,,70,75,-77.5,75,,140,150,,150,,225,BD,Raw,Yes
3,Irina Shatokhina,Ірина Шатохіна,Ukraine,1994-05-02,51.58,52,Open,F,,,,,,55,-60,-60,55,,90,100,107.5,107.5,,162.5,BD,Raw,Yes
1,Tetyana Dzherelyuk,Тетяна Джерелюк,Ukraine,1983-07-08,56.3,60,Open,F,,,,,,50,-55,-55,50,,125,-132.5,-135,125,,175,BD,Raw,Yes
2,Tatyana Adamenko,Татьяна Адаменко,Ukraine,1987-04-19,60,60,Open,F,,,,,,40,42.5,45,45,,115,-125,-125,115,,160,BD,Raw,Yes
3,Olena Shemetova,Олена Шеметова,Belarus,1982-11-07,60,60,Open,F,,,,,,35,-37.5,37.5,37.5,,105,110,115,115,,152.5,BD,Raw,Yes
4,Tetyana Kochetkova,Тетяна Кочеткова,Ukraine,1986-03-12,58.44,60,Open,F,,,,,,40,45,-47.5,45,,-95,95,100,100,,145,BD,Raw,Yes
1,Katerina Filipova,Катерина Філіпова,Ukraine,1982-06-25,64.95,67.5,Open,F,,,,,,57.5,60,-62.5,60,,115,125,130,130,,190,BD,Raw,Yes
DQ,Anna Mazikina,Анна Мазикіна,Ukraine,1990-04-06,62.5,67.5,Open,F,,,,,,55,57.5,-62.5,57.5,,-110,-110,-110,,,,BD,Raw,Yes
1,Vita Rudakova,Віта Рудакова,Ukraine,1980-02-03,72.35,75,Open,F,,,,,,52.5,-55,-55,52.5,,150,-160,-160,150,,202.5,BD,Raw,Yes
2,Yuliya Perekhrest,Юлія Перехрест,Ukraine,1981-10-26,68.75,75,Open,F,,,,,,50,55,60,60,,100,105,110,110,,170,BD,Raw,Yes
1,Nataliya Kolyada,Наталія Коляда,Ukraine,1976-04-27,60,60,Masters 40-49,F,,,,,,47.5,-52.5,-52.5,47.5,,100,110,-115,110,,157.5,BD,Raw,Yes
1,Oleksiy Shchotkin,Олексій Щьоткін,Belarus,1975-07-03,81.75,82.5,Open,M,,,,,,-155,155,-160,155,,215,225,-232.5,225,,380,BD,Raw,Yes
1,Yevgen Luk'yanov,Євген Лук'янов,Belarus,1980-08-11,88.35,90,Open,M,,,,,,170,175,-180,175,,230,240,-250,240,,415,BD,Raw,Yes
1,Sergiy Novokhatskiy,Сергій Новохацький,Ukraine,1982-10-23,95.8,100,Open,M,,,,,,140,145,150,150,,240,250,255,255,,405,BD,Raw,Yes
1,Dmitro Kravchinskiy,Дмитро Кравчинський,Ukraine,1982-05-19,126.2,140,Open,M,,,,,,180,187.5,-190,187.5,,270,287.5,-302.5,287.5,,475,BD,Raw,Yes
2,Igor Kotsyuba,Ігор Коцюба,Ukraine,1982-09-21,126,140,Open,M,,,,,,162.5,170,180,180,,265,285,-300,285,,465,BD,Raw,Yes
1,Oleksiy Shchotkin,Олексій Щьоткін,Belarus,1975-07-03,81.75,82.5,Masters 40-49,M,,,,,,-155,155,-160,155,,215,225,-232.5,225,,380,BD,Raw,Yes
1,Yuriy Kostenko,Юрій Костенко,Ukraine,1971-07-28,98.7,100,Masters 40-49,M,,,,,,170,177.5,,177.5,,250,,,250,,427.5,BD,Raw,Yes
1,Sergiy Zakharov,Сергій Захаров,Ukraine,1977-12-17,103.2,110,Masters 40-49,M,,,,,,150,-155,-155,150,,220,-235,-235,220,,370,BD,Raw,Yes
1,Volodimir Kolomiets,Володимир Коломіець,Ukraine,1966-05-09,95.3,100,Masters 50-59,M,,,,,,142.5,-147.5,-147.5,142.5,,210,-220,-220,210,,352.5,BD,Raw,Yes
1,Volodimir Lukyanov,Володимир Лук'янов,Belarus,1966-02-18,102.8,110,Masters 50-59,M,,,,,,-125,-125,125,125,,270,280,-290,280,,405,BD,Raw,Yes
1,Bogdan Savosta,Богдан Савоста,Ukraine,1999-07-09,58.84,60,Teen 18-19,M,130,-140,140,140,,,,,,,,,,,,140,S,Wraps,Yes
1,Ruslan Ivanchik,Руслан Іванчик,Ukraine,1999-08-09,73.8,75,Teen 18-19,M,170,180,190,190,,,,,,,,,,,,190,S,Wraps,Yes
1,Oleksandr Alforov,Олександр Алфьоров,Ukraine,1998-03-04,90,90,Juniors 20-23,M,-160,170,-187.5,170,,,,,,,,,,,,170,S,Wraps,Yes
1,Sergiy Seleznov,Сергій Селезньов,Ukraine,1996-04-13,98.75,100,Juniors 20-23,M,210,-225,225,225,,,,,,,,,,,,225,S,Wraps,Yes
1,Dmitro Goropakha,Дмитро Горопаха,Ukraine,1992-06-13,89.95,90,Open,M,280,-292.5,-292.5,280,,,,,,,,,,,,280,S,Wraps,Yes
2,Volodimir Plyuta,Володимир Плюта,Ukraine,1992-03-01,88,90,Open,M,200,220,240,240,,,,,,,,,,,,240,S,Wraps,Yes
3,Yuriy Yaremiy,Юрій Яремій,Ukraine,1993-05-14,89.65,90,Open,M,215,230,235,235,,,,,,,,,,,,235,S,Wraps,Yes
1,Oleksandr Lisovskiy #1,Олександр Лісовський,Ukraine,1990-01-17,99.35,100,Open,M,250,265,-275,265,,,,,,,,,,,,265,S,Wraps,Yes
1,Yaroslav Panchenko,Ярослав Панченко,Ukraine,1977-08-14,73.3,75,Masters 40-49,M,-170,-170,170,170,,,,,,,,,,,,170,S,Wraps,Yes
1,Yuriy Stetsenko,Юрій Стеценко,Ukraine,1975-09-06,95.2,100,Masters 40-49,M,190,200,-205,200,,,,,,,,,,,,200,S,Wraps,Yes
1,Anastasiya Stetsenko,Анастасія Стеценко,Ukraine,2003-02-21,67.1,67.5,Teen 16-17,F,95,105,110,110,,,,,,,,,,,,110,S,Wraps,Yes
1,Galina Danilenko,Галина Даниленко,Ukraine,1991-02-10,43.3,44,Open,F,-95,-100,100,100,,,,,,,,,,,,100,S,Wraps,Yes
1,Tetyana Oliynik,Тетяна Олійник,Ukraine,1994-07-31,47.9,48,Open,F,-125,-125,125,125,,,,,,,,,,,,125,S,Wraps,Yes
1,Darina Kovalova,Дарина Ковальова,Ukraine,1990-12-27,59.72,60,Open,F,-155,155,-162.5,155,,,,,,,,,,,,155,S,Wraps,Yes
2,Olena Shemetova,Олена Шеметова,Belarus,1982-11-07,60,60,Open,F,95,-102.5,-102.5,95,,,,,,,,,,,,95,S,Wraps,Yes
1,Katerina Filipova,Катерина Філіпова,Ukraine,1982-06-25,64.95,67.5,Open,F,120,130,-135,130,,,,,,,,,,,,130,S,Wraps,Yes
1,Nataliya Kolyada,Наталія Коляда,Ukraine,1976-04-27,60,60,Masters 40-49,F,85,90,95,95,,,,,,,,,,,,95,S,Wraps,Yes
DQ,Anna Savchenko,Анна Савченко,Ukraine,1979-03-03,82.1,82.5,Masters 40-49,F,-125,-125,-125,,,,,,,,,,,,,,S,Wraps,No
1,Igor Kotsyuba,Ігор Коцюба,Ukraine,1982-09-21,126,140,Open,M,270,-280,,270,,,,,,,,,,,,270,S,Wraps,No
1,Volodimir Lukyanov,Володимир Лук'янов,Belarus,1966-02-18,102.8,110,Masters 50-59,M,235,245,,245,,,,,,,,,,,,245,S,Wraps,No
1,Olena Valegova,Олена Валегова,Ukraine,1987-05-01,51.28,52,Open,F,-90,-90,90,90,,,,,,,,,,,,90,S,Wraps,Yes
1,Mikola Volodko,Микола Володько,Ukraine,2006-08-10,66,67.5,Youth,M,,,,,,70,-75,75,75,,,,,,,75,B,Raw,Yes
1,Artem Klimenko,Артем Клименко,Ukraine,2005-12-20,47.6,48,Teen 13-15,M,,,,,,52.5,57.5,-60,57.5,,,,,,,57.5,B,Raw,Yes
1,Yaroslav Kapitula,Ярослав Капітула,Ukraine,2003-09-18,54.88,56,Teen 13-15,M,,,,,,80,85,90,90,,,,,,,90,B,Raw,Yes
1,Vadim Korenkov,Вадим Коренков,Ukraine,2004-06-05,59.56,60,Teen 13-15,M,,,,,,-90,90,-97.5,90,,,,,,,90,B,Raw,Yes
1,Maksim Sidenko,Максим Сіденко,Ukraine,2003-09-09,66.15,67.5,Teen 13-15,M,,,,,,110,-115,-115,110,,,,,,,110,B,Raw,Yes
1,Aleksandr Nikolayuk,Александр Ніколаюк,Ukraine,2002-04-03,66.3,67.5,Teen 16-17,M,,,,,,-82.5,-85,85,85,,,,,,,85,B,Raw,Yes
1,Denis Prisyazhniy,Денис Присяжний,Ukraine,2001-12-17,68.7,75,Teen 16-17,M,,,,,,100,105,-110,105,,,,,,,105,B,Raw,Yes
2,Egor Redka,Єгор Редька,Ukraine,2003-04-12,74.1,75,Teen 16-17,M,,,,,,100,105,-110,105,,,,,,,105,B,Raw,Yes
1,Oleksandr Kukotin,Олександр Кукотін,Ukraine,2000-07-13,58.06,60,Teen 18-19,M,,,,,,50,55,57.5,57.5,,,,,,,57.5,B,Raw,Yes
1,Artem Danilyuk,Артем Данилюк,Ukraine,1999-11-25,63.55,67.5,Teen 18-19,M,,,,,,115,-120,-125,115,,,,,,,115,B,Raw,Yes
1,Ruslan Ivanchik,Руслан Іванчик,Ukraine,1999-08-09,73.8,75,Teen 18-19,M,,,,,,130,137.5,-142.5,137.5,,,,,,,137.5,B,Raw,Yes
2,Evgen Sharabura,Євген Шарабура,Ukraine,1999-07-02,74.95,75,Teen 18-19,M,,,,,,127.5,-135,-135,127.5,,,,,,,127.5,B,Raw,Yes
3,Sergiy Naumenko,Сергій Науменко,Ukraine,2000-08-19,73.2,75,Teen 18-19,M,,,,,,110,117.5,120,120,,,,,,,120,B,Raw,Yes
4,Mikola Polishchuk,Микола Поліщук,Ukraine,2000-11-19,74.4,75,Teen 18-19,M,,,,,,100,105,110,110,,,,,,,110,B,Raw,Yes
1,Illya Chaban,Ілля Чабан,Ukraine,1999-12-31,77.7,82.5,Teen 18-19,M,,,,,,112.5,-115,-115,112.5,,,,,,,112.5,B,Raw,Yes
DQ,Anton Saykevich,Антон Сайкевич,Ukraine,1999-07-05,81.35,82.5,Teen 18-19,M,,,,,,-150,-162.5,,,,,,,,,,B,Raw,Yes
1,Ruslan Dolinniy,Руслан Долинний,Ukraine,1997-03-26,59.56,60,Juniors 20-23,M,,,,,,85,92.5,-97.5,92.5,,,,,,,92.5,B,Raw,Yes
1,Maksim Mishchuk,Максим Міщук,Ukraine,1998-09-28,64.5,67.5,Juniors 20-23,M,,,,,,-100,100,110,110,,,,,,,110,B,Raw,Yes
2,Dmitro Grinchuk,Дмитро Грінчук,Ukraine,1995-12-07,66.6,67.5,Juniors 20-23,M,,,,,,70,75,-80,75,,,,,,,75,B,Raw,Yes
1,Evgeniy Boloban,Євгеній Болобан,Ukraine,1996-08-28,75,75,Juniors 20-23,M,,,,,,186,190,,190,,,,,,,190,B,Raw,Yes
2,Oleksandr Bezugliy,Олександр Безуглий,Ukraine,1996-03-10,74.3,75,Juniors 20-23,M,,,,,,110,117.5,-120,117.5,,,,,,,117.5,B,Raw,Yes
1,Oleksiy Lapin,Олексій Лапін,Ukraine,1997-11-09,81.55,82.5,Juniors 20-23,M,,,,,,130,145,152.5,152.5,,,,,,,152.5,B,Raw,Yes
2,Andriy Kurskoy,Андрій Курской,Belarus,1996-11-09,81.2,82.5,Juniors 20-23,M,,,,,,140,145,150,150,,,,,,,150,B,Raw,Yes
3,Ruslan Ranyuk,Руслан Ранюк,Ukraine,1996-08-26,80.6,82.5,Juniors 20-23,M,,,,,,137.5,-145,-145,137.5,,,,,,,137.5,B,Raw,Yes
4,Yaroslav Muzichenko,Ярослав Музиченко,Ukraine,1997-09-10,79.5,82.5,Juniors 20-23,M,,,,,,120,127.5,,127.5,,,,,,,127.5,B,Raw,Yes
5,Golovatyuk Melnik,Головатюк Мельник,Ukraine,1995-08-03,79.85,82.5,Juniors 20-23,M,,,,,,120,-125,-127.5,120,,,,,,,120,B,Raw,Yes
6,Mikhaylo Bilan,Михайло Білан,Ukraine,1996-11-29,81.9,82.5,Juniors 20-23,M,,,,,,112.5,120,-127.5,120,,,,,,,120,B,Raw,Yes
1,Oleksandr Sizonenko,Олександр Сизоненко,Ukraine,1997-01-07,88.8,90,Juniors 20-23,M,,,,,,-145,155,165,165,,,,,,,165,B,Raw,Yes
2,Sergiy Kovtun,Сергій Ковтун,Ukraine,1995-05-07,88.4,90,Juniors 20-23,M,,,,,,152.5,-157.5,157.5,157.5,,,,,,,157.5,B,Raw,Yes
3,Yuriy Popov #4,Юрій Попов,Ukraine,1996-09-02,89.8,90,Juniors 20-23,M,,,,,,140,150,-160,150,,,,,,,150,B,Raw,Yes
4,Rodion Svirskiy,Родіон Свірський,Ukraine,1996-04-20,87.8,90,Juniors 20-23,M,,,,,,142.5,-152.5,-152.5,142.5,,,,,,,142.5,B,Raw,Yes
5,Oleksandr Voloshin,Олександр Волошин,Ukraine,1998-05-23,86.55,90,Juniors 20-23,M,,,,,,-137.5,-140,140,140,,,,,,,140,B,Raw,Yes
1,Evgeniy Lvovich,Євгеній Львович,Ukraine,1996-12-25,96.9,100,Juniors 20-23,M,,,,,,135,145,-150,145,,,,,,,145,B,Raw,Yes
DQ,Vladislav Zhurikhin,Владислав Журихін,Ukraine,1997-01-25,92.65,100,Juniors 20-23,M,,,,,,-135,-135,-135,,,,,,,,,B,Raw,Yes
1,Yaroslav Kapitula,Ярослав Капітула,Ukraine,2003-09-18,54.88,56,Open,M,,,,,,80,85,90,90,,,,,,,90,B,Raw,Yes
1,Oleg Krivenko,Олег Кривенко,Ukraine,1995-02-21,58.86,60,Open,M,,,,,,97.5,112.5,-115,112.5,,,,,,,112.5,B,Raw,Yes
1,Oleksandr Metikhatko,Олександр Метіхатко,Ukraine,1987-08-10,66.9,67.5,Open,M,,,,,,117.5,-125,-125,117.5,,,,,,,117.5,B,Raw,Yes
2,Sergiy Koval,Сергій Коваль,Ukraine,1986-07-22,67.5,67.5,Open,M,,,,,,110,115,-120,115,,,,,,,115,B,Raw,Yes
3,Oleksandr Akhtirskiy,Олександр Ахтирський,Ukraine,1992-09-12,67.15,67.5,Open,M,,,,,,107.5,110,-117.5,110,,,,,,,110,B,Raw,Yes
1,Danilo Bobko,Данило Бобко,Ukraine,1989-05-06,73.25,75,Open,M,,,,,,137.5,145,-152.5,145,,,,,,,145,B,Raw,Yes
2,Yakiv Goldenberg,Яків Гольденберг,Ukraine,1964-01-06,74.2,75,Open,M,,,,,,135,145,-152.5,145,,,,,,,145,B,Raw,Yes
3,Sergiy Grinishin,Сергій Гринішин,Ukraine,1990-09-22,73.3,75,Open,M,,,,,,125,130,135,135,,,,,,,135,B,Raw,Yes
4,Artur Brusin,Артур Брусін,Ukraine,1993-01-15,74.1,75,Open,M,,,,,,130,-135,-135,130,,,,,,,130,B,Raw,Yes
5,Taras Mazur,Тарас Мазур,Ukraine,1994-04-04,74.25,75,Open,M,,,,,,122.5,127.5,130,130,,,,,,,130,B,Raw,Yes
6,Dmitro Brusin,Дмитро Брусін,Ukraine,1993-01-15,72.55,75,Open,M,,,,,,125,127.5,-130,127.5,,,,,,,127.5,B,Raw,Yes
7,Oleksandr Poloz,Олександр Полоз,Ukraine,1994-10-02,68.45,75,Open,M,,,,,,100,110,-117.5,110,,,,,,,110,B,Raw,Yes
1,Volodimir Getman,Володимир Гетьман,Ukraine,1995-02-07,79.1,82.5,Open,M,,,,,,150,155,160,160,,,,,,,160,B,Raw,Yes
2,Sergiy Prokopchuk,Сергій Прокопчук,Ukraine,1993-02-17,79.45,82.5,Open,M,,,,,,140,145,150,150,,,,,,,150,B,Raw,Yes
3,Igor Chaadaev,Ігор Чаадаєв,Ukraine,1988-07-30,80.1,82.5,Open,M,,,,,,135,140,-145,140,,,,,,,140,B,Raw,Yes
4,Evgeniy Muchta,Євгеній Мучта,Ukraine,1985-11-01,79.45,82.5,Open,M,,,,,,130,-137.5,137.5,137.5,,,,,,,137.5,B,Raw,Yes
5,Artem Timokhin,Артем Тимохін,Ukraine,1987-05-17,78.7,82.5,Open,M,,,,,,120,127.5,,127.5,,,,,,,127.5,B,Raw,Yes
6,Vitaliy Rudyuk,Віталій Рудюк,Ukraine,1993-04-11,80.6,82.5,Open,M,,,,,,125,127.5,-132.5,127.5,,,,,,,127.5,B,Raw,Yes
DQ,Oleksandr Slipchenko,Олександр Сліпченко,Ukraine,1985-09-06,79.65,82.5,Open,M,,,,,,-140,-140,,,,,,,,,,B,Raw,Yes
1,Roman Stepanov,Роман Степанов,Ukraine,1990-08-18,88.2,90,Open,M,,,,,,160,165,-170,165,,,,,,,165,B,Raw,Yes
2,Denis Klokov,Денис Клоков,Ukraine,1989-03-07,88.9,90,Open,M,,,,,,150,155,157.5,157.5,,,,,,,157.5,B,Raw,Yes
3,Rovshan Ogli Gadzhiev Vyugar,Ровшан Огли Гаджієв Вюгар,Ukraine,1985-10-11,85.5,90,Open,M,,,,,,147.5,152.5,155,155,,,,,,,155,B,Raw,Yes
4,Oleksiy Shevchenko,Олексій Шевченко,Ukraine,1986-07-28,85.6,90,Open,M,,,,,,140,150,155,155,,,,,,,155,B,Raw,Yes
5,Vitaliy Kulchitskiy,Виталий Кульчицкий,Ukraine,1994-08-30,89.2,90,Open,M,,,,,,135,-145,-152.5,135,,,,,,,135,B,Raw,Yes
DQ,Oleg Slobodyan,Олег Слободян,Ukraine,1994-09-13,89.55,90,Open,M,,,,,,-145,-145,-145,,,,,,,,,B,Raw,Yes
1,Gennadiy Golembivskiy,Геннадій Голембівський,Ukraine,1982-01-16,99.9,100,Open,M,,,,,,175,185,-190,185,,,,,,,185,B,Raw,Yes
2,Sergiy Nekh,Сергій Нех,Ukraine,1994-09-13,97.5,100,Open,M,,,,,,162.5,170,-172.5,170,,,,,,,170,B,Raw,Yes
3,Oleksandr Lisovskiy #1,Олександр Лісовський,Ukraine,1990-01-17,99.35,100,Open,M,,,,,,155,165,-175,165,,,,,,,165,B,Raw,Yes
4,Anton Buravkov,Антон Буравков,Ukraine,1989-09-01,94.8,100,Open,M,,,,,,-150,-150,150,150,,,,,,,150,B,Raw,Yes
5,Evgeniy Tkachenko #2,Євгеній Ткаченко,Ukraine,1993-09-07,94.95,100,Open,M,,,,,,-150,-150,150,150,,,,,,,150,B,Raw,Yes
6,Dmitro Beresten,Дмитро Берестень,Ukraine,1987-08-23,96.9,100,Open,M,,,,,,140,-142.5,-142.5,140,,,,,,,140,B,Raw,Yes
7,Sergiy Bilik,Сергій Білик,Ukraine,1985-07-23,98.85,100,Open,M,,,,,,130,135,140,140,,,,,,,140,B,Raw,Yes
DQ,Vadim Dodonov,Вадим Додонов,Ukraine,1987-02-03,95.75,100,Open,M,,,,,,-162.5,-162.5,-162.5,,,,,,,,,B,Raw,Yes
1,Sergiy Radchenko,Сергій Радченко,Ukraine,1989-03-27,106.55,110,Open,M,,,,,,175,-185,-185,175,,,,,,,175,B,Raw,Yes
2,Yaroslav Savchuk,Ярослав Савчук,Ukraine,1984-07-25,107,110,Open,M,,,,,,-167.5,-172.5,172.5,172.5,,,,,,,172.5,B,Raw,Yes
3,Maksim Pasichnik,Максим Пасічник,Ukraine,1994-07-15,107.95,110,Open,M,,,,,,160,-172.5,172.5,172.5,,,,,,,172.5,B,Raw,Yes
4,Oleksiy Kolodyazhniy,Олексій Колодяжний,Ukraine,1980-03-28,110,110,Open,M,,,,,,-155,155,167.5,167.5,,,,,,,167.5,B,Raw,Yes
1,Pavlo Melnik,Павло Мельник,Ukraine,1985-04-14,115.15,125,Open,M,,,,,,182.5,190,-202.5,190,,,,,,,190,B,Raw,Yes
2,Maksim Zubarev #2,Максим Зубарєв,Ukraine,1982-06-22,119.35,125,Open,M,,,,,,167.5,-175,-175,167.5,,,,,,,167.5,B,Raw,Yes
3,Dmitro Levashov #1,Дмитро Лєвашов,Ukraine,1992-06-07,116.75,125,Open,M,,,,,,-160,165,-175,165,,,,,,,165,B,Raw,Yes
1,Sergiy Pavelev,Сергій Павєльєв,Ukraine,1983-11-27,138.2,140,Open,M,,,,,,142.5,-152.5,-160,142.5,,,,,,,142.5,B,Raw,Yes
1,Volodimir Besarab,Володимир Бесараб,Ukraine,1975-02-11,81.85,82.5,Masters 40-49,M,,,,,,125,-130,130,130,,,,,,,130,B,Raw,Yes
2,Taras Kolyada,Тарас Коляда,Ukraine,1976-04-26,81.1,82.5,Masters 40-49,M,,,,,,112.5,117.5,120,120,,,,,,,120,B,Raw,Yes
1,Ruslan Abbasov,Руслан Аббасов,Ukraine,1974-07-07,89,90,Masters 40-49,M,,,,,,160,-165,165,165,,,,,,,165,B,Raw,Yes
2,Valentin Gostev,Валентин Гостєв,Ukraine,1975-02-18,89.3,90,Masters 40-49,M,,,,,,125,132.5,-135,132.5,,,,,,,132.5,B,Raw,Yes
3,Sergiy Mironchuk,Сергій Мирончук,Ukraine,1974-06-23,89.2,90,Masters 40-49,M,,,,,,-120,-120,120,120,,,,,,,120,B,Raw,Yes
1,Yuriy Stetsenko,Юрій Стеценко,Ukraine,1975-09-06,95.2,100,Masters 40-49,M,,,,,,125,130,-135,130,,,,,,,130,B,Raw,Yes
1,Sergiy Danilenko,Сергій Даниленко,Ukraine,1977-10-27,102.2,110,Masters 40-49,M,,,,,,130,140,150,150,,,,,,,150,B,Raw,Yes
2,Vyacheslav Karpenko,Вячеслав Карпенко,Ukraine,1975-05-28,108.6,110,Masters 40-49,M,,,,,,-140,-140,140,140,,,,,,,140,B,Raw,Yes
3,Sergiy Kirilovskiy,Сергій Кириловський,Ukraine,1975-02-12,109.5,110,Masters 40-49,M,,,,,,110,-122.5,-122.5,110,,,,,,,110,B,Raw,Yes
4,Yuriy Bugaychuk,Юрій Бугайчук,Ukraine,1969-09-29,100.7,110,Masters 40-49,M,,,,,,100,105,-110,105,,,,,,,105,B,Raw,Yes
1,Yakiv Goldenberg,Яків Гольденберг,Ukraine,1964-01-06,74.2,75,Masters 50-59,M,,,,,,135,145,-152.5,145,,,,,,,145,B,Raw,Yes
1,Igor Krikunov,Ігор Крікунов,Ukraine,1968-08-18,98.9,100,Masters 50-59,M,,,,,,150,-160,-160,150,,,,,,,150,B,Raw,Yes
1,Sergiy Eletskikh,,Cyprus,1956-05-06,160,140+,Masters 60-69,M,,,,,,155,162.5,165,165,,,,,,,165,B,Raw,Yes
1,Anastasiya Rudnichenko,Анастасія Рудніченко,Ukraine,2001-11-19,58.12,60,Teen 16-17,F,,,,,,-62.5,62.5,65,65,,,,,,,65,B,Raw,Yes
2,Viktoriya Gorulko,Вікторія Горулько,Ukraine,2004-11-03,58.75,60,Teen 13-15,F,,,,,,-45,45,-47.5,45,,,,,,,45,B,Raw,Yes
1,Yana Radchenko,Яна Радченко,Ukraine,2002-11-06,55.04,56,Teen 16-17,F,,,,,,40,45,-47.5,45,,,,,,,45,B,Raw,Yes
1,Anastasiya Stetsenko,Анастасія Стеценко,Ukraine,2003-02-21,67.1,67.5,Teen 16-17,F,,,,,,57.5,-62.5,-62.5,57.5,,,,,,,57.5,B,Raw,Yes
DQ,Nataliya Nimchuk,Наталія Німчук,Ukraine,1997-05-22,48.36,52,Juniors 20-23,F,,,,,,-70,-70,-70,,,,,,,,,B,Raw,Yes
1,Yuliya Ponomarenko,Юлія Пономаренко,Ukraine,1987-10-18,47.3,48,Open,F,,,,,,40,42.5,45,45,,,,,,,45,B,Raw,Yes
1,Oksana Storozhuk,Оксана Сторожук,Ukraine,1984-07-03,51.9,52,Open,F,,,,,,75,80,-82.5,80,,,,,,,80,B,Raw,Yes
2,Olena Valegova,Олена Валегова,Ukraine,1987-05-01,51.28,52,Open,F,,,,,,52.5,57.5,-60,57.5,,,,,,,57.5,B,Raw,Yes
3,Olena Lisovska,Олена Лісовська,Ukraine,1989-08-13,51.46,52,Open,F,,,,,,45,50,57.5,57.5,,,,,,,57.5,B,Raw,Yes
1,Nataliya Sokurenko,Наталія Сокуренко,Ukraine,1981-01-12,55.82,56,Open,F,,,,,,70,-72.5,72.5,72.5,,,,,,,72.5,B,Raw,Yes
2,Tetyana Onikienko,Тетяна Оникієнко,Ukraine,1985-10-25,55.36,56,Open,F,,,,,,57.5,60,-62.5,60,,,,,,,60,B,Raw,Yes
3,Diana Shoniya,Діана Шонія,Ukraine,1984-06-19,53.86,56,Open,F,,,,,,50,52.5,-55,52.5,,,,,,,52.5,B,Raw,Yes
1,Irina Danilyuk,Ірина Данилюк,Ukraine,1971-04-18,59.64,60,Open,F,,,,,,85,90,-95,90,,,,,,,90,B,Raw,Yes
2,Adelaida Poddueva,Аделаїда Поддуєва,Ukraine,1989-10-12,59.8,60,Open,F,,,,,,67.5,70,72.5,72.5,,,,,,,72.5,B,Raw,Yes
3,Mariya Mislivets-Kravchenya,Марія Мисливець-Кравченя,Ukraine,1994-03-15,57.88,60,Open,F,,,,,,55,-60,-60,55,,,,,,,55,B,Raw,Yes
4,Tetyana Dzherelyuk,Тетяна Джерелюк,Ukraine,1983-07-08,56.3,60,Open,F,,,,,,50,-55,-55,50,,,,,,,50,B,Raw,Yes
5,Tetyana Kochetkova,Тетяна Кочеткова,Ukraine,1986-03-12,58.44,60,Open,F,,,,,,40,45,-47.5,45,,,,,,,45,B,Raw,Yes
1,Kseniya Pleva,Ксенія Плєва,Ukraine,1978-12-28,64.55,67.5,Open,F,,,,,,72.5,75,77.5,77.5,,,,,,,77.5,B,Raw,Yes
2,Oksana Ostroushko,Оксана Остроушко,Ukraine,1983-04-26,60.45,67.5,Open,F,,,,,,-62.5,-62.5,62.5,62.5,,,,,,,62.5,B,Raw,Yes
3,Katerina Filipova,Катерина Філіпова,Ukraine,1982-06-25,64.95,67.5,Open,F,,,,,,57.5,60,-62.5,60,,,,,,,60,B,Raw,Yes
4,Anna Mazikina,Анна Мазикіна,Ukraine,1990-04-06,62.5,67.5,Open,F,,,,,,55,57.5,-62.5,57.5,,,,,,,57.5,B,Raw,Yes
5,Yuliya Pomogaeva,Юлія Помогаєва,Ukraine,1992-06-28,65.9,67.5,Open,F,,,,,,45,50,52.5,52.5,,,,,,,52.5,B,Raw,Yes
1,Yuliya Olizarenko,Юлія Олізаренко,Ukraine,1989-04-30,74.6,75,Open,F,,,,,,100,105,-107.5,105,,,,,,,105,B,Raw,Yes
2,Olena Rindya,Олена Риндя,Ukraine,1977-04-29,74.6,75,Open,F,,,,,,95,100,-105,100,,,,,,,100,B,Raw,Yes
3,Yuliya Perekhrest,Юлія Перехрест,Ukraine,1981-10-26,68.75,75,Open,F,,,,,,50,55,60,60,,,,,,,60,B,Raw,Yes
4,Vita Rudakova,Віта Рудакова,Ukraine,1980-02-03,72.35,75,Open,F,,,,,,52.5,,,52.5,,,,,,,52.5,B,Raw,Yes
1,Irina Danilyuk,Ірина Данилюк,Ukraine,1971-04-18,59.64,60,Masters 40-49,F,,,,,,85,90,-95,90,,,,,,,90,B,Raw,Yes
2,Nataliya Kolyada,Наталія Коляда,Ukraine,1976-04-27,60,60,Masters 40-49,F,,,,,,47.5,-52.5,-52.5,47.5,,,,,,,47.5,B,Raw,Yes
1,Kseniya Pleva,Ксенія Плєва,Ukraine,1978-12-28,64.55,67.5,Masters 40-49,F,,,,,,72.5,75,77.5,77.5,,,,,,,77.5,B,Raw,Yes
2,Oksana Stasenko,Оксана Стасенко,Ukraine,1973-04-18,66.35,67.5,Masters 40-49,F,,,,,,65,67.5,-70,67.5,,,,,,,67.5,B,Raw,Yes
3,Oksana Osetyan,Оксана Осетян,Ukraine,1976-05-19,64.8,67.5,Masters 40-49,F,,,,,,50,52.5,-55,52.5,,,,,,,52.5,B,Raw,Yes
4,Olena Ivashchenko,Олена Іващенко,Ukraine,1969-11-21,66.7,67.5,Masters 40-49,F,,,,,,-47.5,47.5,-52.5,47.5,,,,,,,47.5,B,Raw,Yes
1,Olena Rindya,Олена Риндя,Ukraine,1977-04-29,74.6,75,Masters 40-49,F,,,,,,95,100,-105,100,,,,,,,100,B,Raw,Yes
1,Nataliya Firsova,Наталія Фірсова,Ukraine,1966-10-16,53.7,56,Masters 50-59,F,,,,,,57.5,60,-62.5,60,,,,,,,60,B,Raw,Yes
1,Olga Foka,Ольга Фока,Ukraine,1964-05-24,80.6,82.5,Masters 50-59,F,,,,,,40,42.5,-45,42.5,,,,,,,42.5,B,Raw,Yes
1,Valeriy Rozhanskiy,Валерій Рожанський,Ukraine,2003-09-24,64.9,67.5,Teen 13-15,M,,,,,,80,-90.5,90.5,90.5,,,,,,,90.5,B,Raw,No
1,Evgeniy Basyuk,Євгеній Басюк,Ukraine,1999-07-01,80.5,82.5,Teen 18-19,M,,,,,,145,150,155,155,,,,,,,155,B,Raw,No
1,Vadim Karpenko,Вадим Карпенко,Ukraine,1995-06-30,82.35,82.5,Juniors 20-23,M,,,,,,140,150,160,160,,,,,,,160,B,Raw,No
1,Roman Antonov,Роман Антонов,Ukraine,1995-11-29,94.35,100,Juniors 20-23,M,,,,,,-185,190,-202.5,190,,,,,,,190,B,Raw,No
1,Artem Pedorenko,Артем Педоренко,Ukraine,1997-07-06,103.3,110,Juniors 20-23,M,,,,,,160,165,-170,165,,,,,,,165,B,Raw,No
1,Artem Kots,Артем Коц,Ukraine,1987-06-20,81.5,82.5,Open,M,,,,,,175,180,185,185,,,,,,,185,B,Raw,No
2,Oleksiy Shchotkin,Олексій Щьоткін,Belarus,1975-07-03,81.75,82.5,Open,M,,,,,,-155,155,-160,155,,,,,,,155,B,Raw,No
1,Vitaliy Gonetskiy,Віталій Гонецький,Ukraine,1978-08-07,89.05,90,Open,M,,,,,,175,180,185,185,-190.5,,,,,,185,B,Raw,No
2,Yevgen Luk'yanov,Євген Лук'янов,Belarus,1980-08-11,88.35,90,Open,M,,,,,,170,175,-180,175,,,,,,,175,B,Raw,No
1,Vadim Aksenchik,Вадим Аксенчик,Belarus,1982-05-26,92.85,100,Open,M,,,,,,175,185,190,190,,,,,,,190,B,Raw,No
2,Roman Antonov,Роман Антонов,Ukraine,1995-11-29,94.35,100,Open,M,,,,,,-185,190,-202.5,190,,,,,,,190,B,Raw,No
3,Viktor Rublyov,Віктор Рубльов,Ukraine,1975-10-26,98.9,100,Open,M,,,,,,182.5,-187.5,-187.5,182.5,,,,,,,182.5,B,Raw,No
DQ,Dmitro Fatiy,Дмитро Фатій,Ukraine,1986-06-17,95,100,Open,M,,,,,,-185,-190,-192.5,,,,,,,,,B,Raw,No
1,Denis Bunchuk,Денис Бунчук,Ukraine,1989-07-09,100.7,110,Open,M,,,,,,240,250,-257.5,250,,,,,,,250,B,Raw,No
2,Sergiy Plotnikov,Сергій Плотніков,Ukraine,1995-01-08,102.8,110,Open,M,,,,,,180,190,195,195,,,,,,,195,B,Raw,No
3,Andriy Dorin,Андрій Дорін,Ukraine,1994-04-03,107.55,110,Open,M,,,,,,160,170,180,180,,,,,,,180,B,Raw,No
4,Vladislav Boyko,Владислав Бойко,Ukraine,1994-11-19,106.45,110,Open,M,,,,,,165,175,-180,175,,,,,,,175,B,Raw,No
1,Oleksandr Tarasov,Олександр Тарасов,Ukraine,1991-10-27,122,125,Open,M,,,,,,207.5,215,-227.5,215,,,,,,,215,B,Raw,No
2,Volodimir Rindya,Володимир Риндя,Ukraine,1975-08-03,124.45,125,Open,M,,,,,,215,-222.5,-222.5,215,,,,,,,215,B,Raw,No
3,Sergiy Dyak,Сергій Дяк,Ukraine,1993-03-31,118,125,Open,M,,,,,,202.5,-212.5,212.5,212.5,,,,,,,212.5,B,Raw,No
1,Dmitro Kravchinskiy,Дмитро Кравчинський,Ukraine,1982-05-19,126.2,140,Open,M,,,,,,180,187.5,-190,187.5,,,,,,,187.5,B,Raw,No
2,Igor Kotsyuba,Ігор Коцюба,Ukraine,1982-09-21,126,140,Open,M,,,,,,162.5,170,180,180,,,,,,,180,B,Raw,No
1,Artem Ushenko,Артем Ушенко,Ukraine,1992-01-03,160,140+,Open,M,,,,,,205,-220,-235,205,,,,,,,205,B,Raw,No
1,Oleksiy Shchotkin,Олексій Щьоткін,Belarus,1975-07-03,81.75,82.5,Masters 40-49,M,,,,,,-155,155,-160,155,,,,,,,155,B,Raw,No
1,Vitaliy Gonetskiy,Віталій Гонецький,Ukraine,1978-08-07,89.05,90,Masters 40-49,M,,,,,,175,180,185,185,-190.5,,,,,,185,B,Raw,No
2,Yuriy Servetskiy,Юрій Сервецький,Ukraine,1977-06-07,90,90,Masters 40-49,M,,,,,,-160,160,-165,160,,,,,,,160,B,Raw,No
1,Viktor Rublyov,Віктор Рубльов,Ukraine,1975-10-26,98.9,100,Masters 40-49,M,,,,,,182.5,-187.5,-187.5,182.5,,,,,,,182.5,B,Raw,No
2,Volodimir Kosobrodov,Володимир Кособродов,Ukraine,1978-09-14,100,100,Masters 40-49,M,,,,,,170,-175,180,180,,,,,,,180,B,Raw,No
3,Yuriy Kostenko,Юрій Костенко,Ukraine,1971-07-28,98.7,100,Masters 40-49,M,,,,,,170,177.5,,177.5,,,,,,,177.5,B,Raw,No
1,Sergiy Zakharov,Сергій Захаров,Ukraine,1977-12-17,103.2,110,Masters 40-49,M,,,,,,150,-155,-155,150,,,,,,,150,B,Raw,No
1,Volodimir Rindya,Володимир Риндя,Ukraine,1975-08-03,124.45,125,Masters 40-49,M,,,,,,215,-222.5,-222.5,215,,,,,,,215,B,Raw,No
1,Mikhaylo Pitinov,Михайло Пітінов,Ukraine,1971-05-07,127.4,140,Masters 40-49,M,,,,,,160,165,-170,165,,,,,,,165,B,Raw,No
1,Sergiy Dromov,Сергій Дрьомов,Ukraine,1968-11-10,105.95,110,Masters 50-59,M,,,,,,-190,190,-200.5,190,,,,,,,190,B,Raw,No
1,Zhaneta Shostak,Жанета Шостак,Ukraine,1972-07-26,67.4,67.5,Masters 40-49,F,,,,,,57.5,60,62.5,62.5,,,,,,,62.5,B,Raw,No
1,Anton Makhlun,Антон Махлун,Ukraine,2002-11-08,71.15,75,Teen 16-17,M,,,,,,110,125,-135,125,,,,,,,125,B,Unlimited,Yes
1,Volodimir Khomenko,Володимир Хоменко,Ukraine,1973-12-05,119.9,100+,Open,M,,,,,,285,-300,-300,285,,,,,,,285,B,Unlimited,Yes
2,Dmitro Bondarev #2,Дмитро Бондарєв,Belarus,1984-11-19,104.9,100+,Open,M,,,,,,-190,190,-212.5,190,,,,,,,190,B,Unlimited,Yes
1,Volodimir Khomenko,Володимир Хоменко,Ukraine,1973-12-05,119.9,125,Masters 40-49,M,,,,,,285,-300,-300,285,,,,,,,285,B,Unlimited,Yes
1,Evgeniy Ivanets,Євгеній Іванець,Ukraine,1995-10-02,106.1,100+,Juniors 20-23,M,,,,,,190,200,-210,200,,,,,,,200,B,Unlimited,No
1,Andriy Romanchuk,Андрій Романчук,Ukraine,1976-12-27,100,100,Masters 40-49,M,,,,,,200,210,217.5,217.5,,,,,,,217.5,B,Unlimited,No
1,Maksim Sidenko,Максим Сіденко,Ukraine,2003-09-09,66.15,67.5,Teen 13-15,M,,,,,,,,,,,150,157.5,170,170,,170,D,Raw,Yes
1,Ruslan Melnik,Руслан Мельник,Ukraine,2003-09-18,81.65,82.5,Teen 13-15,M,,,,,,,,,,,195,207.5,,207.5,,207.5,D,Raw,Yes
2,Denis Mikulskiy,Денис Микульський,Ukraine,2004-09-19,78.7,82.5,Teen 13-15,M,,,,,,,,,,,175,182.5,190,190,,190,D,Raw,Yes
1,Yuriy Magay,Юрій Магай,Ukraine,2003-05-02,93.95,100,Teen 13-15,M,,,,,,,,,,,150,-165,-165,150,,150,D,Raw,Yes
1,Oleksiy Bodashivskiy,Олексій Бодашівський,Ukraine,2002-02-27,51.48,52,Teen 16-17,M,,,,,,,,,,,145,-155,155,155,,155,D,Raw,Yes
1,Vladislav Vishnya,Владислав Вишня,Ukraine,2002-06-12,86.95,90,Teen 16-17,M,,,,,,,,,,,230,240,248,248,255,248,D,Raw,Yes
1,Ruslan Klokun,Руслан Клокун,Ukraine,2001-05-16,108.85,110,Teen 16-17,M,,,,,,,,,,,210,225,-235,225,,225,D,Raw,Yes
1,Oleksandr Logvin,Олександр Логвин,Ukraine,2001-03-06,55.22,56,Teen 18-19,M,,,,,,,,,,,145,150,-157.5,150,,150,D,Raw,Yes
1,Vitaliy Les,Віталій Лесь,Ukraine,1999-07-27,65.8,67.5,Teen 18-19,M,,,,,,,,,,,185,195,-203,195,,195,D,Raw,Yes
1,Ruslan Ivanchik,Руслан Іванчик,Ukraine,1999-08-09,73.8,75,Teen 18-19,M,,,,,,,,,,,190,202.5,-210,202.5,,202.5,D,Raw,Yes
2,Mikola Polishchuk,Микола Поліщук,Ukraine,2000-11-19,74.4,75,Teen 18-19,M,,,,,,,,,,,185,195,202.5,202.5,,202.5,D,Raw,Yes
1,Illya Chaban,Ілля Чабан,Ukraine,1999-12-31,77.7,82.5,Teen 18-19,M,,,,,,,,,,,160,170,175,175,,175,D,Raw,Yes
1,Andriy Chernakov,Андрій Чернаков,Ukraine,2000-07-20,88.8,90,Teen 18-19,M,,,,,,,,,,,170,185,-190,185,,185,D,Raw,Yes
1,Denis Tariverdiev,Денис Тарівердієв,Ukraine,1995-08-21,58.94,60,Juniors 20-23,M,,,,,,,,,,,170,175,180,180,,180,D,Raw,Yes
DQ,Ruslan Dolinniy,Руслан Долинний,Ukraine,1997-03-26,59.56,60,Juniors 20-23,M,,,,,,,,,,,-130,-140,-152.5,,,,D,Raw,Yes
1,Dmitro Grinchuk,Дмитро Грінчук,Ukraine,1995-12-07,66.6,67.5,Juniors 20-23,M,,,,,,,,,,,110,115,-120,115,,115,D,Raw,Yes
1,Yaroslav Krot,Ярослав Крот,Ukraine,1998-09-15,72.75,75,Juniors 20-23,M,,,,,,,,,,,210,225,237.5,237.5,,237.5,D,Raw,Yes
2,Roman Demonenko,Роман Демоненко,Ukraine,1996-02-21,73.35,75,Juniors 20-23,M,,,,,,,,,,,200,-210,210,210,,210,D,Raw,Yes
3,Volodimir Ocheretniy,Володимир Очеретний,Ukraine,1995-05-22,73.5,75,Juniors 20-23,M,,,,,,,,,,,180,190,-207.5,190,,190,D,Raw,Yes
4,Bogdan Pogoriliy,Богдан Погорілий,Ukraine,1995-12-09,73.75,75,Juniors 20-23,M,,,,,,,,,,,170,180,-190,180,,180,D,Raw,Yes
1,Leonid Danilenko,Леонід Даниленко,Ukraine,1996-03-06,81.05,82.5,Juniors 20-23,M,,,,,,,,,,,210,220,230,230,,230,D,Raw,Yes
2,Roman Chegrintsev,Роман Чегринцев,Ukraine,1996-02-15,79.05,82.5,Juniors 20-23,M,,,,,,,,,,,-210,220,225,225,,225,D,Raw,Yes
3,Yaroslav Muzichenko,Ярослав Музиченко,Ukraine,1997-09-10,79.5,82.5,Juniors 20-23,M,,,,,,,,,,,190,210,-215,210,,210,D,Raw,Yes
4,Mikhaylo Bilan,Михайло Білан,Ukraine,1996-11-29,81.9,82.5,Juniors 20-23,M,,,,,,,,,,,190,205,-220,205,,205,D,Raw,Yes
5,Oleksandr Stefurak,Олександр Стефурак,Ukraine,1997-12-18,81.1,82.5,Juniors 20-23,M,,,,,,,,,,,180,195,-205,195,,195,D,Raw,Yes
1,Bogdan Menko,Богдан Менько,Ukraine,1996-03-01,89.1,90,Juniors 20-23,M,,,,,,,,,,,210,220,230,230,,230,D,Raw,Yes
2,Oleksandr Sizonenko,Олександр Сизоненко,Ukraine,1997-01-07,88.8,90,Juniors 20-23,M,,,,,,,,,,,200,217.5,-230,217.5,,217.5,D,Raw,Yes
3,Oleksandr Alforov,Олександр Алфьоров,Ukraine,1998-03-04,90,90,Juniors 20-23,M,,,,,,,,,,,205,210,-215,210,,210,D,Raw,Yes
4,Mikola Lada,Микола Лада,Ukraine,1995-12-19,89.3,90,Juniors 20-23,M,,,,,,,,,,,170,175,185,185,,185,D,Raw,Yes
1,Dmitro Nikolaev,Дмитро Ніколаєв,Ukraine,1996-09-11,94.2,100,Juniors 20-23,M,,,,,,,,,,,-280,280,-302.5,280,,280,D,Raw,Yes
2,Sergiy Klevtsov,Сергій Клєвцов,Ukraine,1995-08-08,93.9,100,Juniors 20-23,M,,,,,,,,,,,190,195,-200,195,,195,D,Raw,Yes
1,Anatoliy Koval #2,Анатолій Коваль,Ukraine,1996-04-16,106.65,110,Juniors 20-23,M,,,,,,,,,,,225,235,245,245,,245,D,Raw,Yes
2,Maksim Moskalenko,Максим Москаленко,Ukraine,1996-04-03,100.95,110,Juniors 20-23,M,,,,,,,,,,,-220,220,230,230,,230,D,Raw,Yes
1,Vladislav Deriy,Владислав Дерій,Ukraine,1992-06-08,66.2,67.5,Open,M,,,,,,,,,,,242.5,-252.5,,242.5,,242.5,D,Raw,Yes
1,Valentin Gontar,Валентин Гонтар,Ukraine,1987-09-26,75,75,Open,M,,,,,,,,,,,250,260,270,270,,270,D,Raw,Yes
2,Oleg Zhuchkov,Олег Жучков,Ukraine,1994-03-18,74.4,75,Open,M,,,,,,,,,,,240,255,262.5,262.5,,262.5,D,Raw,Yes
3,Yaroslav Krot,Ярослав Крот,Ukraine,1998-09-15,72.75,75,Open,M,,,,,,,,,,,210,225,237.5,237.5,,237.5,D,Raw,Yes
4,Vitaliy Dubina,Віталій Дубина,Ukraine,1986-04-28,73.45,75,Open,M,,,,,,,,,,,210,-225,-225,210,,210,D,Raw,Yes
5,Dmytro Solovyov,Дмитро Соловйов,Ukraine,1983-10-18,74.2,75,Open,M,,,,,,,,,,,185,200,207.5,207.5,,207.5,D,Raw,Yes
6,Andriy Tariverdiev,Андрій Таривердієв,Ukraine,1994-12-13,68,75,Open,M,,,,,,,,,,,125,-130,130,130,,130,D,Raw,Yes
1,Ruslan Slyusarenko,Руслан Слюсаренко,Ukraine,1992-02-27,78.05,82.5,Open,M,,,,,,,,,,,230,245,250,250,,250,D,Raw,Yes
2,Sergiy Chaliy,Сергій Чалий,Ukraine,1993-08-31,81.45,82.5,Open,M,,,,,,,,,,,230,-235,,230,,230,D,Raw,Yes
3,Yuriy Mikhnenko,Юрій Міхненко,Ukraine,1974-04-14,78.65,82.5,Open,M,,,,,,,,,,,210,225,-235,225,,225,D,Raw,Yes
4,Ruslan Melnik,Руслан Мельник,Ukraine,2003-09-18,81.65,82.5,Open,M,,,,,,,,,,,195,207.5,,207.5,,207.5,D,Raw,Yes
5,Dmitro Galik,Дмитро Галік,Ukraine,1992-06-26,81.7,82.5,Open,M,,,,,,,,,,,205,-207.5,-207.5,205,,205,D,Raw,Yes
1,Vladislav Vishnya,Владислав Вишня,Ukraine,2002-06-12,86.95,90,Open,M,,,,,,,,,,,230,240,248,248,255,248,D,Raw,Yes
2,Oleksandr Drobilko,Олександр Дробілко,Ukraine,1972-11-13,86.3,90,Open,M,,,,,,,,,,,230,240,-245,240,,240,D,Raw,Yes
3,Dmitro Kharchenko,Дмитро Харченко,Ukraine,1990-04-03,88.9,90,Open,M,,,,,,,,,,,220,230,240,240,,240,D,Raw,Yes
4,Volodimir Plyuta,Володимир Плюта,Ukraine,1992-03-01,88,90,Open,M,,,,,,,,,,,200,230,-250,230,,230,D,Raw,Yes
5,Yuriy Yaremiy,Юрій Яремій,Ukraine,1993-05-14,89.65,90,Open,M,,,,,,,,,,,230,-240,-240,230,,230,D,Raw,Yes
DQ,Roman Stepanov,Роман Степанов,Ukraine,1990-08-18,88.2,90,Open,M,,,,,,,,,,,-250,-250,-250,,,,D,Raw,Yes
1,Oleksandr Lisovskiy #1,Олександр Лісовський,Ukraine,1990-01-17,99.35,100,Open,M,,,,,,,,,,,270,-285,-290,270,,270,D,Raw,Yes
2,Stanislav Shubin,Станіслав Шубін,Ukraine,1992-06-30,98.05,100,Open,M,,,,,,,,,,,240,255,-265,255,,255,D,Raw,Yes
3,Denis Dashkovskiy,Денис Дашковський,Belarus,1988-01-18,96.95,100,Open,M,,,,,,,,,,,230,235,245,245,,245,D,Raw,Yes
4,Oleksandr Mazurenko,Олександр Мазуренко,Ukraine,1991-02-02,98.25,100,Open,M,,,,,,,,,,,230,240,-257.5,240,,240,D,Raw,Yes
5,Roman Postika,Роман Постика,Ukraine,1989-02-23,98.2,100,Open,M,,,,,,,,,,,230,-240,-240,230,,230,D,Raw,Yes
6,Vasil Mikheev,Василь Міхєєв,Ukraine,1990-02-20,97.5,100,Open,M,,,,,,,,,,,200,220,-235,220,,220,D,Raw,Yes
1,Denis Palyukh,Денис Палюх,Ukraine,1984-09-27,108.05,110,Open,M,,,,,,,,,,,280,295,-308,295,,295,D,Raw,Yes
2,Sergiy Radchenko,Сергій Радченко,Ukraine,1989-03-27,106.55,110,Open,M,,,,,,,,,,,250,265,-282.5,265,,265,D,Raw,Yes
3,Eduard Gusev,Едуард Гусєв,Ukraine,1990-07-27,106.75,110,Open,M,,,,,,,,,,,220,-240,-250,220,,220,D,Raw,Yes
1,Dmitro Levashov #1,Дмитро Лєвашов,Ukraine,1992-06-07,116.75,125,Open,M,,,,,,,,,,,250,260,265,265,,265,D,Raw,Yes
1,Mikola Yanushev,Микола Янушев,Ukraine,1976-12-05,72,75,Masters 40-49,M,,,,,,,,,,,-225,225,-245,225,,225,D,Raw,Yes
2,Yaroslav Panchenko,Ярослав Панченко,Ukraine,1977-08-14,73.3,75,Masters 40-49,M,,,,,,,,,,,210,,,210,,210,D,Raw,Yes
1,Yuriy Mikhnenko,Юрій Міхненко,Ukraine,1974-04-14,78.65,82.5,Masters 40-49,M,,,,,,,,,,,210,225,-235,225,,225,D,Raw,Yes
1,Oleksandr Drobilko,Олександр Дробілко,Ukraine,1972-11-13,86.3,90,Masters 40-49,M,,,,,,,,,,,230,240,-245,240,,240,D,Raw,Yes
2,Sergiy Mironchuk,Сергій Мирончук,Ukraine,1974-06-23,89.2,90,Masters 40-49,M,,,,,,,,,,,200,-217.5,-217.5,200,,200,D,Raw,Yes
1,Yuriy Stetsenko,Юрій Стеценко,Ukraine,1975-09-06,95.2,100,Masters 40-49,M,,,,,,,,,,,190,200,205,205,,205,D,Raw,Yes
1,Vyacheslav Karpenko,Вячеслав Карпенко,Ukraine,1975-05-28,108.6,110,Masters 40-49,M,,,,,,,,,,,240,245,-250,245,,245,D,Raw,Yes
2,Sergiy Kirilovskiy,Сергій Кириловський,Ukraine,1975-02-12,109.5,110,Masters 40-49,M,,,,,,,,,,,180,200,215,215,,215,D,Raw,Yes
3,Sergiy Danilenko,Сергій Даниленко,Ukraine,1977-10-27,102.2,110,Masters 40-49,M,,,,,,,,,,,150,175,205,205,,205,D,Raw,Yes
4,Yuriy Bugaychuk,Юрій Бугайчук,Ukraine,1969-09-29,100.7,110,Masters 40-49,M,,,,,,,,,,,155,-165,165,165,,165,D,Raw,Yes
1,Igor Furmanov,Ігор Фурманов,Belarus,1968-04-24,111.45,125,Masters 50-59,M,,,,,,,,,,,220,230,-240,230,,230,D,Raw,Yes
1,Ivan Slipchenko,Іван Сліпченко,Ukraine,1958-10-04,117.3,125,Masters 60-69,M,,,,,,,,,,,185,-188,188,188,,188,D,Raw,Yes
1,Tetyana Goncharenko,Тетяна Гончаренко,Ukraine,2003-04-29,65.5,67.5,Teen 13-15,F,,,,,,,,,,,80,85,91,91,-95,91,D,Raw,Yes
1,Yana Radchenko,Яна Радченко,Ukraine,2002-11-06,55.04,56,Teen 16-17,F,,,,,,,,,,,70,75,-80,75,,75,D,Raw,Yes
1,Anastasiya Stetsenko,Анастасія Стеценко,Ukraine,2003-02-21,67.1,67.5,Teen 16-17,F,,,,,,,,,,,100,110,115,115,-122.5,115,D,Raw,Yes
1,Nina Kovalchuk,Ніна Ковальчук,Ukraine,1999-08-14,59,60,Teen 18-19,F,,,,,,,,,,,115,-132.5,-132.5,115,,115,D,Raw,Yes
1,Galina Danilenko,Галина Даниленко,Ukraine,1991-02-10,43.3,44,Open,F,,,,,,,,,,,107.5,115,117.5,117.5,,117.5,D,Raw,Yes
1,Olga Dushka,Ольга Душка,Ukraine,1988-04-27,47.25,48,Open,F,,,,,,,,,,,80,-87.5,-87.5,80,,80,D,Raw,Yes
1,Oksana Storozhuk,Оксана Сторожук,Ukraine,1984-07-03,51.9,52,Open,F,,,,,,,,,,,147.5,155,162.5,162.5,167.5,162.5,D,Raw,Yes
2,Olena Valegova,Олена Валегова,Ukraine,1987-05-01,51.28,52,Open,F,,,,,,,,,,,130,135,,135,,135,D,Raw,Yes
3,Antonina Artyukhovich,Антоніна Артюхович,Ukraine,1990-09-02,50.88,52,Open,F,,,,,,,,,,,107.5,115,120,120,,120,D,Raw,Yes
1,Nataliya Sokurenko,Наталія Сокуренко,Ukraine,1981-01-12,55.82,56,Open,F,,,,,,,,,,,155,-162.5,-162.5,155,,155,D,Raw,Yes
2,Svitlana Sinyuta,Світлана Синюта,Ukraine,1987-06-14,54.2,56,Open,F,,,,,,,,,,,140,-145,145,145,,145,D,Raw,Yes
1,Darina Kovalova,Дарина Ковальова,Ukraine,1990-12-27,59.72,60,Open,F,,,,,,,,,,,175,182.5,185,185,-190,185,D,Raw,Yes
2,Adelaida Poddueva,Аделаїда Поддуєва,Ukraine,1989-10-12,59.8,60,Open,F,,,,,,,,,,,122.5,132.5,-140,132.5,,132.5,D,Raw,Yes
3,Tetyana Dzherelyuk,Тетяна Джерелюк,Ukraine,1983-07-08,56.3,60,Open,F,,,,,,,,,,,125,-132.5,-135,125,,125,D,Raw,Yes
4,Nataliya Zabedyuk,Наталія Забедюк,Ukraine,1983-02-24,60,60,Open,F,,,,,,,,,,,-115,115,-117.5,115,,115,D,Raw,Yes
5,Tatyana Adamenko,Татьяна Адаменко,Ukraine,1987-04-19,60,60,Open,F,,,,,,,,,,,115,-125,-125,115,,115,D,Raw,Yes
6,Tetyana Kochetkova,Тетяна Кочеткова,Ukraine,1986-03-12,58.44,60,Open,F,,,,,,,,,,,-95,95,100,100,,100,D,Raw,Yes
1,Oksana Ostroushko,Оксана Остроушко,Ukraine,1983-04-26,60.45,67.5,Open,F,,,,,,,,,,,130,140,-142.5,140,,140,D,Raw,Yes
2,Viktoriya Ryabko,Вікторія Рябко,Ukraine,1994-04-09,63.1,67.5,Open,F,,,,,,,,,,,-120,120,135,135,,135,D,Raw,Yes
3,Katerina Filipova,Катерина Філіпова,Ukraine,1982-06-25,64.95,67.5,Open,F,,,,,,,,,,,115,125,130,130,,130,D,Raw,Yes
4,Irina Bugrova,Ірина Бугрова,Ukraine,1981-09-13,64.1,67.5,Open,F,,,,,,,,,,,105,-112.5,-112.5,105,,105,D,Raw,Yes
5,Lyudmila Malikhatko,Людмила Маліхатко,Ukraine,1993-03-31,64.9,67.5,Open,F,,,,,,,,,,,80,85,92.5,92.5,,92.5,D,Raw,Yes
DQ,Anna Mazikina,Анна Мазикіна,Ukraine,1990-04-06,62.5,67.5,Open,F,,,,,,,,,,,-110,-110,-110,,,,D,Raw,Yes
1,Yuliya Olizarenko,Юлія Олізаренко,Ukraine,1989-04-30,74.6,75,Open,F,,,,,,,,,,,185,190,195,195,,195,D,Raw,Yes
2,Vita Rudakova,Віта Рудакова,Ukraine,1980-02-03,72.35,75,Open,F,,,,,,,,,,,150,-160,-160,150,,150,D,Raw,Yes
3,Yuliya Perekhrest,Юлія Перехрест,Ukraine,1981-10-26,68.75,75,Open,F,,,,,,,,,,,100,105,110,110,,110,D,Raw,Yes
1,Inna Evstratinko,Інна Євстратінко,Ukraine,1989-02-06,78.6,82.5,Open,F,,,,,,,,,,,-110,120,130,130,,130,D,Raw,Yes
2,Valentina Nagorna,Валентина Нагорна,Ukraine,1995-01-14,75.65,82.5,Open,F,,,,,,,,,,,110,-120,120,120,,120,D,Raw,Yes
3,Marina Fadeeva,Марина Фадеєва,Ukraine,1988-07-10,80.75,82.5,Open,F,,,,,,,,,,,100,-110,-110,100,,100,D,Raw,Yes
1,Svitlana Kravchenko,Світлана Кравченко,Ukraine,1971-05-11,55.22,56,Masters 40-49,F,,,,,,,,,,,95,100,105,105,,105,D,Raw,Yes
1,Nataliya Kolyada,Наталія Коляда,Ukraine,1976-04-27,60,60,Masters 40-49,F,,,,,,,,,,,100,110,-115,110,,110,D,Raw,Yes
1,Raїsa Salimova,Раїса Салімова,Ukraine,1967-03-13,69.6,75,Masters 50-59,F,,,,,,,,,,,100,110,120,120,,120,D,Raw,Yes
1,Oleksandr Burmak,Олександр Бурмак,Ukraine,1999-05-26,75.55,82.5,Teen 18-19,M,,,,,,,,,,,192.5,205.5,-212.5,205.5,,205.5,D,Raw,No
1,Oleksandr Moshenskiy,Олександр Мошенський,Ukraine,1991-06-04,74.2,75,Open,M,,,,,,,,,,,210,217.5,-220,217.5,,217.5,D,Raw,No
2,Sergiy Sakhno,Сергій Сахно,Ukraine,1994-02-05,69,75,Open,M,,,,,,,,,,,155,170,-182.5,170,,170,D,Raw,No
1,Evgen Konovalov,Євген Коновалов,Ukraine,1987-09-08,81.9,82.5,Open,M,,,,,,,,,,,240,250,-260,250,,250,D,Raw,No
2,Dmitro Solonenko,Дмитро Солоненко,Ukraine,1994-06-11,79.1,82.5,Open,M,,,,,,,,,,,235,245,-250,245,,245,D,Raw,No
1,Vitaliy Kobets,Віталій Кобець,Ukraine,1989-01-19,89.9,90,Open,M,,,,,,,,,,,282.5,-295,-303,282.5,,282.5,D,Raw,No
2,Dmitro Vorobey,Дмитро Воробей,Ukraine,1988-09-13,88.3,90,Open,M,,,,,,,,,,,260,275,-280,275,,275,D,Raw,No
3,Yevgen Luk'yanov,Євген Лук'янов,Belarus,1980-08-11,88.35,90,Open,M,,,,,,,,,,,230,240,-250,240,,240,D,Raw,No
DQ,Artem Ivanov #6,Артем Иванов,Ukraine,1992-12-16,89.3,90,Open,M,,,,,,,,,,,-300,-300,,,,,D,Raw,No
1,Mikhaylo Zhelyazkov,Михайло Желязков,Ukraine,1980-09-12,98.45,100,Open,M,,,,,,,,,,,310,325,335,335,,335,D,Raw,No
2,Sergiy Novokhatskiy,Сергій Новохацький,Ukraine,1982-10-23,95.8,100,Open,M,,,,,,,,,,,240,250,255,255,,255,D,Raw,No
DQ,Radion Shovkun,Радіон Шовкун,Ukraine,1981-12-15,98.4,100,Open,M,,,,,,,,,,,-250,-257.5,,,,,D,Raw,No
1,Zhorzh Togola,Жорж Тогола,Ukraine,1989-04-05,114.6,125,Open,M,,,,,,,,,,,350,-355,,350,,350,D,Raw,No
2,Sergiy Dyak,Сергій Дяк,Ukraine,1993-03-31,118,125,Open,M,,,,,,,,,,,285,302.5,-312.5,302.5,,302.5,D,Raw,No
1,Dmitro Kravchinskiy,Дмитро Кравчинський,Ukraine,1982-05-19,126.2,140,Open,M,,,,,,,,,,,270,287.5,-302.5,287.5,,287.5,D,Raw,No
2,Igor Kotsyuba,Ігор Коцюба,Ukraine,1982-09-21,126,140,Open,M,,,,,,,,,,,265,285,-300,285,,285,D,Raw,No
1,Oleksiy Shchotkin,Олексій Щьоткін,Belarus,1975-07-03,81.75,82.5,Masters 40-49,M,,,,,,,,,,,215,225,-232.5,225,,225,D,Raw,No
1,Evgeniy Dobrokonniy,Євгеній Доброконний,Ukraine,1978-02-25,99,100,Masters 40-49,M,,,,,,,,,,,235,245,252.5,252.5,,252.5,D,Raw,No
2,Yuriy Kostenko,Юрій Костенко,Ukraine,1971-07-28,98.7,100,Masters 40-49,M,,,,,,,,,,,250,,,250,,250,D,Raw,No
1,Andriy Bobilev,Андрій Бобилєв,Ukraine,1976-12-28,109.65,110,Masters 40-49,M,,,,,,,,,,,250,265,-275,265,,265,D,Raw,No
2,Sergiy Zakharov,Сергій Захаров,Ukraine,1977-12-17,103.2,110,Masters 40-49,M,,,,,,,,,,,220,-235,-235,220,,220,D,Raw,No
1,Volodimir Kolomiets,Володимир Коломіець,Ukraine,1966-05-09,95.3,100,Masters 50-59,M,,,,,,,,,,,210,-220,-220,210,,210,D,Raw,No
1,Volodimir Lukyanov,Володимир Лук'янов,Belarus,1966-02-18,102.8,110,Masters 50-59,M,,,,,,,,,,,270,280,-290,280,,280,D,Raw,No
1,Volodimir Vasilenko,Володимир Василенко,Ukraine,1943-11-12,74.75,75,Masters 70-79,M,,,,,,,,,,,130,140,155,155,,155,D,Raw,No
1,Evgen Cherevatiy,Євген Череватий,Ukraine,1988-08-27,89.4,90,Open,M,,,,,,,,,,,-280,280,292.5,292.5,,292.5,D,Single-ply,Yes
1,Ruslan Timoshenko,Руслан Тимошенко,Ukraine,1990-08-31,99.4,100,Open,M,,,,,,,,,,,277.5,287.5,297.5,297.5,,297.5,D,Single-ply,Yes
1,Evgeniy Ivanets,Євгеній Іванець,Ukraine,1995-10-02,106.1,110,Juniors 20-23,M,,,,,,,,,,,280,-300,300,300,,300,D,Single-ply,No
1,Artem Turyanitsya,Артем Туряниця,Ukraine,1991-09-26,107.45,110,Open,M,,,,,,,,,,,335,-355,-361,335,,335,D,Single-ply,No
2,Evgeniy Ivanets,Євгеній Іванець,Ukraine,1995-10-02,106.1,110,Open,M,,,,,,,,,,,280,-300,300,300,,300,D,Single-ply,No
