Name,Age,Sex,Equipment,Division,BodyweightKg,WeightClassKg,Squat1Kg,Squat2Kg,Squat3Kg,Best3SquatKg,Bench1Kg,Bench2Kg,Bench3Kg,Best3BenchKg,Deadlift1Kg,Deadlift2Kg,Deadlift3Kg,Best3DeadliftKg,TotalKg,Place,Event
Jared Simmons,39,M,Raw,MORE,65.6,67.5,-192.5,192.5,210,210,130,135,-145,135,125,-130,-130,125,470,1,SBD
Kevin Smyth,42,M,Raw,MORE,73.4,75,172.5,182.5,187.5,187.5,135,142.5,147.5,147.5,195,205,210,210,545,1,SBD
Carson Parks,21,M,Raw,MORE,87.6,90,260,277.5,287.5,287.5,165,172.5,,172.5,297.5,302.5,310,310,770,1,SBD
John Dengler,38,M,Raw,MORE,88,90,252.5,265,-272.5,265,150,-167.5,-167.5,150,262.5,280,-290,280,695,2,SBD
Christopher Dunlap,25,M,Raw,MORE,87,90,172.5,182.5,187.5,187.5,117.5,-127.5,-127.5,117.5,205,227.5,232.5,232.5,537.5,3,SBD
Garret Boecker,19,M,Raw,MORE,86.6,90,147.5,160,-172.5,160,102.5,115,-120,115,150,167.5,172.5,172.5,447.5,4,SBD
Kyle Chapman,32,M,Raw,MORE,89.4,90,122.5,142.5,160,160,100,110,-115,110,122.5,142.5,155,155,425,5,SBD
Trevor McKee,25,M,Raw,MORE,98.2,100,235,250,-257.5,250,130,137.5,-145,137.5,240,257.5,-262.5,257.5,645,1,SBD
Rob Whitley,31,M,Raw,MORE,106,110,270,280,282.5,282.5,167.5,172.5,-177.5,172.5,250,-255,,250,705,1,SBD
Austin Bunz,27,M,Raw,MORE,107,110,232.5,240,250,250,-152.5,152.5,-162.5,152.5,275,290,,290,692.5,2,SBD
Dorian Rettmann,23,M,Wraps,MOR-AD,89.2,90,220,227.5,240,240,147.5,-155,-155,147.5,-205,-220,-220,,,DQ,SBD
Tyler Lundy,27,M,Wraps,MOR-AD,100,100,215,227.5,-237.5,227.5,142.5,-147.5,-147.5,142.5,242.5,252.5,-262.5,252.5,622.5,1,SBD
Eric Reeder,29,M,Wraps,MOR-AD,105.6,110,240,-250,-265,240,150,162.5,,162.5,190,,,190,592.5,1,SBD
Jhonny Servellon,32,M,Wraps,MOR-AD,108,110,192.5,210,-227.5,210,122.5,-132.5,-132.5,122.5,190,200,-210,200,532.5,2,SBD
Jacob Chiodo,35,M,Wraps,MOR-AD,105.2,110,165,-175,-175,165,152.5,-155,-155,152.5,165,175,185,185,502.5,3,SBD
Josh Smith #7,36,M,Wraps,MOR,65.2,67.5,102.5,105,-110,105,97.5,102.5,-105,102.5,127.5,145,157.5,157.5,365,1,SBD
Shaddy Ziadeh,32,M,Wraps,MOR,74,75,215,230,-242.5,230,137.5,-142.5,-142.5,137.5,220,235,240,240,607.5,1,SBD
Cole Weber,29,M,Wraps,MOR,72.4,75,135,145,155,155,77.5,82.5,87.5,87.5,180,190,200,200,442.5,2,SBD
Carsen Kuesel,28,M,Wraps,MOR,80.2,82.5,220,227.5,-230,227.5,132.5,137.5,-142.5,137.5,220,-227.5,-227.5,220,585,1,SBD
Marcus Dummermuth,26,M,Wraps,MOR,78.4,82.5,120,130,-137.5,130,62.5,65,67.5,67.5,165,175,185,185,382.5,2,SBD
Jeramy Ingle,31,M,Wraps,MOR,89,90,327.5,-347.5,-362.5,327.5,157.5,170,177.5,177.5,295,312.5,-317.5,312.5,817.5,1,SBD
Randy Shramek,32,M,Wraps,MOR,89.2,90,242.5,-265,265,265,187.5,-200,-200,187.5,230,245,252.5,252.5,705,2,SBD
Nate Miller,20,M,Wraps,MOR,89.4,90,212.5,230,242.5,242.5,160,175,177.5,177.5,215,222.5,237.5,237.5,657.5,3,SBD
Michael Richard,23,M,Wraps,MOR,86,90,192.5,205,215,215,125,135,-140,135,220,230,240,240,590,4,SBD
Mitchell Phillips,30,M,Wraps,MOR,89.4,90,230,242.5,-252.5,242.5,125,132.5,-140,132.5,185,195,210,210,585,5,SBD
Josh Hale,33,M,Wraps,MOR,88.8,90,185,-195,195,195,115,125,-135,125,190,200,-210,200,520,6,SBD
Matt Braund,41,M,Wraps,MOR,88.2,90,170,-177.5,182.5,182.5,-95,-95,95,95,160,165,-175,165,442.5,7,SBD
Jonathan Kirst,24,M,Wraps,MOR,86.4,90,145,160,-172.5,160,77.5,-90,-90,77.5,-200,-200,-200,,,DQ,SBD
Aaron Nance,40,M,Wraps,MOR,96.6,100,255,265,275,275,137.5,147.5,160,160,300,312.5,322.5,322.5,757.5,1,SBD
Jordan Michalek,25,M,Wraps,MOR,97,100,250,272.5,-287.5,272.5,185,195,-202.5,195,275,285,-290,285,752.5,2,SBD
Jon Sodawasser,26,M,Wraps,MOR,95.6,100,245,265,275,275,162.5,177.5,-182.5,177.5,230,247.5,260,260,712.5,3,SBD
Matt Teijido,28,M,Wraps,MOR,97.2,100,207.5,232.5,245,245,152.5,165,-175,165,265,-282.5,282.5,282.5,692.5,4,SBD
Fred Barnabe,32,M,Wraps,MOR,98.8,100,227.5,242.5,255,255,137.5,147.5,155,155,245,260,272.5,272.5,682.5,5,SBD
Tyler Lundy,27,M,Wraps,MOR,100,100,215,227.5,-237.5,227.5,142.5,-147.5,-147.5,142.5,242.5,252.5,-262.5,252.5,622.5,6,SBD
Matthew Johnson #1,26,M,Raw,MOR,97.4,100,200,217.5,227.5,227.5,120,127.5,-132.5,127.5,230,247.5,255,255,610,7,SBD
Isaac Hiebert,20,M,Wraps,MOR,91.8,100,210,222.5,-227.5,222.5,110,-115,-115,110,215,227.5,-230,227.5,560,8,SBD
Cody Jasper,29,M,Wraps,MOR,99.4,100,280,290,295,295,-180,-180,-180,,,,,,,DQ,SBD
Andrew Sharp,36,M,Wraps,MOR,100,100,-200,-200,-200,,,,,,,,,,,DQ,SBD
Andrew Schinske,29,M,Wraps,MOR,107.8,110,305,-330,345,345,210,-220,,210,305,330,-342.5,330,885,1,SBD
William Slocum,27,M,Wraps,MOR,108.4,110,272.5,287.5,297.5,297.5,195,,,195,317.5,-335,-335,317.5,810,2,SBD
Matt Lindell,33,M,Wraps,MOR,109,110,270,292.5,-300,292.5,182.5,195,-205,195,255,275,287.5,287.5,775,3,SBD
Antonio Lama,23,M,Wraps,MOR,109.4,110,272.5,-295,-302.5,272.5,175,182.5,192.5,192.5,260,280,287.5,287.5,752.5,4,SBD
Josh Kosier,27,M,Wraps,MOR,105.8,110,200,220,232.5,232.5,197.5,215,-227.5,215,250,265,272.5,272.5,720,5,SBD
Spenser Nagel,32,M,Wraps,MOR,104.6,110,255,265,272.5,272.5,145,157.5,-162.5,157.5,255,-280,280,280,710,6,SBD
Patrick Little,25,M,Wraps,MOR,105.8,110,230,242.5,245,245,147.5,157.5,162.5,162.5,275,287.5,292.5,292.5,700,7,SBD
Jacob Nesemeier,25,M,Wraps,MOR,107.2,110,185,197.5,210,210,142.5,150,-160,150,235,245,257.5,257.5,617.5,8,SBD
Jhonny Servellon,32,M,Wraps,MOR,108,110,192.5,210,-227.5,210,122.5,-132.5,-132.5,122.5,190,200,-210,200,532.5,9,SBD
Ryan Miller #1,31,M,Wraps,MOR,108,110,265,-275,-275,265,-145,-145,-145,,,,,,,DQ,SBD
Cody Haenitsch,30,M,Wraps,MOR,124,125,287.5,300,-310,300,175,182.5,-187.5,182.5,280,300,-312.5,300,782.5,1,SBD
Tye Ekquist,23,M,Wraps,MOR,116.6,125,190,200,-215,200,140,-147.5,-147.5,140,202.5,220,235,235,575,2,SBD
Matthew Lim,26,M,Wraps,MOR,138.2,140,352.5,375,387.5,387.5,190,200,-205,200,322.5,342.5,-365,342.5,930,1,SBD
Marvin Harrington,38,M,Wraps,MOR,138,140,342.5,-367.5,367.5,367.5,200,-215,-215,200,295,327.5,,327.5,895,2,SBD
Skyler Brandt,20,M,Wraps,MOR,159,140+,375,400,-415,400,190,200,-212.5,200,350,-375,-375,350,950,1,SBD
Alex Kauffman,25,M,Wraps,MOR,168.4,140+,300,322.5,340,340,170,185,200,200,250,277.5,290,290,830,2,SBD
Matt Berry #1,45,M,Multi-ply,MO,88.6,90,-320,-347.5,347.5,347.5,202.5,220,-227.5,220,250,265,-297.5,265,832.5,1,SBD
Kyle Esch,35,M,Multi-ply,MO,89,90,247.5,252.5,257.5,257.5,-170,-170,170,170,247.5,265,-275,265,692.5,2,SBD
Nate Yelton,28,M,Multi-ply,MO,124.4,125,417.5,-447.5,,417.5,282.5,-300,,282.5,272.5,292.5,-302.5,292.5,992.5,1,SBD
Mayra Guzman,28,F,Raw,FORE-AD,74.2,75,-75,80,-87.5,80,40,45,47.5,47.5,110,-125,-125,110,237.5,1,SBD
Brittnie Mason,29,F,Raw,FORE-AD,89.4,90,102.5,107.5,112.5,112.5,60,65,-67.5,65,112.5,120,125,125,302.5,1,SBD
Kim Sarik,54,F,Raw,FM3RE,79.6,82.5,-92.5,97.5,100,100,50,-55,-55,50,102.5,105,112.5,112.5,262.5,1,SBD
Shienne Wittwer,22,F,Raw,FJRE,87.4,90,95,100,-110,100,52.5,-57.5,57.5,57.5,95,100,110,110,267.5,1,SBD
Courtney Hanson,32,F,Raw,FORE,59.6,60,-120,-120,120,120,-65,-65,65,65,137.5,145,155,155,340,1,SBD
Miranda Good,27,F,Raw,FORE,59,60,102.5,110,-117.5,110,-57.5,-57.5,-57.5,,,,,,,DQ,SBD
Julie Petak,24,F,Raw,FORE,73,75,120,127.5,132.5,132.5,57.5,-60,60,60,162.5,170,-182.5,170,362.5,1,SBD
Tasha Whitley,27,F,Raw,FORE,81.4,82.5,110,115,120,120,47.5,52.5,55,55,127.5,137.5,145,145,320,1,SBD
Mariah Knop,27,F,Raw,FORE,76,82.5,97.5,105,115,115,47.5,-57.5,-57.5,47.5,130,145,-150,145,307.5,2,SBD
Alayna Beckham,25,F,Raw,FORE,78.8,82.5,100,107.5,115,115,55,-60,-65,55,110,120,130,130,300,3,SBD
Emi Zook,16,F,Raw,FORE,78.8,82.5,77.5,85,95,95,57.5,65,-67.5,65,120,127.5,-130,127.5,287.5,4,SBD
Stephanie Dolan,38,F,Raw,FORE,89,90,67.5,77.5,87.5,87.5,47.5,50,52.5,52.5,95,100,107.5,107.5,247.5,1,SBD
Kathy Criswell,31,F,Raw,FORE,134,90+,92.5,-100,100,100,57.5,-62.5,-62.5,57.5,112.5,130,142.5,142.5,300,1,SBD
Rebecca Roberts,42,F,Wraps,FM1R,81.4,82.5,210,225,235,235,110,130,-137.5,130,210,227.5,237.5,237.5,602.5,1,SBD
Sarah MacFarland,42,F,Wraps,FM1R,75.4,82.5,87.5,100,110,110,60,67.5,-70,67.5,115,122.5,-137.5,122.5,300,2,SBD
Vicki Lindell,41,F,Wraps,FM1R,65.2,67.5,90,102.5,107.5,107.5,52.5,-55,-55,52.5,85,97.5,-105,97.5,257.5,3,SBD
Sara Lomelino,43,F,Wraps,FM1R,53.6,56,57.5,67.5,-72.5,67.5,40,42.5,-47.5,42.5,82.5,92.5,97.5,97.5,207.5,4,SBD
Brittany Metzner,35,F,Wraps,FSR,79.6,82.5,175,185,195,195,97.5,100,-105,100,170,-182.5,-182.5,170,465,1,SBD
Amy Bohl,37,F,Wraps,FSR,66,67.5,125,-147.5,-147.5,125,87.5,92.5,100,100,142.5,152.5,160,160,385,2,SBD
Abel Fincher,23,F,Wraps,FJR,65.6,67.5,95,102.5,-110,102.5,52.5,62.5,-70,62.5,100,112.5,125,125,290,1,SBD
Taylor Bjork,23,F,Wraps,FJR,80,82.5,-110,110,115,115,57.5,62.5,-65,62.5,112.5,120,132.5,132.5,310,2,SBD
Payton McHone,18,F,Wraps,FT3R,71.8,75,147.5,-155,-155,147.5,50,55,-60,55,-120,120,-125,120,322.5,1,SBD
Aubrie Harrington,16,F,Wraps,FT2R,55,56,82.5,95,-107.5,95,37.5,-42.5,-42.5,37.5,105,-122.5,122.5,122.5,255,1,SBD
Samantha Quillen,17,F,Wraps,FT2R,91,90+,50,57.5,70,70,37.5,-42.5,-42.5,37.5,92.5,107.5,-125,107.5,215,2,SBD
Olivia Compas,14,F,Wraps,FT1R,58.6,60,90,-102.5,-102.5,90,40,-45,-45,40,80,97.5,107.5,107.5,237.5,1,SBD
Andrea Romero,26,F,Wraps,FOR,55.8,56,142.5,155,167.5,167.5,70,-85,85,85,142.5,160,167.5,167.5,420,1,SBD
Jaime Kuenzi,35,F,Wraps,FOR,54.6,56,102.5,107.5,117.5,117.5,60,67.5,-70,67.5,102.5,110,115,115,300,2,SBD
Dolores Estrada,31,F,Wraps,FOR,59.5,60,-115,122.5,132.5,132.5,67.5,-72.5,-72.5,67.5,137.5,150,152.5,152.5,352.5,1,SBD
Chloe Lansing,28,F,Wraps,FOR,67.2,67.5,220,-232.5,232.5,232.5,95,100,102.5,102.5,220,235,,235,570,1,SBD
Vicki Lindell,41,F,Wraps,FOR,65.2,67.5,90,102.5,107.5,107.5,52.5,-55,-55,52.5,85,97.5,-105,97.5,257.5,2,SBD
Caitlin Sullivan,28,F,Wraps,FOR,71.8,75,215,-232.5,-232.5,215,97.5,-105,-105,97.5,197.5,-220,,197.5,510,1,SBD
Kelsey Paskert,29,F,Wraps,FOR,71.6,75,165,185,-195,185,90,-97.5,97.5,97.5,170,182.5,192.5,192.5,475,2,SBD
Krystal Cary,35,F,Wraps,FOR,72.6,75,187.5,192.5,197.5,197.5,105,-107.5,-107.5,105,127.5,142.5,150,150,452.5,3,SBD
Erika Runge,32,F,Wraps,FOR,73.4,75,140,150,160,160,62.5,70,77.5,77.5,157.5,170,-182.5,170,407.5,4,SBD
Nikki Weber,32,F,Wraps,FOR,73,75,-115,115,120,120,57.5,62.5,-65,62.5,120,-125,-125,120,302.5,5,SBD
Rebecca Roberts,42,F,Wraps,FOR,81.4,82.5,210,225,235,235,110,130,-137.5,130,210,227.5,237.5,237.5,602.5,1,SBD
Brittany Metzner,35,F,Wraps,FOR,79.6,82.5,175,185,195,195,97.5,100,-105,100,170,-182.5,-182.5,170,465,2,SBD
Noemi Munoz,24,F,Wraps,FOR,82.5,82.5,100,122.5,-137.5,122.5,45,52.5,57.5,57.5,107.5,127.5,-140,127.5,307.5,3,SBD
Katie Jo Ramirz,31,F,Wraps,FOR,82,82.5,92.5,107.5,-117.5,107.5,52.5,-60,-60,52.5,95,102.5,112.5,112.5,272.5,4,SBD
Kylee Tyer,26,F,Wraps,FOR,80,82.5,87.5,95,105,105,42.5,-47.5,-47.5,42.5,92.5,110,122.5,122.5,270,5,SBD
Monique Torra,34,F,Wraps,FOR,78,82.5,80,-92.5,-92.5,80,40,45,47.5,47.5,80,90,100,100,227.5,6,SBD
Ellie Taylor,24,F,Wraps,FOR,85.8,90,77.5,90,100,100,45,50,55,55,112.5,125,-137.5,125,280,1,SBD
Lauren Black,29,F,Wraps,FOR,85.8,90,-97.5,-97.5,-97.5,,,,,,,,,,,DQ,SBD
Arielle Gallione,28,F,Wraps,FOR,99.4,90+,167.5,182.5,187.5,187.5,75,80,-85,80,152.5,162.5,172.5,172.5,440,1,SBD
Deanna Posey,50,F,Wraps,FOR,93.6,90+,50,60,67.5,67.5,57.5,60,65,65,97.5,107.5,117.5,117.5,250,2,SBD
Taylor Haney,26,F,Wraps,FOR,155,90+,-247.5,-247.5,-247.5,,,,,,,,,,,DQ,SBD
Jennifer Martinez #1,39,F,Wraps,FSR-AD,66.8,67.5,-130,-132.5,145,145,55,65,-75,65,157.5,172.5,-177.5,172.5,382.5,1,SBD
April Evans,39,F,Wraps,FSR-AD,80.4,82.5,110,115,117.5,117.5,67.5,72.5,75,75,137.5,142.5,-150,142.5,335,2,SBD
Cecy Supanchick,37,F,Wraps,FSR-AD,81,82.5,-110,110,117.5,117.5,67.5,72.5,-75,72.5,115,122.5,132.5,132.5,322.5,3,SBD
Dolores Estrada,31,F,Wraps,FOR-AD,59.5,60,-115,122.5,132.5,132.5,67.5,-72.5,-72.5,67.5,137.5,150,152.5,152.5,352.5,1,SBD
Jennifer Martinez #1,39,F,Wraps,FOR-AD,66.8,67.5,-130,-132.5,145,145,55,65,-75,65,157.5,172.5,-177.5,172.5,382.5,1,SBD
Krystal Cary,35,F,Wraps,FOR-AD,72.6,75,187.5,192.5,197.5,197.5,105,-107.5,-107.5,105,127.5,142.5,150,150,452.5,1,SBD
Daloris Sylvester,27,F,Wraps,FOR-AD,74.8,75,155,-160,-160,155,82.5,-90,-90,82.5,160,170,-177.5,170,407.5,2,SBD
April Evans,39,F,Wraps,FOR-AD,80.4,82.5,110,115,117.5,117.5,67.5,72.5,75,75,137.5,142.5,-150,142.5,335,1,SBD
Cecy Supanchick,37,F,Wraps,FOR-AD,81,82.5,-110,110,117.5,117.5,67.5,72.5,-75,72.5,115,122.5,132.5,132.5,322.5,2,SBD
Frank Jackson,56,M,Raw,MM4RE-AD,97.8,100,182.5,192.5,-197.5,192.5,125,-137.5,-137.5,125,200,212.5,-227.5,212.5,530,1,SBD
Jeff Mensinger,54,M,Raw,MM3RE-AD,73.4,75,150,175,185,185,112.5,-122.5,122.5,122.5,170,185,192.5,192.5,500,1,SBD
Connor Hall,34,M,Raw,MSRE,137,140,185,197.5,210,210,165,175,182.5,182.5,200,227.5,237.5,237.5,630,1,SBD
Michael Sarik,12,M,Raw,MYRE,86.6,90,67.5,77.5,85,85,37.5,45,-50,45,75,80,87.5,87.5,217.5,1,SBD
Matt Dennis,23,M,Raw,MJRE,88.8,90,210,227.5,-240,227.5,150,-155,157.5,157.5,250,272.5,280,280,665,1,SBD
Jeff Doyle,52,M,Wraps,MM3R,119,125,180,190,200,200,122.5,130,137.5,137.5,185,192.5,197.5,197.5,535,1,SBD
Mark DeSpain,53,M,Wraps,MM3R,120,125,190,200,-212.5,200,-127.5,127.5,-142.5,127.5,190,197.5,-202.5,197.5,525,2,SBD
Bruce Sabel,43,M,Wraps,MM1R,99.8,100,187.5,200,-210,200,117.5,130,-142.5,130,205,230,235,235,565,1,SBD
Matthew Taylor,39,M,Wraps,MSR,78.4,82.5,147.5,155,167.5,167.5,80,85,-90,85,177.5,190,200,200,452.5,1,SBD
Noah Heathcott,21,M,Wraps,MJR,80.8,82.5,185,200,-207.5,200,115,-122.5,-122.5,115,205,215,227.5,227.5,542.5,1,SBD
Carter Bruce,17,M,Wraps,MT2R,100,100,212.5,237.5,250,250,127.5,142.5,-152.5,142.5,217.5,-237.5,247.5,247.5,640,1,SBD
Eric Carson,44,M,Wraps,MM1R-AD,121,125,137.5,145,,145,102.5,115,,115,182.5,195,,195,455,1,SBD
Christine Wilson #1,43,F,Raw,FM1R,119.6,90+,,,,,67.5,72.5,-80,72.5,142.5,150,155,155,227.5,1,BD
Billy Boyce,69,M,Raw,MM6R,89.2,90,,,,,25,,,25,25,,,25,50,1,BD
Jacob Stratton,32,M,Raw,MOR,98.2,100,,,,,170,177.5,185,185,302.5,315,327.5,327.5,512.5,1,BD
Chris Blair #2,36,M,Multi-ply,MO,110,110,,,,,150,157.5,165,165,175,192.5,-200,192.5,357.5,1,BD
Clint Jensen,55,M,Raw,MM4R,138.4,140,,,,,152.5,-162.5,162.5,162.5,,,,,162.5,1,B
Lonnie Dickinson,50,M,Raw,MM3R,154.8,140+,,,,,240,257.5,265,265,,,,,265,1,B
Jeremiah Johnson #2,43,M,Raw,MM1R,109.8,110,,,,,222.5,232.5,240,240,,,,,240,1,B
Brian Yelton,52,M,Raw,MM3R-AD,106.8,110,,,,,165,-175,-175,165,,,,,165,1,B
John Duggan,38,M,Raw,MOR,97.6,100,,,,,190,200,-205,200,,,,,200,1,B
Jeremiah Johnson #2,43,M,Raw,MOR,109.8,110,,,,,222.5,232.5,240,240,,,,,240,1,B
Matt Houser,35,M,Raw,MOR,108.6,110,,,,,-197.5,-207.5,-207.5,,,,,,,DQ,B
Micah Borop,24,M,Raw,MOR,114.8,125,,,,,185,-197.5,-197.5,185,,,,,185,1,B
Lonnie Dickinson,50,M,Raw,MOR,154.8,140+,,,,,240,257.5,265,265,,,,,265,1,B
Cliff Linne,58,M,Multi-ply,MM4,132.2,140,,,,,217.5,,,217.5,,,,,217.5,1,B
Tom Fox #1,66,M,Raw,MM6R,75,75,,,,,90,100,-110,100,,,,,100,1,B
