Place,Name,CyrillicName,Sex,Division,Team,BirthDate,Age,WeightClassKg,BodyweightKg,Bench1Kg,Bench2Kg,Bench3Kg,Best3BenchKg,Deadlift1Kg,Deadlift2Kg,Deadlift3Kg,Deadlift4Kg,Best3DeadliftKg,TotalKg,Event,Equipment,Tested
1,Arsen Fazimemetov,Арсен Фазимеметов,M,Amateur Teen 16-17,СПХК. Севастополь,2003-04-07,17,82.5,76.6,90,100,107.5,107.5,,,,,,107.5,B,Raw,Yes
1,Aleksandr Chernyak,Александр Черняк,M,Amateur Open,Евпатория. Евпатория,1988-09-27,32,56,55.4,-100,100,105,105,,,,,,105,B,Raw,Yes
1,Georgiy Dik,Георгий Дик,M,Amateur Open,Домкрат. Евпатория,1990-08-27,30,82.5,82.3,80,82.5,-90,82.5,,,,,,82.5,B,Raw,Yes
1,Segrey Sokolov,Сегрей Соколов,M,Amateur Open,Севастополь,1973-04-28,47,100,99.3,150,160,-165,160,,,,,,160,B,Raw,Yes
2,Denis Kovalyov,Денис Ковалёв,M,Amateur Open,Альбион. Симферополь,1984-01-17,36,100,99.5,150,-162.2,-162.2,150,,,,,,150,B,Raw,Yes
3,Aleksey Khodukin,Алексей Ходукин,M,Amateur Open,Саки,1983-03-10,37,100,98.3,140,145,-150,145,,,,,,145,B,Raw,Yes
1,Sergey Tseluyko,Сергей Целуйко,M,Amateur Masters 40-44,Баргест. Симферополь,1976-09-28,44,90,87.4,155,157.5,-160,157.5,,,,,,157.5,B,Raw,Yes
1,Segrey Sokolov,Сегрей Соколов,M,Amateur Masters 45-49,Севастополь,1973-04-28,47,100,99.3,150,160,-165,160,,,,,,160,B,Raw,Yes
1,Aleksey Makarov,Алексей Макаров,M,Amateur Masters 45-49,"ТЗ ""Медведь"". Севастополь",1971-05-24,49,125,120,160,165,-167.5,165,,,,,,165,B,Raw,Yes
1,Yuriy Matyushenko,Юрий Матюшенко,M,Amateur Masters 50-54,Profit. Севастополь,1969-01-18,51,110,109.7,160,165,167.5,167.5,,,,,,167.5,B,Raw,Yes
1,Aleksandra Usikova,Александра Усикова,F,Amateur Open,Атлетстудия. Симферополь,1983-10-12,37,56,54.1,,,,,110,-115,-115,,110,110,D,Raw,Yes
1,Natalya Andrusyak,Наталья Андрусяк,F,Amateur Open,Баргест. Евпатория,1996-03-31,24,75,72.5,,,,,160,170,175,,175,175,D,Raw,Yes
1,Danil Ponomarev,Данил Пономарев,M,Amateur Teen 18-19,Баргест. Симферополь,2001-09-10,19,110,105,,,,,-205,205,-215,,205,205,D,Raw,Yes
1,Vladimir Chernyavskiy,Владимир Чернявский,M,Amateur Open,Titan. пгт Черноморское,1994-12-14,25,75,70.4,,,,,170,-180,185,,185,185,D,Raw,Yes
1,Sergey Onufriev,Сергей Онуфриев,M,Amateur Open,Белогорск,1994-08-12,26,90,87.7,,,,,260,-285,-285,,260,260,D,Raw,Yes
2,Maksim Belmesov,Максим Бельмесов,M,Amateur Open,Евпатория. Евпатория,1983-05-11,37,90,86.4,,,,,190,200,210,,210,210,D,Raw,Yes
1,Gennadiy Shedo,Геннадий Шедо,M,Amateur Open,Ironman. Севастополь,1979-04-12,41,100,96.9,,,,,210,225,235,,235,235,D,Raw,Yes
2,Aleksey Khodukin,Алексей Ходукин,M,Amateur Open,Саки,1983-03-10,37,100,98.3,,,,,200,-210,,,200,200,D,Raw,Yes
1,Aleksandra Samokhval,Александра Самохвал,F,Pro Masters 40-44,Евпатория. Евпатория,1978-06-25,42,60,58,30,35,40,40,,,,,,40,B,Raw,No
1,Nikolay Naydenkov,Николай Найденков,M,Pro Juniors 20-23,Евпатория. Евпатория,1999-11-24,21,90,89.2,50,57.5,60,60,,,,,,60,B,Raw,No
1,Artyom Vinogradskiy,Артём Виноградский,M,Pro Open,Триумф. Симферополь,1986-08-15,34,90,86.3,175,180,185,185,,,,,,185,B,Raw,No
2,Aleksey Chaplyun,Алексей Чаплюн,M,Pro Open,Домкрат. Саки,1989-04-06,31,90,87.5,90,92.5,95,95,,,,,,95,B,Raw,No
1,Maksim Agafonov,Максим Агафонов,M,Pro Open,Саки,1980-08-17,40,110,108,180,-190,,180,,,,,,180,B,Raw,No
1,Maksim Agafonov,Максим Агафонов,M,Pro Masters 40-44,Саки,1980-08-17,40,110,108,180,-190,-190,180,,,,,,180,B,Raw,No
1,Denis Stasyuk,Денис Стасюк,M,Pro Open,Ironman. Севастополь,1993-05-30,27,90,89.3,220,240,-245,240,,,,,,240,B,Unlimited,No
1,Artyom Stasyuk,Артём Стасюк,M,Pro Open,Ironman. Севастополь,1993-05-30,27,110,102.2,300,310,-315,310,,,,,,310,B,Unlimited,No
1,Elvira Kataeva,Эльвира Катаева,F,Pro Open,Баргест. Симферополь,1988-01-07,32,60,59.1,,,,,170,180,185,,185,185,D,Raw,No
1,Velina Seydmakhmudova,Велина Сейдмахмудова,F,Pro Open,Баргест. Белогорск,1992-07-10,28,75,70.8,,,,,105,115,125,,125,125,D,Raw,No
1,Aleksandra Samokhval,Александра Самохвал,F,Pro Masters 40-44,Евпатория. Евпатория,1978-06-25,42,60,58,,,,,60,70,75,,75,75,D,Raw,No
1,Lyudmila Goryacheva,Людмила Горячева,F,Pro Masters 50-54,Евпатория. Евпатория,1969-09-04,51,67.5,66.2,,,,,75,80,85,-90,85,85,D,Raw,No
1,Aleksey Zamorodskikh,Алексей Замородских,M,Pro Open,Баргест. Симферополь,1981-03-10,39,90,89.8,,,,,200,210,-217.5,,210,210,D,Raw,No
1,Daniil Naydyonov,Даниил Найдёнов,M,Pro Open,Баргест. Симферополь,1995-10-31,25,140,130.4,,,,,155,-165,170,,170,170,D,Raw,No
1,Dmitriy Zhidkov,Дмитрий Жидков,M,Pro Masters 50-54,Баргест. Симферополь,1967-04-07,53,75,73,,,,,165,-175,175,-177.5,175,175,D,Raw,No
1,Evgeniy Suvorov,Евгений Суворов,M,Pro Masters 65-69,Евпатория. Евпатория,1954-06-22,66,75,74.8,,,,,165,172.5,177.5,,177.5,177.5,D,Raw,No
1,Sergey Banasinskiy,Сергей Банасинский,M,Pro Masters 70-74,Баргест. Симферополь,1948-10-16,72,82.5,78,,,,,130,137.5,140,,140,140,D,Raw,No
