Place,Sex,Name,CyrillicName,BodyweightKg,Squat1Kg,Squat2Kg,Squat3Kg,Best3SquatKg,Squat4Kg,Bench1Kg,Bench2Kg,Bench3Kg,Best3BenchKg,Bench4Kg,Deadlift1Kg,Deadlift2Kg,Deadlift3Kg,Best3DeadliftKg,Deadlift4Kg,TotalKg,WeightClassKg,Event,Equipment,Tested,Division,Age,BirthDate
1,F,Liliya Tikhonova,Лилия Тихонова,73.6,85,-90,-90,85,,-52.5,52.5,-55,52.5,,105,115,122.5,122.5,,260,75,SBD,Raw,Yes,Masters 40-44,41,1978-03-12
1,M,Semen Sindiryakov,Семен Синдиряков,58.4,-120,120,130,130,,90,-95,95,95,,160,170,175,175,,400,60,SBD,Raw,Yes,Open,37,1982-04-16
1,M,Nail Sharafiev,Наиль Шарафиев,66.7,125,132.5,140,140,,85,90,-95,90,,165,172.5,180,180,,410,67.5,SBD,Raw,Yes,Open,34,1984-08-27
1,F,Rozaliya Mingazetdinova,Розалия Мингазетдинова,66.8,-80,80,-100,80,,60,65,70,70,,130,140,150,150,,300,67.5,SBD,Raw,No,Masters 50-54,50,1969-02-28
1,M,Artem Repko,Артем Репко,65.9,80,92.5,100,100,,65,70,-72.5,70,,140,150,152.5,152.5,,322.5,67.5,SBD,Raw,No,Teen 13-15,15,2004-03-21
DQ,M,Vladimir Subbotin,Владимир Субботин,74.2,-155,-155,-160,,,,,,,,,,,,,,75,SBD,Raw,No,Masters 50-54,52,1967-02-24
1,M,Denis Gusev,Денис Гусев,80.8,-140,140,-150,140,,105,110,-112.5,110,,145,155,165,165,,415,82.5,SBD,Raw,No,Open,33,1986-05-17
1,M,Ildar Akhmadishin,Ильдар Ахмадишин,92.9,260,265,270,270,,160,-165,165,165,,280,-285,285,285,,720,100,SBD,Raw,No,Open,27,1992-03-06
1,M,Nikolay Boyko,Николай Бойко,104.6,-225,230,235,235,,170,175,180,180,,280,285,290,290,,705,110,SBD,Raw,No,Open,28,1991-01-19
1,M,Vladimir Subbotin,Владимир Субботин,74.2,,,,,,105,-110,-110,105,,160,170,175,175,,280,75,BD,Raw,No,Masters 50-54,52,1967-02-24
1,M,Denis Konshin,Денис Коньшин,99,,,,,,175,185,-190,185,,285,300,305,305,,490,100,BD,Raw,No,Open,27,1992-01-14
1,F,Mariya Chirkova #1,Мария Чиркова,72.1,,,,,,72.5,-80,80,80,,,,,,,80,75,B,Raw,Yes,Juniors 20-23,23,1996-04-02
1,M,Yavdat Idiyatullin,Явдат Идиятуллин,52.5,,,,,,30,-45,50,50,,,,,,,50,56,B,Raw,Yes,Masters 55-59,56,1962-12-06
1,M,Timur Sagdiev,Тимур Сагдиев,58,,,,,,102.5,-105,-105,102.5,,,,,,,102.5,60,B,Raw,Yes,Juniors 20-23,21,1997-08-27
1,M,Marsel Mubarakzyanov,Марсель Мубаракзянов,66.7,,,,,,102.5,-105,-107.5,102.5,,,,,,,102.5,67.5,B,Raw,Yes,Open,25,1994-01-04
DQ,M,Rustam Zinnatullin,Рустам Зиннатуллин,66.7,,,,,,-132.5,-132.5,-132.5,,,,,,,,,67.5,B,Raw,Yes,Open,31,1987-12-14
1,M,Nikita Goryntsev,Никита Горынцев,72.4,,,,,,85,90,-95,90,,,,,,,90,75,B,Raw,Yes,Juniors 20-23,20,1998-09-10
1,M,Ferdinant Gazizov,Фердинант Газизов,80.9,,,,,,140,-145,-145,140,,,,,,,140,82.5,B,Raw,Yes,Masters 40-44,44,1974-06-11
DQ,M,Sergey Zmiev,Сергей Змиев,86.1,,,,,,-135,-135,-135,,,,,,,,,90,B,Raw,Yes,Masters 40-44,40,1979-02-09
1,M,Nikolay Kuchaev,Николай Кучаев,95.2,,,,,,140,-142.5,145,145,,,,,,,145,100,B,Raw,Yes,Open,29,1989-12-24
1,M,Viktor Klyuchnikov,Виктор Ключников,94.5,,,,,,145,-150,-150,145,,,,,,,145,100,B,Raw,Yes,Masters 40-44,41,1977-07-20
1,F,Olga Atamanova,Ольга Атаманова,48.4,,,,,,45,-52.5,-52.5,45,,,,,,,45,52,B,Raw,No,Open,39,1979-06-16
DQ,F,Nadezhda Raevskaya,Надежда Раевская,59.8,,,,,,-50,-50,-50,,,,,,,,,60,B,Raw,No,Open,32,1987-04-14
1,M,Aleksey Makarov,Алексей Макаров,53.6,,,,,,-50,50,-52.5,50,,,,,,,50,56,B,Raw,No,Teen 13-15,14,2004-11-22
1,M,Albert Moor,Альберт Моор,73.4,,,,,,55,60,65,65,,,,,,,65,75,B,Raw,No,Masters 65-69,68,1950-07-03
1,M,Stepan Budin,Степан Будин,81,,,,,,155,-165,-165,155,,,,,,,155,82.5,B,Raw,No,Open,25,1994-05-15
1,M,Ayrat Khayrutdinov,Айрат Хайрутдинов,88.6,,,,,,155,160,162.5,162.5,,,,,,,162.5,90,B,Raw,No,Open,38,1981-02-20
1,M,Aleksey Mudretsov,Алексей Мудрецов,88.5,,,,,,180,-195,195,195,,,,,,,195,90,B,Raw,No,Masters 40-44,43,1976-03-14
1,M,Vasiliy Belyaev,Василий Беляев,98.5,,,,,,200,-205,-205,200,,,,,,,200,100,B,Raw,No,Open,32,1987-04-28
1,M,Florit Maksyutov,Флорит Максютов,94.3,,,,,,120,125,-130,125,,,,,,,125,100,B,Raw,No,Masters 60-64,63,1955-08-12
1,M,Egor Valeev,Егор Валеев,104.4,,,,,,190,197.5,-205,197.5,,,,,,,197.5,110,B,Raw,No,Open,31,1987-07-04
2,M,Aleksandr Zhvakin,Александр Жвакин,104.4,,,,,,150,-167.5,167.5,167.5,,,,,,,167.5,110,B,Raw,No,Open,34,1985-05-05
1,M,Artem Loginov,Артем Логинов,110.1,,,,,,195,-200,,195,,,,,,,195,125,B,Raw,No,Open,25,1994-05-07
2,M,Sergey Kuznetsov,Сергей Кузнецов,115.8,,,,,,160,-170,-170,160,,,,,,,160,125,B,Raw,No,Open,30,1988-08-18
3,M,Radik Tumarov,Радик Тумаров,121.5,,,,,,160,-170,-175,160,,,,,,,160,125,B,Raw,No,Open,39,1980-03-28
1,M,Aynur Gallyamov,Айнур Галлямов,72.8,,,,,,190,200,-205,200,,,,,,,200,75,B,Single-ply,No,Open,42,1976-05-24
1,M,Sergey Bochko,Сергей Бочко,73.7,,,,,,180,-190,-190,180,,,,,,,180,75,B,Multi-ply,No,Open,28,1990-08-24
DQ,M,Stepan Budin,Степан Будин,81,,,,,,-195,-195,-207.5,,,,,,,,,82.5,B,Multi-ply,No,Open,25,1994-05-15
1,F,Elvina Ramazanova,Эльвина Рамазанова,47.4,,,,,,,,,,,85,-90,90,90,,90,48,D,Raw,Yes,Juniors 20-23,20,1998-06-17
1,F,Gulchachak Agliullina,Гульчачак Аглиуллина,63.4,,,,,,,,,,,115,122.5,130,130,,130,67.5,D,Raw,Yes,Open,35,1983-08-14
1,M,Sergey Fedyaev,Сергей Федяев,81.9,,,,,,,,,,,185,190,195,195,,195,82.5,D,Raw,Yes,Open,24,1994-10-19
1,F,Venera Kuznetsova,Венера Кузнецова,58.9,,,,,,,,,,,100,-110,110,110,,110,60,D,Raw,No,Open,27,1991-12-22
1,F,Rozaliya Mingazetdinova,Розалия Мингазетдинова,66.8,,,,,,,,,,,130,140,150,150,,150,67.5,D,Raw,No,Masters 50-54,50,1969-02-28
1,M,Vladislav Kashkin,Владислав Кашкин,44.3,,,,,,,,,,,80,85,87.5,87.5,,87.5,52,D,Raw,No,Youth,12,2006-10-03
1,M,Vyacheslav Titov,Вячеслав Титов,89.5,,,,,,,,,,,200,-210,210,210,,210,90,D,Raw,No,Masters 40-44,44,1975-02-19
