Place,Name,CyrillicName,Event,Equipment,Sex,BirthDate,Tested,Division,WeightClassKg,BodyweightKg,Bench1Kg,Bench2Kg,Bench3Kg,Bench4Kg,Best3BenchKg,Deadlift1Kg,Deadlift2Kg,Deadlift3Kg,Deadlift4Kg,Best3DeadliftKg,TotalKg
1,Sofiya Pisklova,София Писклова,B,Raw,F,1993-03-25,Yes,Amateur Open,48,47.4,45,47.5,-55,,47.5,,,,,,47.5
1,Mariya Sklyar,Мария Скляр,B,Raw,F,1996-09-21,Yes,Amateur Juniors 20-23,56,53.9,47.5,50,-52.5,,50,,,,,,50
1,Mariya Kosenko,Мария Косенко,B,Raw,F,1987-06-06,Yes,Amateur Open,67.5,63.4,75,-77.5,80,,80,,,,,,80
1,Konstantin Borisov,Константин Борисов,B,Raw,M,1988-10-03,Yes,Amateur Open,60,57.6,-100,100,105,,105,,,,,,105
1,Daniil Chzhan,Даниил Чжан,B,Raw,M,2003-12-08,Yes,Amateur Teen 14-15,67.5,64.9,75,77.5,80,,80,,,,,,80
1,Mikhail Sharonov,Михаил Шаронов,B,Raw,M,1979-02-18,Yes,Amateur Masters 40-44,75,72.2,125,132.5,-135,,132.5,,,,,,132.5
1,Maksim Radukan,Максим Радукан,B,Raw,M,1994-06-06,Yes,Amateur Open,82.5,79.3,130,140,-147.5,,140,,,,,,140
1,Mikhail Aleksanrov,Михаил Алексанров,B,Raw,M,1977-04-27,Yes,Amateur Masters 40-44,82.5,80.5,95,105,-110,,105,,,,,,105
2,Sergey Klimenko,Сергей Клименко,B,Raw,M,1992-10-01,Yes,Amateur Open,90,88.8,150,155,-160,,155,,,,,,155
1,Dmitriy Tkachenko,Дмитрий Ткаченко,B,Raw,M,1981-04-09,Yes,Amateur Open,90,88.4,150,155,160,,160,,,,,,160
3,Eduard Sinchuk,Эдуард Синчук,B,Raw,M,1993-07-04,Yes,Amateur Open,90,89.7,110,-120,-125,,110,,,,,,110
1,Sergey Tseluyko,Сергей Целуйко,B,Raw,M,1976-09-28,Yes,Amateur Masters 40-44,90,87.3,155,160,165,,165,,,,,,165
1,Sergey Sokolov,Сергей Соколов,B,Raw,M,1973-04-28,Yes,Amateur Masters 45-49,100,99.3,145,155,165,,165,,,,,,165
1,Sergey Sokolov,Сергей Соколов,B,Raw,M,1973-04-28,Yes,Amateur Open,100,99.3,145,155,165,,165,,,,,,165
2,Maksim Petrenko,Максим Петренко,B,Raw,M,1981-03-28,Yes,Amateur Open,100,98.2,-125,125,135,,135,,,,,,135
1,Aleksandr Klyuchenko,Александр Ключенко,B,Raw,M,1986-07-08,Yes,Amateur Open,110,106.8,-107.5,107.5,-112.5,,107.5,,,,,,107.5
1,Aleksey Makarov,Алексей Макаров,B,Raw,M,1971-05-24,Yes,Amateur Masters 45-49,110,108.4,150,155,157.5,,157.5,,,,,,157.5
1,Aleksey Sarogly,Алексей Сароглы,B,Raw,M,1999-04-05,Yes,Amateur Juniors 20-23,110,102.8,-140,147.5,-150,,147.5,,,,,,147.5
1,Ruslan Ataev,Руслан Атаєв,B,Raw,M,1996-01-06,Yes,Amateur Juniors 20-23,125,118.5,165,175,180,185,180,,,,,,180
1,Irina Vatuleva,Ирина Ватулева,B,Raw,F,2006-07-27,No,Pro Teen 13,60,58.4,42.5,45,47.5,,47.5,,,,,,47.5
1,Artyom Novomlinets,Артём Новомлинец,B,Raw,M,2005-09-19,No,Pro Teen 14-15,52,51.9,45,50,-55,,50,,,,,,50
1,Anatoliy Gorbunov #1,Анатолий Горбунов,B,Raw,M,1941-09-07,No,Pro Masters 75-79,60,57.2,55,57.2,60,,60,,,,,,60
1,Eduard Shapetko,Эдуард Шапетько,B,Raw,M,1995-03-25,No,Pro Open,67.5,65.4,100,105,-110,,105,,,,,,105
1,Aleksandr Onishchenko,Александр Онищенко,B,Raw,M,1998-01-14,No,Pro Juniors 20-23,67.5,66.2,100,110,115,,115,,,,,,115
1,Vladislav Artyukhov,Владислав Артюхов,B,Raw,M,2003-05-11,No,Pro Teen 16-17,75,73.2,70,75,80,,80,,,,,,80
1,Kirill Sinitskiy,Кирилл Синицкий,B,Raw,M,2006-05-12,No,Pro Teen 13,75,70,-30,30,-35,,30,,,,,,30
1,Aleksandr Bezruk,Александр Безрук,B,Raw,M,1991-01-19,No,Pro Open,82.5,82.4,130,140,-150,,140,,,,,,140
1,Artyom Vinogradskiy,Артём Виноградский,B,Raw,M,1986-08-15,No,Pro Open,90,87.9,167.5,-172.5,172.5,,172.5,,,,,,172.5
DQ,Aleksey Zamorodskikh,Алексей Замородских,B,Raw,M,1981-03-10,No,Pro Open,90,89.9,-125,-130,,,,,,,,,
1,Dmitriy Nikulin,Дмитрий Никулин,B,Raw,M,1991-05-13,No,Pro Open,100,96.8,192.5,-210,-210,,192.5,,,,,,192.5
2,Roman Gayday,Роман Гайдай,B,Raw,M,1994-04-26,No,Pro Open,100,96.8,110,120,-130,,120,,,,,,120
1,Mikhail Likhach,Михаил Лихач,B,Raw,M,1989-04-20,No,Pro Open,110,109.7,240,250,255,,255,,,,,,255
2,Dmitriy Anufriev,Дмитрий Ануфриев,B,Raw,M,1985-01-02,No,Pro Open,110,104.3,200,205,-210,,205,,,,,,205
2,Ivan Podrez,Іван Подрез,B,Raw,M,1991-06-06,No,Pro Open,125,124,210,220,-230,,220,,,,,,220
1,Nikita Khaytovich,Никита Хайтович,B,Raw,M,1999-04-05,No,Pro Open,125,124.1,220,230,237.5,242.5,237.5,,,,,,237.5
1,Anna Krylova,Анна Крылова,D,Raw,F,1995-11-20,Yes,Amateur Juniors 20-23,52,51.2,,,,,,-85,85,92.5,,92.5,92.5
1,Tatyana Dubachinskaya,Татьяна Дубачинская,D,Raw,F,1975-04-15,Yes,Amateur Masters 40-44,60,57.7,,,,,,115,120,125,,125,125
1,Kseniya Korchevskaya,Ксения Корчевская,D,Raw,F,1989-08-21,Yes,Amateur Open,75,73.2,,,,,,120,132.5,145,,145,145
2,Arkhip Sirotkin,Архип Сироткин,D,Raw,M,2011-02-11,Yes,Amateur Teen 13,48,46.1,,,,,,-45,45,55,,55,55
1,Ivan Styuflyaev,Иван Стюфляев,D,Raw,M,2006-09-21,Yes,Amateur Teen 13,44,37.1,,,,,,55,60,65,,65,65
1,Yuriy Talakh,Юрий Талах,D,Raw,M,1987-04-18,Yes,Amateur Open,60,59.1,,,,,,135,142.5,145,,145,145
1,Idris Khaybullaev,Идрис Хайбуллаев,D,Raw,M,1993-08-23,Yes,Amateur Open,67.5,66.2,,,,,,225,240,252.5,255,252.5,252.5
2,Andrey Chepurnov,Андрей Чепурнов,D,Raw,M,1991-07-11,Yes,Amateur Open,67.5,64.5,,,,,,167.5,180,-192.5,,180,180
3,Ilya Sinetskiy,Илья Синецкий,D,Raw,M,1991-02-25,Yes,Amateur Open,67.5,66.5,,,,,,155,167.5,-180,,167.5,167.5
1,Vladislav Khabarov,Владислав Хабаров,D,Raw,M,1998-07-30,Yes,Amateur Juniors 20-23,82.5,81.6,,,,,,200,205,-217.5,,205,205
3,Maksim Mergasov,Максим Мергасов,D,Raw,M,1992-03-19,Yes,Amateur Open,82.5,81.2,,,,,,-180,180,187.5,,187.5,187.5
2,Daniil Cherkasskiy,Даниил Черкасский,D,Raw,M,1992-04-02,Yes,Amateur Open,82.5,80.3,,,,,,-185,200,-217.5,,200,200
1,Sergey Onufriev,Сергей Онуфриев,D,Raw,M,1994-08-12,Yes,Amateur Open,82.5,80.7,,,,,,240,247.5,255,262.5,255,255
1,Vladimir Khabarov,Владимир Хабаров,D,Raw,M,1980-10-26,Yes,Amateur Open,90,88.1,,,,,,205,225,-235,,225,225
1,Nikita Saltykov,Никита Салтыков,D,Raw,M,1996-07-07,Yes,Amateur Juniors 20-23,110,102.9,,,,,,200,210,220,,220,220
1,Rostislav Khalyavka,Ростислав Халявка,D,Raw,M,1984-10-31,Yes,Amateur Open,110,103.2,,,,,,175,190,195,,195,195
1,Alina Kostenyuk,Алина Костенюк,D,Raw,F,1999-01-30,No,Pro Juniors 20-23,56,55.5,,,,,,-85,-85,90,,90,90
1,Aleksandra Korzhel,Александра Коржель,D,Raw,F,1986-02-09,No,Pro Open,60,56.5,,,,,,75,85,90,,90,90
1,Eva Marudenko,Ева Маруденко,D,Raw,F,1995-04-14,No,Pro Open,82.5,82.4,,,,,,100,110,120,,120,120
1,Ivan Lemeshko,Иван Лемешко,D,Raw,M,2006-10-16,No,Pro Teen 13,48,47.3,,,,,,65,80,85,,85,85
1,Ivan Vusinskiy,Иван Вусинский,D,Raw,M,2007-04-12,No,Pro Teen 13,60,57.3,,,,,,65,80,85,,85,85
1,Aleksandr Bezruk,Александр Безрук,D,Raw,M,1991-01-19,No,Pro Open,82.5,82.4,,,,,,170,180,,,180,180
1,Andrey Zhidkov,Андрей Жидков,D,Raw,M,1961-07-24,No,Pro Masters 55-59,82.5,80,,,,,,115,125,135,,135,135
1,Sergey Banasinskiy,Сергей Банасинский,D,Raw,M,1947-02-16,No,Pro Masters 70-74,82.5,79.7,,,,,,125,135,-140,,135,135
1,Aleksey Zamorodskikh,Алексей Замородских,D,Raw,M,1981-03-10,No,Pro Open,90,89.9,,,,,,-195,200,210,,210,210
2,Aleksandr Shvalyuk,Александр Швалюк,D,Raw,M,1993-05-03,No,Pro Open,100,93.7,,,,,,170,180,190,,190,190
1,Eduard Annenkov,Эдуард Анненков,D,Raw,M,1988-05-03,No,Pro Open,100,96.7,,,,,,290,305,315,,315,315
1,Valeriy Karpov,Валерій Карпов,D,Raw,M,1981-12-25,No,Pro Open,110,108.7,,,,,,205,215,225,,225,225
2,Nikolay Komarov,Николай Комаров,D,Raw,M,1985-04-27,No,Pro Open,110,102.6,,,,,,200,210,220,,220,220
DQ,Dmitriy Klyubin,Дмитрий Клюбин,B,Unlimited,M,1980-04-20,Yes,Amateur Open,82.5,79.8,-190,-202.5,-202.5,,,,,,,,
1,Sergey Klimenko,Сергей Клименко,B,Unlimited,M,1992-10-01,Yes,Amateur Open,90,88.8,-200,205,-217.5,,205,,,,,,205
1,Ilya Alekseev,Илья Алексеев,B,Unlimited,M,1983-11-30,Yes,Amateur Open,90,84,180,190,205,,205,,,,,,205
DQ,Aleksey Chadaev,Алексей Чадаев,B,Unlimited,M,1989-02-19,Yes,Amateur Open,100,94,-170,-170,-170,,,,,,,,
1,Igor Malashinskiy,Игорь Малашинский,B,Unlimited,M,1973-05-27,No,Pro Masters 45-49,82.5,81.3,210,-220,220,-230,220,,,,,,220
1,Anton Barskov,Антон Барсков,B,Multi-ply,M,1984-05-17,No,Pro Open,140+,150,370,-400,-400,,370,,,,,,370
1,Denis Stasyuk,Денис Стасюк,B,Unlimited,M,1993-05-30,No,Pro Open,82.5,82.5,150,160,-165,,160,,,,,,160
DQ,Aleksey Chadaev,Алексей Чадаев,B,Unlimited,M,1989-02-19,No,Pro Open,100,94,-170,-170,-170,,,,,,,,
1,Yuliya Kalinchenko,Юлія Калінченко,B,Unlimited,F,1977-11-20,No,Pro Masters 40-44,82.5,80.7,147.5,155,160,167.5,160,,,,,,160
1,Andrey Yakushin,Андрей Якушин,B,Unlimited,M,1973-12-19,No,Pro Masters 45-49,90,87.7,310,325,330,335,330,,,,,,330
1,Artyom Stasyuk,Артём Стасюк,B,Unlimited,M,1993-05-30,No,Pro Open,100,100,360,-380,-400,,360,,,,,,360
1,Mikhail Likhach,Михаил Лихач,B,Unlimited,M,1989-04-20,No,Pro Open,110,109.7,-400,420,430,,430,,,,,,430
