Place,Event,Equipment,Sex,Name,Country,Age,BodyweightKg,WeightClassKg,Division,Squat1Kg,Squat2Kg,Squat3Kg,Squat4Kg,Best3SquatKg,Bench1Kg,Bench2Kg,Bench3Kg,Bench4Kg,Best3BenchKg,Deadlift1Kg,Deadlift2Kg,Deadlift3Kg,Deadlift4Kg,Best3DeadliftKg,TotalKg
1,B,Multi-ply,F,Kristína Fečová,Slovakia,21,64.5,67.5,Juniors,,,,,,100,110,-120,,110,,,,,,110
1,B,Multi-ply,F,Andrea Pauli,Germany,39,67.1,67.5,Submasters,,,,,,90,100,-110,,100,,,,,,100
1,B,Multi-ply,M,Pavel Civek,Czechia,23,88.4,90,Juniors,,,,,,200,-220,220,,220,,,,,,220
1,B,Multi-ply,M,Metous Tynus,Czechia,18,87.6,90,T 18-19,,,,,,160,-170,-180,,160,,,,,,160
1,B,Multi-ply,M,David Benca,Slovakia,18,94.3,100,T 18-19,,,,,,170,-180,-180,,170,,,,,,170
1,B,Multi-ply,M,Igors Marudins,Latvia,43,81.6,82.5,M 40-44,,,,,,190,-201,-201,,190,,,,,,190
1,B,Multi-ply,M,Mihails Rekaikins,Latvia,42,97.3,100,M 40-44,,,,,,210,220,-225,,220,,,,,,220
1,B,Multi-ply,M,Andrej Smutný,Slovakia,41,109.6,110,M 40-44,,,,,,-275,275,285,-292.5,285,,,,,,285
1,B,Multi-ply,M,Michael Pischinger,Austria,41,118.1,125,M 40-44,,,,,,260,-270,-270,,260,,,,,,260
2,B,Multi-ply,M,Ronny Schmidt,Germany,43,119.3,125,M 40-44,,,,,,-210,-210,210,,210,,,,,,210
1,B,Multi-ply,M,Daniel Cieplak,Poland,45,88.4,90,M 45-49,,,,,,205,212.5,-230,,212.5,,,,,,212.5
2,B,Multi-ply,M,Mario Auer,Austria,46,83.9,90,M 45-49,,,,,,150,170,-190,,170,,,,,,170
1,B,Multi-ply,M,Helmut Kraus,Germany,48,97.7,100,M 45-49,,,,,,-215,-215,215,,215,,,,,,215
1,B,Multi-ply,M,Petr Poláček,Czechia,47,109.8,110,M 45-49,,,,,,220,-235,235,,235,,,,,,235
1,B,Multi-ply,M,Kai-Uwe Göllnitz,Germany,45,129.8,140,M 45-49,,,,,,290,297.5,305,,305,,,,,,305
1,B,Multi-ply,M,Steffen Reisbach,Germany,51,87.5,90,M 50-54,,,,,,170,175,,,175,,,,,,175
1,B,Multi-ply,M,Krzysztof Bożyczko-Jałocha,Poland,53,110,110,M 50-54,,,,,,230,-240,-240,,230,,,,,,230
2,B,Multi-ply,M,Franz Gansinger,Austria,51,109.7,110,M 50-54,,,,,,170,180,185,,185,,,,,,185
1,B,Multi-ply,M,Adam Ubertowski,Poland,52,122.4,125,M 50-54,,,,,,180,-200,-200,,180,,,,,,180
DQ,B,Multi-ply,M,Boris Švirec,Slovakia,55,114.5,125,M 55-59,,,,,,-195,-195,-195,,,,,,,,
DQ,B,Multi-ply,M,Wojciech Kramer,Poland,57,119.6,125,M 55-59,,,,,,-215,-220,-220,,,,,,,,
1,B,Multi-ply,M,Mieczysłąw Maczka,Germany,64,82.5,82.5,M 60-64,,,,,,100,107.5,110,,110,,,,,,110
1,B,Multi-ply,M,Ulfert Rinas,Germany,60,100,100,M 60-64,,,,,,-205,205,215,223,215,,,,,,215
1,B,Multi-ply,M,Gerd Müller,Germany,67,80.1,82.5,M 65-69,,,,,,110,120,125,,125,,,,,,125
1,B,Multi-ply,M,Ulrich Vetter,Germany,67,99.2,100,M 65-69,,,,,,170,176,-183,-183,176,,,,,,176
1,B,Multi-ply,M,Wojciech Grabowski,Poland,68,106.5,110,M 65-69,,,,,,205,-215,215,,215,,,,,,215
1,B,Multi-ply,M,Erwin Trichlin,Austria,80,64.1,67.5,M 80+,,,,,,90,-95,-95,,90,,,,,,90
DQ,B,Multi-ply,M,Steffen Blumenthal,Germany,35,89.3,90,Submasters,,,,,,-245,-245,-245,,,,,,,,
1,B,Multi-ply,M,Petr Kohout,Czechia,35,120.2,125,Submasters,,,,,,240,255,-265,,255,,,,,,255
DQ,B,Multi-ply,M,Robin von Zweydorff,Germany,39,110.2,125,Submasters,,,,,,-310,-310,,,,,,,,,
1,B,Multi-ply,M,Ayrat Sufiyanov,Russia,35,65.9,67.5,Open,,,,,,190,200,202.5,-205.5,202.5,,,,,,202.5
1,B,Multi-ply,M,Zdeněk Holeček,Czechia,31,79.3,82.5,Open,,,,,,-200,200,-210,,200,,,,,,200
2,B,Multi-ply,M,Paweł Krzemiński,Poland,27,79.7,82.5,Open,,,,,,120,-140,-150,,120,,,,,,120
1,B,Multi-ply,M,Zdeněk Slovák,Czechia,33,88.6,90,Open,,,,,,200,230,-240,,230,,,,,,230
1,B,Multi-ply,M,Jozef Čambál,Slovakia,31,97.3,100,Open,,,,,,230,240,-242.5,,240,,,,,,240
2,B,Multi-ply,M,Jan Satrapa,Czechia,32,97.1,100,Open,,,,,,220,-230,-232.5,,220,,,,,,220
1,B,Multi-ply,M,Tomasz Obcowski,Poland,40,106.9,110,Open,,,,,,200,-310,-320,,200,,,,,,200
1,B,Multi-ply,M,André Schober,Germany,34,150.4,140+,Open,,,,,,170,180,190,,190,,,,,,190
1,B,Raw,F,Katerina Vlkova,Czechia,16,57.6,60,T 16-17,,,,,,35,-37.5,-37.5,,35,,,,,,35
1,B,Raw,F,Mariia Mostovaia,Russia,33,52.2,56,Open,,,,,,62.5,-67.5,-67.5,,62.5,,,,,,62.5
1,B,Raw,F,Lolita Zankl,Germany,60,65.2,67.5,Open,,,,,,100,110,-115,,110,,,,,,110
1,B,Raw,F,Anna Paluszik,Poland,28,71,75,Open,,,,,,70,75,-80,,75,,,,,,75
1,B,Raw,F,Nicole Kegeler,Germany,37,63.3,67.5,Submasters,,,,,,93,95.5,100.5,-101.5,100.5,,,,,,100.5
2,B,Raw,F,Andrea Siebert,Germany,37,66,67.5,Submasters,,,,,,85,95,100,101,100,,,,,,100
1,B,Raw,F,Katrin Ribb,Germany,49,76.4,82.5,M 45-49,,,,,,95,97.5,101,103,101,,,,,,101
1,B,Raw,F,Brigitte Maczka,Germany,57,66.8,67.5,M 55-59,,,,,,30,35,-40,,35,,,,,,35
1,B,Raw,F,Libuše Leiblová,Czechia,58,86.3,90,M 55-59,,,,,,120,130,-135.5,135.5,130,,,,,,130
1,B,Raw,M,Nico Auer,Austria,17,64.8,67.5,T 16-17,,,,,,55,65,-70,,65,,,,,,65
1,B,Raw,M,Maksim Akhmetov,Russia,16,71.6,75,T 16-17,,,,,,80,-90,-90,,80,,,,,,80
1,B,Raw,M,Adam Šourek,Czechia,16,88.7,90,T 16-17,,,,,,132.5,141,-148,-148,141,,,,,,141
1,B,Raw,M,Alex Maryška,Czechia,17,106.7,110,T 16-17,,,,,,160,165,-170,-170,165,,,,,,165
1,B,Raw,M,Josef Švehla,Czechia,18,97.6,100,T 18-19,,,,,,160,165,-170,,165,,,,,,165
2,B,Raw,M,Max Glok,Germany,18,93,100,T 18-19,,,,,,107.5,115,120,,120,,,,,,120
1,B,Raw,M,Nils-Mario Biermordt,Germany,19,109.2,110,T 18-19,,,,,,190.5,195,200,-210.5,200,,,,,,200
1,B,Raw,M,Davis Wehnert,Germany,22,67.1,67.5,Juniors,,,,,,128,-133,-133,,128,,,,,,128
1,B,Raw,M,Nikolas Neuman,Czechia,22,106.7,110,Juniors,,,,,,172.5,180,-185,,180,,,,,,180
1,B,Raw,M,Stanislav Močkor,Slovakia,23,111.7,125,Juniors,,,,,,205,210,-215,,210,,,,,,210
1,B,Raw,M,Ron Krieg,Germany,21,144.5,140+,Juniors,,,,,,180,190,195,,195,,,,,,195
1,B,Raw,M,Bartosz Stodek,Poland,41,67,67.5,M 40-44,,,,,,120,130,-132.5,,130,,,,,,130
1,B,Raw,M,Alexander Benik,Germany,43,87.5,90,M 40-44,,,,,,165,172.5,-175,,172.5,,,,,,172.5
1,B,Raw,M,Petr Maceášik,Czechia,44,98.3,100,M 40-44,,,,,,190,200,-210,,200,,,,,,200
2,B,Raw,M,Daniel Kaufmann,Germany,43,98.4,100,M 40-44,,,,,,180,187.5,-195,,187.5,,,,,,187.5
3,B,Raw,M,Marcel Baláž,Slovakia,41,99.7,100,M 40-44,,,,,,170,175,180,,180,,,,,,180
1,B,Raw,M,Lars Teufel,Germany,42,104.3,110,M 40-44,,,,,,185,200,-212.5,,200,,,,,,200
1,B,Raw,M,Michael Pischinger,Austria,41,117.1,125,M 40-44,,,,,,200,207.5,,,207.5,,,,,,207.5
2,B,Raw,M,Franz-Xaver Spindler,Germany,42,110.1,125,M 40-44,,,,,,170,180,-185,,180,,,,,,180
3,B,Raw,M,Ronny Schmidt,Germany,43,119.1,125,M 40-44,,,,,,160,170,-175,,170,,,,,,170
DQ,B,Raw,M,Rudolf Hlavsa,Czechia,44,122.6,125,M 40-44,,,,,,-190,-190,-190,,,,,,,,
1,B,Raw,M,Krzysztof Halczyk,Poland,44,136.1,140,M 40-44,,,,,,175,180,-182.5,,180,,,,,,180
2,B,Raw,M,Göksel Böttcher,Germany,42,125.5,140,M 40-44,,,,,,-160,-160,160,,160,,,,,,160
1,B,Raw,M,Norbert Hajas,Hungary,47,73.7,75,M 45-49,,,,,,150,162.5,-168.5,,162.5,,,,,,162.5
2,B,Raw,M,Michael Schmidt,Germany,49,73.2,75,M 45-49,,,,,,130,135,-140,,135,,,,,,135
3,B,Raw,M,Zbigniew Gulajski,Poland,48,67.8,75,M 45-49,,,,,,120,130,-135,,130,,,,,,130
1,B,Raw,M,Lajos Cseh,Hungary,45,82.4,82.5,M 45-49,,,,,,167.5,175,-181,,175,,,,,,175
1,B,Raw,M,Mario Auer,Austria,46,83.6,90,M 45-49,,,,,,155,165,170,,170,,,,,,170
2,B,Raw,M,Tám Nguyen #1,Slovakia,48,83.1,90,M 45-49,,,,,,155,165,-170,,165,,,,,,165
1,B,Raw,M,Rico Martinez,Germany,49,94.4,100,M 45-49,,,,,,180,-190,-190,,180,,,,,,180
1,B,Raw,M,Hagen Ribb,Germany,49,108.1,110,M 45-49,,,,,,150,-162.5,-162.5,,150,,,,,,150
1,B,Raw,M,Oleg Palamarchuk,Ukraine,46,111.8,125,M 45-49,,,,,,210,215,-221,,215,,,,,,215
DQ,B,Raw,M,Zbigniew Strzelecki,Poland,45,121.4,125,M 45-49,,,,,,-221,-221,-221,,,,,,,,
1,B,Raw,M,Grzegorz Kantor,Poland,47,145.8,140+,M 45-49,,,,,,185,-192.5,-192.5,,185,,,,,,185
2,B,Raw,M,Zoltán Holczmann,Hungary,48,148.6,140+,M 45-49,,,,,,-170,-180,180,,180,,,,,,180
1,B,Raw,M,Mirko Jaedtke-Schulze,Germany,52,59.1,60,M 50-54,,,,,,90,96,-98,,96,,,,,,96
1,B,Raw,M,Piotr Jurkiewicz,Poland,53,74.3,75,M 50-54,,,,,,115,120,-125,,120,,,,,,120
1,B,Raw,M,Waleri Trubin,Russia,51,83.2,90,M 50-54,,,,,,120,130,135,,135,,,,,,135
1,B,Raw,M,Thorsten Ritter,Germany,54,95.2,100,M 50-54,,,,,,135,145,155,,155,,,,,,155
1,B,Raw,M,Joachim Krebs,Austria,50,107.2,110,M 50-54,,,,,,160,170,175,,175,,,,,,175
2,B,Raw,M,Attila Heizer,Hungary,53,104.6,110,M 50-54,,,,,,155,-162.5,-162.5,,155,,,,,,155
3,B,Raw,M,Franz Gansinger,Austria,51,109.8,110,M 50-54,,,,,,145,-165,-165,,145,,,,,,145
1,B,Raw,M,Krzysztof Bożyczko-Jałocha,Poland,53,110.2,125,M 50-54,,,,,,205,210,-215,,210,,,,,,210
2,B,Raw,M,Ljubiša Šaula,Slovenia,50,122,125,M 50-54,,,,,,190,-206,-211,,190,,,,,,190
3,B,Raw,M,Adam Ubertowski,Poland,52,123.6,125,M 50-54,,,,,,150,160,167.5,,167.5,,,,,,167.5
4,B,Raw,M,Günther Hold,Austria,52,123.2,125,M 50-54,,,,,,165,-175,-175,,165,,,,,,165
1,B,Raw,M,Grzegorz Peksa,Poland,50,146.9,140+,M 50-54,,,,,,200,-216,,,200,,,,,,200
1,B,Raw,M,Bernhard Schmid,Germany,55,73.6,75,M 55-59,,,,,,100,-105,-105,,100,,,,,,100
1,B,Raw,M,Milan Suk,Czechia,56,81.6,82.5,M 55-59,,,,,,150,157.5,161,-163,161,,,,,,161
2,B,Raw,M,Reiner Krieger,Germany,59,77.2,82.5,M 55-59,,,,,,100,105,-110,,105,,,,,,105
1,B,Raw,M,Jürgen Dziergwa,Germany,60,71.9,75,M 60-64,,,,,,105,112.5,115,,115,,,,,,115
1,B,Raw,M,Karel Schoř,Czechia,63,80.9,82.5,M 60-64,,,,,,125,135,-140,,135,,,,,,135
2,B,Raw,M,Mieczysłąw Maczka,Germany,64,82.2,82.5,M 60-64,,,,,,100,107.5,,,107.5,,,,,,107.5
1,B,Raw,M,Frank Kutzsch,Germany,63,89.8,90,M 60-64,,,,,,147.5,155,-160,,155,,,,,,155
1,B,Raw,M,István Eszenyi,Hungary,62,108.9,110,M 60-64,,,,,,155,160,162.5,,162.5,,,,,,162.5
2,B,Raw,M,Jozef Belica,Slovakia,62,105,110,M 60-64,,,,,,145,155,-163,-163,155,,,,,,155
1,B,Raw,M,Joachim Flett,Germany,61,110.2,125,M 60-64,,,,,,130,140,145,,145,,,,,,145
1,B,Raw,M,Joszef Sztanke,Hungary,65,93.6,100,M 65-69,,,,,,150,-160.5,-160.5,,150,,,,,,150
1,B,Raw,M,Jan Łuka,Poland,70,81,82.5,M 70-74,,,,,,90,100,-105,,100,,,,,,100
1,B,Raw,M,Albert Olomek,Germany,72,89.2,90,M 70-74,,,,,,120,130,-135,,130,,,,,,130
1,B,Raw,M,Erwin Trichlin,Austria,80,62.7,67.5,M 80+,,,,,,80,85,-87.5,,85,,,,,,85
1,B,Raw,M,Michael Mikolaj,Germany,28,46.4,56,Open,,,,,,80,-90,-90,,80,,,,,,80
1,B,Raw,M,Ján Šebo,Slovakia,27,73.2,75,Open,,,,,,105,110,115,,115,,,,,,115
2,B,Raw,M,Karen Goroyan,Armenia,33,73.4,75,Open,,,,,,100,110,-117.5,,110,,,,,,110
1,B,Raw,M,Marcin Dulko,Poland,26,81.4,82.5,Open,,,,,,180,192.5,-200,,192.5,,,,,,192.5
2,B,Raw,M,Zdeněk Holeček,Czechia,31,78.9,82.5,Open,,,,,,170,180,-185,,180,,,,,,180
3,B,Raw,M,Roman Šulc,Slovakia,29,78.3,82.5,Open,,,,,,130,140,-145,,140,,,,,,140
1,B,Raw,M,Mariusz Matejko,Poland,30,89.3,90,Open,,,,,,155,170,-180,,170,,,,,,170
2,B,Raw,M,Tim Kassner,Germany,29,88.4,90,Open,,,,,,157.5,162.5,-165,,162.5,,,,,,162.5
1,B,Raw,M,Jan Habart,Germany,42,99.8,100,Open,,,,,,220,233,238,,238,,,,,,238
2,B,Raw,M,Attila Baló,Hungary,27,97.7,100,Open,,,,,,202.5,207.5,212.5,,212.5,,,,,,212.5
3,B,Raw,M,Daniel Jaburek,Czechia,27,96,100,Open,,,,,,145,155,-160,,155,,,,,,155
1,B,Raw,M,Ákos Oláh,Hungary,30,105.1,110,Open,,,,,,217.5,222.5,-232.5,,222.5,,,,,,222.5
2,B,Raw,M,Marijo Rukavina,Croatia,35,103.8,110,Open,,,,,,210,220,-230,,220,,,,,,220
3,B,Raw,M,Dustin Unglaub,Germany,29,106.9,110,Open,,,,,,175,185,190,,190,,,,,,190
4,B,Raw,M,Tobias Blankenhorn,Germany,30,107.6,110,Open,,,,,,150,160,-165,,160,,,,,,160
1,B,Raw,M,Iaroslav Vdovychenko,Ukraine,34,115.8,125,Open,,,,,,242.5,-247.5,247.5,,247.5,,,,,,247.5
3,B,Raw,M,Christian Raidl,Austria,37,121.9,125,Open,,,,,,225,237.5,242.5,,242.5,,,,,,242.5
2,B,Raw,M,Adrian Grabski,Poland,36,114.7,125,Open,,,,,,220,232.5,242.5,,242.5,,,,,,242.5
4,B,Raw,M,Johannes Mauracher,Austria,29,115.8,125,Open,,,,,,240,-250,-250,,240,,,,,,240
5,B,Raw,M,Robert Dudek,Poland,32,116.4,125,Open,,,,,,207.5,215,220,,220,,,,,,220
1,B,Raw,M,Christoph Rieser,Austria,34,132.8,140,Open,,,,,,240,-260,,,240,,,,,,240
1,B,Raw,M,Volodymyr Galyga,Ukraine,35,94,100,Submasters,,,,,,200,-210,-215.5,,200,,,,,,200
1,B,Raw,M,Josef Still,Germany,37,101.9,110,Submasters,,,,,,165,170,-172.5,,170,,,,,,170
1,D,Multi-ply,F,Michaela Becker,Czechia,33,59.7,60,Open,,,,,,,,,,,90,102.5,107.5,108.5,107.5,107.5
DQ,D,Multi-ply,F,Heide Baumann,Germany,42,58.9,60,M 40-44,,,,,,,,,,,-140,-140,,,,
1,D,Multi-ply,F,Brigitte Maczka,Germany,57,67.5,67.5,M 55-59,,,,,,,,,,,80,90,97.5,,97.5,97.5
1,D,Multi-ply,M,Maximilian Tuma,Czechia,16,71.6,75,T 16-17,,,,,,,,,,,-140,160,-175,180,160,160
1,D,Multi-ply,M,Huba Hablicsek,Hungary,21,59.3,60,Juniors,,,,,,,,,,,155,165,172.5,-180,172.5,172.5
1,D,Multi-ply,M,Marek Charbuliak,Slovakia,21,82.4,82.5,Juniors,,,,,,,,,,,-265,265,-292.5,,265,265
1,D,Multi-ply,M,Josef Capouch,Czechia,22,106.7,110,Juniors,,,,,,,,,,,300,320,-330,,320,320
1,D,Multi-ply,M,László Eck,Hungary,41,94.4,100,M 40-44,,,,,,,,,,,230,250,-267.5,,250,250
1,D,Multi-ply,M,Ľubomír Trstenský,Slovakia,44,105.3,110,M 40-44,,,,,,,,,,,210,230,-250,,230,230
1,D,Multi-ply,M,Norbert Hablicsek,Hungary,45,109.6,110,M 45-49,,,,,,,,,,,280,-302.5,-302.5,,280,280
1,D,Multi-ply,M,Bernd Backhaus,Germany,54,107.6,110,M 50-54,,,,,,,,,,,240,265,-285.5,,265,265
1,D,Multi-ply,M,Mieczysłąw Maczka,Germany,64,81.1,82.5,M 60-64,,,,,,,,,,,120,142.5,150,,150,150
1,D,Multi-ply,M,Burkhard Steffen,Germany,69,70.7,75,M 65-69,,,,,,,,,,,120,130,-140,,130,130
1,D,Multi-ply,M,Lothar Schulze,Germany,69,84.1,90,M 65-69,,,,,,,,,,,150,160,170,,170,170
1,D,Multi-ply,M,Heinz Mihoubi,Germany,71,98.8,100,M 70-74,,,,,,,,,,,185,-195,-200,,185,185
1,D,Multi-ply,M,Gerd Meyerhofer,Germany,81,76.3,82.5,M 80+,,,,,,,,,,,85,90,102.5,,102.5,102.5
1,D,Multi-ply,M,Gorden Karkuschke,Germany,27,66.9,67.5,Open,,,,,,,,,,,165.5,167.5,172.5,-180,172.5,172.5
1,D,Multi-ply,M,David Hlavac,Czechia,28,87.1,90,Open,,,,,,,,,,,230,252.5,260,,260,260
2,D,Multi-ply,M,Edward Rożnowski,Poland,68,88,90,Open,,,,,,,,,,,175,205,232.5,,232.5,232.5
1,D,Multi-ply,M,Pavel Krušina,Czechia,28,92.6,100,Open,,,,,,,,,,,250,270,-277.5,,270,270
2,D,Multi-ply,M,László Eck,Hungary,41,94.3,100,Open,,,,,,,,,,,225,240,,,240,240
1,D,Multi-ply,M,Tobias Blankenhorn,Germany,30,108,110,Open,,,,,,,,,,,250,260,280,,280,280
1,D,Multi-ply,M,Tomasz Miloch,Poland,35,80.1,82.5,Submasters,,,,,,,,,,,250,270,-280.5,-280.5,270,270
1,D,Multi-ply,M,Ján Šiska,Slovakia,39,123.4,125,Submasters,,,,,,,,,,,250,-270,,,250,250
1,D,Multi-ply,M,Martin Malínek,Czechia,39,133.2,140,Submasters,,,,,,,,,,,-340,340,-355,,340,340
1,D,Raw,F,Lolita Zankl,Germany,59,65.5,67.5,Open,,,,,,,,,,,165,175,-183,-183,175,175
1,D,Raw,F,Ulrike Ertl,Germany,60,79.3,82.5,Open,,,,,,,,,,,190,200,-205,,200,200
1,D,Raw,F,Elvira Gerland,Germany,48,65.1,67.5,M 45-49,,,,,,,,,,,80,90,100,,100,100
1,D,Raw,F,Katrin Ribb,Germany,49,77.1,82.5,M 45-49,,,,,,,,,,,135,145,150,155,150,150
1,D,Raw,F,Brigitte Maczka,Germany,57,67.7,75,M 55-59,,,,,,,,,,,80,90,92.5,,92.5,92.5
1,D,Raw,F,Krystyna Puzio,Poland,54,99.9,90+,M 50-54,,,,,,,,,,,130,140,155,,155,155
1,D,Raw,F,Lolita Zankl,Germany,60,65.9,67.5,M 60-64,,,,,,,,,,,160,170,180,-185,180,180
1,D,Raw,M,Luca Schöning,Germany,16,70.8,75,T 16-17,,,,,,,,,,,160,175,-182.5,,175,175
1,D,Raw,M,Adrián Untermayer,Slovakia,19,81.7,82.5,T 18-19,,,,,,,,,,,210,220,233,-238,233,233
1,D,Raw,M,Helmut Silberbauer Jr,Austria,22,89.8,90,Juniors,,,,,,,,,,,205,222.5,-227.5,,222.5,222.5
1,D,Raw,F,Hana Palacká,Czechia,40,51.1,52,M 40-44,,,,,,,,,,,70,85,-95,-95,85,85
1,D,Raw,M,László Eck,Hungary,41,94.3,100,M 40-44,,,,,,,,,,,200,210,,,210,210
1,D,Raw,M,Franz-Xaver Spindler,Germany,42,111.1,125,M 40-44,,,,,,,,,,,-250,250,-260,,250,250
1,D,Raw,M,Dave Rade,Switzerland,49,91.1,100,M 45-49,,,,,,,,,,,260,280,-300,,280,280
1,D,Raw,M,Norbert Hablicsek,Hungary,45,109.1,110,M 45-49,,,,,,,,,,,230,250,260,,260,260
2,D,Raw,M,Hagen Ribb,Germany,49,108.2,110,M 45-49,,,,,,,,,,,160,180,-190,,180,180
1,D,Raw,M,René Falk,Germany,48,115.3,125,M 45-49,,,,,,,,,,,280,-305,,,280,280
1,D,Raw,M,Björn Tesmer,Germany,54,74.7,75,M 50-54,,,,,,,,,,,160,-175,175,-183,175,175
1,D,Raw,M,Semir Jassim,Germany,50,96.8,100,M 50-54,,,,,,,,,,,200,220,-225,,220,220
1,D,Raw,M,Gagik Tonoyan,Armenia,53,109.7,110,M 50-54,,,,,,,,,,,260,277.5,282.5,,282.5,282.5
2,D,Raw,M,Bernd Backhaus,Germany,54,107.4,110,M 50-54,,,,,,,,,,,260,-275.5,277.5,,277.5,277.5
1,D,Raw,M,Michael Zitzelsberger,Germany,52,137.4,140,M 50-54,,,,,,,,,,,300,-310,,,300,300
1,D,Raw,M,Tibor Gejdoš,Slovakia,55,104.6,110,M 55-59,,,,,,,,,,,220,-245,,,220,220
1,D,Raw,M,Robert Baumann,Germany,56,122,125,M 55-59,,,,,,,,,,,265,275,-280,,275,275
1,D,Raw,M,Karel Schoř,Czechia,63,82.5,82.5,M 60-64,,,,,,,,,,,-190,-190,200,-210,200,200
2,D,Raw,M,Mieczysłąw Maczka,Germany,64,82.4,82.5,M 60-64,,,,,,,,,,,120,142.5,,,142.5,142.5
1,D,Raw,M,Frank Kutzsch,Germany,63,89,90,M 60-64,,,,,,,,,,,220,232.5,-240,,232.5,232.5
1,D,Raw,M,Koper Zbigniew,Poland,65,74.2,75,M 65-69,,,,,,,,,,,130,150,-164,,150,150
1,D,Raw,M,Gerd Müller,Germany,67,81.6,82.5,M 65-69,,,,,,,,,,,130,140,150,,150,150
2,D,Raw,M,Hans Malchau,Germany,67,75.5,82.5,M 65-69,,,,,,,,,,,125,130,-135,,130,130
1,D,Raw,M,Ulrich Mielich,Germany,79,75.2,82.5,M 75-79,,,,,,,,,,,90,100,110,,110,110
1,D,Raw,M,Gerd Meyerhofer,Germany,81,76.7,82.5,M 80+,,,,,,,,,,,85,90,100,,100,100
1,D,Raw,M,Norbert Maniak,Austria,34,56,56,Open,,,,,,,,,,,145,-158,158,,158,158
1,D,Raw,M,Ján Šebo,Slovakia,27,72.2,75,Open,,,,,,,,,,,190,200,207.5,,207.5,207.5
2,D,Raw,M,Jan Všetička,Czechia,26,68.8,75,Open,,,,,,,,,,,185,202.5,-205,,202.5,202.5
1,D,Raw,M,Marko Scholtholt,Germany,25,78.3,82.5,Open,,,,,,,,,,,165,182.5,190,,190,190
1,D,Raw,M,Lukáš Kolerus,Czechia,33,88.6,90,Open,,,,,,,,,,,-270,270,285,,285,285
2,D,Raw,M,Tim Kassner,Germany,29,87.3,90,Open,,,,,,,,,,,225,240,-250,,240,240
1,D,Raw,M,Nshan Malkhasyan,Armenia,27,100,100,Open,,,,,,,,,,,290,305,-320,,305,305
2,D,Raw,M,Franz-Josef Pielmeier,Germany,27,92.2,100,Open,,,,,,,,,,,235,250,265,,265,265
3,D,Raw,M,Stefan Nigl,Germany,25,99.4,100,Open,,,,,,,,,,,225,240,-255,,240,240
1,D,Raw,M,Anton Scherz,Germany,27,105.1,110,Open,,,,,,,,,,,285,-300,305,,305,305
2,D,Raw,M,Dominik Laumer,Germany,27,108.5,110,Open,,,,,,,,,,,255,275,,,275,275
1,D,Raw,M,Julian Hackl,Germany,26,116.8,125,Open,,,,,,,,,,,275,-290,,,275,275
1,D,Raw,M,Benj Hauser,Switzerland,29,130.4,140,Open,,,,,,,,,,,280,-320,-330,,280,280
2,D,Raw,M,Florian Schrötter,Germany,26,126.8,140,Open,,,,,,,,,,,250,265,-280,,265,265
1,D,Raw,M,Irakli Chanturia,Georgia,35,147,140+,Open,,,,,,,,,,,300,320.5,330,,330,330
2,D,Raw,M,Karapet Barseghyan,Armenia,28,156.7,140+,Open,,,,,,,,,,,290,-322.5,,,290,290
3,D,Raw,M,Bastian Ederer,Germany,39,143.5,140+,Open,,,,,,,,,,,270,-272.5,,,270,270
1,D,Raw,M,Pavel Balážik,Slovakia,39,51.6,56,Submasters,,,,,,,,,,,145,152.5,-158,-158,152.5,152.5
1,D,Raw,M,Martin Sýkora,Czechia,36,86.1,90,Submasters,,,,,,,,,,,180,200,205,-207.5,205,205
1,D,Raw,M,Bastian Ederer,Germany,39,143.5,140+,Submasters,,,,,,,,,,,285,295,-302.5,,295,295
1,SBD,Multi-ply,F,Corinna Lamecker,Germany,26,72.8,75,Open,112.5,-120,120,,120,55,-60,60,,60,130,140,-145,,140,320
1,SBD,Multi-ply,F,Sabine Kraus,Germany,51,78.2,82.5,M 50-54,-145,145,-165,,145,80,-87.5,87.5,,87.5,125,135,-142.5,,135,367.5
1,SBD,Multi-ply,M,Martin Hráček,Czechia,20,81.8,82.5,Juniors,260,280.5,-300,,280.5,140,160,170,,170,220,230,-237.5,,230,680.5
1,SBD,Multi-ply,M,Michael Holzapfel,Germany,21,87.6,90,Juniors,-220,220,230,,230,135,142.5,150,,150,210,220,-230,,220,600
1,SBD,Multi-ply,M,Josef Gabler,Germany,21,101.9,110,Juniors,225,240,252.5,,252.5,170,180,-185,,180,260,280,-292.5,,280,712.5
1,SBD,Multi-ply,M,Andriy Yaremus,Ukraine,41,98.8,100,M 40-44,-245,-250,250,,250,125,140,150,,150,210,220,-230,,220,620
1,SBD,Multi-ply,M,Daurer Englbert,Austria,40,103.3,110,M 40-44,-290,290,-312.5,,290,180,205,-210,,205,260,290,-301,,290,785
2,SBD,Multi-ply,M,Yuriy Ustinov,Russia,44,105.8,110,M 40-44,-250,-250,260,,260,180,190,-195,,190,260,-270,-270,,260,710
DQ,SBD,Multi-ply,M,Sven Lorenz,Germany,40,108.6,110,M 40-44,-225,-225,-240,,,-180,-180,-180,,,,,,,,
1,SBD,Multi-ply,M,Markus Zehethofer,Austria,44,139.2,140,M 40-44,370,395,412.5,,412.5,260,280,-292.5,,280,310,330,340,,340,1032.5
1,SBD,Multi-ply,M,Markus Horanek,Austria,47,81.4,82.5,M 45-49,230,240,250,,250,170,183,-185,,183,220,230,-235,,230,663
DQ,SBD,Multi-ply,M,Helmut Kraus,Germany,48,97.1,100,M 45-49,-280,,,,,,,,,,,,,,,
1,SBD,Multi-ply,M,Steffen Reisbach,Germany,51,86.6,90,M 50-54,-210,210,,,210,172.5,-177.5,-177.5,,172.5,200,210,,,210,592.5
1,SBD,Multi-ply,M,Erwin Loritsch,Austria,58,88.7,90,M 55-59,192.5,-200,200,,200,125,-130,-130,,125,220,-226,-226,,220,545
2,SBD,Multi-ply,M,Sergio Bianchi,Italy,59,87.9,90,M 55-59,-200,200,,,200,90,,,,90,180,,,,180,470
1,SBD,Multi-ply,M,Peter Rathke,Germany,59,91.1,100,M 55-59,240,-260,,,240,140,150,160,,160,240,-250,-250,,240,640
1,SBD,Multi-ply,M,Heinz Stroj,Austria,68,95,100,M 65-69,120,140,150,,150,105,115,-120,,115,140,180,200,,200,465
1,SBD,Multi-ply,M,Reno Karkuschke,Germany,50,60,60,Open,143,-150.5,150.5,152.5,150.5,85,92.5,95,-100,95,130,-135,135,,135,380.5
1,SBD,Multi-ply,M,Arman Kulibaev,Russia,36,74.3,75,Open,-240,-240,250,,250,-140,140,150,,150,-210,210,225,,225,625
1,SBD,Multi-ply,M,Michael König,Germany,25,100.8,110,Open,230,240,252.5,,252.5,140,-150,-150,,140,250,265,-272.5,,265,657.5
DQ,SBD,Multi-ply,M,Sergej Schuhmann,Germany,34,107.9,110,Open,-250,,,,,,,,,,,,,,,
1,SBD,Multi-ply,M,Michael Jähnel,Germany,27,119.9,125,Open,225,240,260,,260,200,207.5,-210,,207.5,230,242.5,-250,,242.5,710
1,SBD,Multi-ply,M,Michał Rożnowski,Poland,39,81.1,82.5,Submasters,185,205,225,,225,115,120,130,,130,175,205,,,205,560
1,SBD,Multi-ply,M,Ronny Dießner,Germany,37,96.6,100,Submasters,195,-220,-220,,195,145,147.5,152.5,,152.5,225,235,242.5,,242.5,590
1,SBD,Wraps,F,Eliška Nehézová,Slovakia,17,65.3,67.5,T 16-17,85,95,-100,,95,50,55,-60,,55,110,122.5,-130,,122.5,272.5
1,SBD,Wraps,F,Michaela Zemanová,Czechia,19,60.9,67.5,T 18-19,155,-165,-167.5,,155,75,80,85,,85,150,165,170,,170,410
1,SBD,Wraps,F,Kristína Kastelic,Slovenia,18,74.9,75,T 18-19,110,115,120,125,120,40,45,-47.5,,45,130,140,-145,,140,305
1,SBD,Wraps,F,Busko Roksolana,Ukraine,23,51.4,52,Juniors,105,110,-115,,110,55,-57.5,-57.5,,55,110,115,117.5,,117.5,282.5
2,SBD,Wraps,F,Monique Siwek,Germany,22,50.1,52,Juniors,70,80,85,,85,60,62.5,65,-67.5,65,100,105,107.5,110,107.5,257.5
1,SBD,Wraps,F,Tereza Štrobová,Czechia,23,65.5,67.5,Juniors,75,85,95,,95,32.5,40,47.5,,47.5,95,110,-115,,110,252.5
1,SBD,Wraps,F,Magda Urbanowicz,Poland,25,47.6,48,Open,105,110,115,,115,60,65,67.5,,67.5,105,112.5,118,,118,300.5
1,SBD,Wraps,F,Mariša Golob,Slovenia,29,55.3,56,Open,145,156,161,,161,92.5,97.5,-101,,97.5,160,170,-172.5,,170,428.5
2,SBD,Wraps,F,Joanna Jendraszek,Poland,28,55.2,56,Open,110,115,-122.5,,115,50,52.5,55,,55,95,105,115,,115,285
1,SBD,Wraps,F,Denise Herber,Germany,28,65.4,67.5,Open,205,215,220,,220,95,100,-105,,100,200,212.5,-220,,212.5,532.5
2,SBD,Wraps,F,Aleksandra Savić,Serbia,24,66.7,67.5,Open,145,150,-155,,150,87.5,-90,-90,,87.5,165,175,180,,180,417.5
1,SBD,Wraps,F,Petra Kočková,Czechia,35,72.9,75,Open,-180,180,-200,,180,100,-110,-110,,100,180,210,,,210,490
2,SBD,Wraps,F,Anja Zosso,Switzerland,26,71.6,75,Open,150,160,167.5,,167.5,82.5,90,95,,95,147.5,157.5,162.5,,162.5,425
1,SBD,Wraps,F,Hranush Aslanyan,Armenia,38,55.6,56,Submasters,-60,60,65,,65,-32.5,32.5,,,32.5,70,75,80,,80,177.5
1,SBD,Wraps,F,Katrin Ribb,Germany,49,77.3,82.5,M 45-49,80,85,90,,90,-92.5,95,101,,101,130,142.5,150,155,150,341
1,SBD,Wraps,F,Norika Szombatová,Slovakia,55,55.3,56,M 55-59,60,65,70,,70,30,35,-37.5,,35,80,85,,,85,190
1,SBD,Wraps,F,Monika Świrska,Poland,43,52.5,56,M 40-44,-110,115,122.5,,122.5,65,67.5,-70,,67.5,125,140,-150.5,,140,330
1,SBD,Wraps,F,Kvetka Baranovičová,Slovakia,66,57.5,60,M 65-69,-60,60,-65,,60,30,35.5,,,35.5,90,105.5,,,105.5,201
1,SBD,Wraps,M,Benedek Prokos,Hungary,17,59.2,60,T 16-17,100.5,115,127.5,,127.5,60,68,72.5,,72.5,105,122.5,130,135.5,130,330
2,SBD,Wraps,M,Andrej Reidinger,Czechia,16,59.6,60,T 16-17,95,115,-125,,115,60,70,80,,80,105,125,135,,135,330
1,SBD,Wraps,M,Luca Schöning,Germany,16,67,67.5,T 16-17,120,135,-145,,135,82.5,90,-95,,90,150,170,181,185.5,181,406
2,SBD,Wraps,M,Martin Cintel,Czechia,16,60.3,67.5,T 16-17,100,105,107.5,,107.5,60,65,-67.5,,65,110,120,-140,,120,292.5
2,SBD,Wraps,M,Jakub Stachurski,Poland,18,73.9,75,T 18-19,160,170,-180,,170,100,105,110,,110,190,215,-222.5,,215,495
1,SBD,Wraps,M,Radek Knápek,Czechia,16,71.9,75,T 16-17,160,180,195,,195,105,-115,115,,115,160,170,-190,,170,480
1,SBD,Wraps,M,Miroslav Smrcek,Czechia,17,87.9,90,T 16-17,180,200,-210,,200,90,95,-100,,95,200,220,-225,,220,515
1,SBD,Wraps,M,Max Enin,Germany,17,114.5,125,T 16-17,230,-250,265,,265,140,-155,165,,165,220,250,260,,260,690
1,SBD,Wraps,M,Tomasz Janas,Poland,18,67.1,67.5,T 18-19,155,165,175,,175,70,80,85,,85,175,190,-211,,190,450
2,SBD,Wraps,M,Lukács Dömény,Slovakia,18,62.3,67.5,T 18-19,-150,-160,160,,160,80,-90,-90,,80,180,190,-200,,190,430
1,SBD,Wraps,M,Dawid Stachurski,Poland,19,73,75,T 18-19,180,210,226,,226,100,115,120,,120,170,205,-225,,205,551
3,SBD,Wraps,M,Mikulas Cintel,Czechia,19,73.6,75,T 18-19,120,135,-140,,135,-80,80,90,,90,150,165,175,,175,400
1,SBD,Wraps,M,Roman Dokulil,Czechia,19,90,90,T 18-19,180,200,210,,210,130,140,145,,145,240,250,260,,260,615
2,SBD,Wraps,M,David Benca,Slovakia,18,89.3,90,T 18-19,205,220,225,,225,135,145,-150,,145,210,-225,-225,,210,580
3,SBD,Wraps,M,Tomáš Štrob,Czechia,19,82.6,90,T 18-19,-140,140,-160,,140,100,105,120,,120,180,190,200,,200,460
1,SBD,Wraps,M,Johannes Hauf,Germany,19,100.5,110,T 18-19,160,170,-180,,170,90,100,-105,,100,150,160,175,,175,445
1,SBD,Wraps,M,Oliver Kurek,Slovakia,20,73.7,75,Juniors,200,215,-225,,215,135,-145,-145,,135,-250,265,-285,,265,615
2,SBD,Wraps,M,Antonín Prokeš,Czechia,21,70.7,75,Juniors,210,-225,225,,225,110,120,-125,,120,260,-275,-275,,260,605
1,SBD,Wraps,M,Philipp Illgen,Germany,23,82.5,82.5,Juniors,215,230,-240,,230,145,150,-155,,150,260,-282.5,-282.5,,260,640
1,SBD,Wraps,M,Julian Kraft,Germany,21,88.2,90,Juniors,230,245,-255,,245,130,140,-145,,140,240,250,-255,,250,635
2,SBD,Wraps,M,Gustav Seifert,Czechia,22,86.7,90,Juniors,180,220,-225,,220,120,140,150,,150,240,260,-265,,260,630
1,SBD,Wraps,M,Steffen Behnke,Germany,20,97.4,100,Juniors,200,-210,210,,210,125,135,140,,140,215,230,-242.5,,230,580
2,SBD,Wraps,M,Marcel Kleuß,Germany,23,90.9,100,Juniors,195,205,210,,210,135,-140,-140,,135,-210,210,-220,,210,555
3,SBD,Wraps,M,Theo Zach,Germany,22,95.3,100,Juniors,175,-190,-190,,175,90,97.5,-105,,97.5,200,210,220,,220,492.5
1,SBD,Wraps,M,Vojtech Novacek,Czechia,23,106.6,110,Juniors,240,250,260,,260,160,170,-180,,170,270,300,-310,,300,730
1,SBD,Wraps,M,Erni Gregorčič,Slovenia,43,74.2,75,M 40-44,210,221,-226,,221,140,145,150,,150,240,250,-261,,250,621
1,SBD,Wraps,M,Martin Macik,Czechia,44,86.5,90,M 40-44,160,165,172.5,,172.5,120,125,-130,,125,190,200,207.5,,207.5,505
2,SBD,Wraps,M,Andreas Machann,Germany,41,85.9,90,M 40-44,90,100,110,,110,90,100,-107.5,,100,160,180,190,,190,400
1,SBD,Wraps,M,Mario Maier,Germany,41,97.1,100,M 40-44,255,272.5,280,,280,162.5,172.5,-175,,172.5,255,265,280.5,,280.5,733
2,SBD,Wraps,M,Grzegorz Drewniany,Poland,42,97.8,100,M 40-44,220,-235,235,,235,145,152.5,155,,155,210,225,235,,235,625
1,SBD,Wraps,M,Tomasz Bejgrowicz,Poland,40,107.7,110,M 40-44,-160,160,180,,180,130,140,150,,150,190,210,,,210,540
1,SBD,Wraps,M,Mariusz Cichocki,Poland,42,116,125,M 40-44,190,210,-220,,210,170,180,-190,,180,260,270,,,270,660
1,SBD,Wraps,M,Anton Frič,Slovakia,46,88.7,90,M 45-49,260,282.5,292.5,,292.5,160,175,180,185,180,240,260,270,,270,742.5
1,SBD,Wraps,M,Reinhold Blüml,Germany,47,98.7,100,M 45-49,280,290,-300,,290,170,180,-185,,180,260,275,-283.5,,275,745
1,SBD,Wraps,M,Franz Ritzer,Germany,47,105.9,110,M 45-49,235,255,,,255,155,165,172.5,,172.5,285,300,305,,305,732.5
1,SBD,Wraps,M,Hagen Ribb,Germany,49,111,125,M 45-49,140,150,160,,160,150,160,-165,,160,150,165,180,,180,500
1,SBD,Wraps,M,Tomáš Leinveber,Czechia,47,134.4,140,M 45-49,240,260,272.5,,272.5,170,177.5,-182.5,,177.5,215,230,235,,235,685
1,SBD,Wraps,M,Jan Augustat,Germany,50,74.1,75,M 50-54,165,175,182.5,,182.5,95,102.5,107.5,-110,107.5,170,185,,,185,475
1,SBD,Wraps,M,Luca Segrer,Italy,50,81.3,82.5,M 50-54,185,195,-202.5,,195,110,-115,,,110,185,195,200,,200,505
1,SBD,Wraps,M,Leoš Herák,Czechia,50,96.7,100,M 50-54,190,-210,210,,210,130,-140,-140,,130,190,210,220,,220,560
1,SBD,Wraps,M,Urs Auf der Maur,Switzerland,50,108.7,110,M 50-54,280,-310,-320,,280,160,180,,,180,300,-330,,,300,760
1,SBD,Wraps,M,Michael Zitzelsberger,Germany,52,134.3,140,M 50-54,280,290,300,,300,160,170,180,,180,300,315,-325,,315,795
1,SBD,Wraps,M,Krzysztof Tur,Poland,51,89.5,90,M 50-54,210,220,227.5,,227.5,140,150,155.5,,155.5,225,240.5,-245,,240.5,623.5
1,SBD,Wraps,M,Detlef Riedel,Germany,59,81.5,82.5,M 55-59,220,235,242.5,,242.5,125,132.5,-137.5,,132.5,210,218,220,,220,595
1,SBD,Wraps,M,Jürgen Slawik,Germany,57,89.3,90,M 55-59,180,-190,-190,,180,135,145,-152.5,,145,220,240,-251,,240,565
2,SBD,Wraps,M,Sergio Bianchi,Italy,59,87.9,90,M 55-59,170,180,-190,,180,80,85,92.5,,92.5,170,180,,,180,452.5
1,SBD,Wraps,M,Lothar Pritzl,Germany,59,91,100,M 55-59,160,180,-190,,180,90,-100,,,90,160,175,-182.5,,175,445
1,SBD,Wraps,M,Luboš Halenkovský,Czechia,59,102.3,110,M 55-59,150,165,175,,175,115,125,-130,,125,180,200,210,,210,510
1,SBD,Wraps,M,Gottfried Foltas,Germany,61,87,90,M 60-64,145,155,160,,160,100,105,-107.5,,105,180,192.5,200,,200,465
1,SBD,Wraps,M,Wiesław Wrŏbel,Poland,61,95.3,100,M 60-64,200,217.5,225,,225,110,117.5,120,,120,250,270,-277.5,,270,615
DQ,SBD,Wraps,M,Josef Sussbauer,Germany,63,99.9,100,M 60-64,-190,,,,,,,,,,,,,,,
1,SBD,Wraps,M,František Albert,Slovakia,67,66.4,67.5,M 65-69,90,100,,,100,-50,55,60,,60,110,120,,,120,280
1,SBD,Wraps,M,Adam Jasiński,Poland,68,81.9,82.5,M 65-69,200,212.5,220,,220,105,112.5,-120,,112.5,200,210,-217.5,,210,542.5
2,SBD,Wraps,M,Józef Bejgrowicz,Poland,66,82.4,82.5,M 65-69,160,-180,,,160,80,85,90,,90,210,222.5,227.5,,227.5,477.5
1,SBD,Wraps,M,Panajotis Bachcevanidis,Czechia,67,104.9,110,M 65-69,100,110,120,,120,80,90,-92.5,,90,120,130,142.5,,142.5,352.5
1,SBD,Wraps,M,Heinz-Joachim Probst,Germany,73,98.8,100,M 70-74,90,100,105,,105,72.5,80,82.5,,82.5,120,130,140,,140,327.5
1,SBD,Wraps,M,Ulrich Mielich,Germany,79,74,75,M 75-79,50,-60,60,,60,47.5,52.5,55,,55,85,97.5,107.5,,107.5,222.5
1,SBD,Wraps,M,Nino Kuhn,Germany,27,67.2,67.5,Open,230,240,250,,250,150,157.5,162.5,,162.5,245,-260,260,-270,260,672.5
1,SBD,Wraps,M,Grzegorz Skrabarczyk,Poland,34,72.6,75,Open,175,-190,-205,,175,130,140,150,,150,180,200,-210,,200,525
1,SBD,Wraps,M,Marcin Helwig,Poland,31,81.7,82.5,Open,220,230,237.5,,237.5,150,157.5,162.5,,162.5,252.5,265,270,,270,670
2,SBD,Wraps,M,Jaroslav Oklepek,Slovakia,31,81.3,82.5,Open,210,220,-230,,220,140,-150,-150,,140,-200,200,-225,,200,560
3,SBD,Wraps,M,Moritz Jäger,Germany,26,77.6,82.5,Open,180,-190,-190,,180,100,107.5,-112.5,,107.5,170,185,-195,,185,472.5
4,SBD,Wraps,M,Péter Csoma,Hungary,24,81.7,82.5,Open,180,-200,-200,,180,90,100,102.5,,102.5,180,190,-202.5,,190,472.5
1,SBD,Wraps,M,Jeffrey Podszuweit,Germany,41,87.8,90,Open,205,-225,225,,225,172.5,180,185,,185,200,225,240,,240,650
2,SBD,Wraps,M,Aleksei Khekalo,Russia,18,83.7,90,Open,230,250,-260,,250,135,142.5,145,,145,230,-250,-250,,230,625
3,SBD,Wraps,M,Marcin Majewski,Poland,30,87.8,90,Open,210,215,,,215,135,140,-145,,140,240,-260,-260,,240,595
4,SBD,Wraps,M,Sascha Fischer,Switzerland,27,87.3,90,Open,-210,220,-232.5,,220,145,152.5,-160,,152.5,205,220,-235,,220,592.5
5,SBD,Wraps,M,Lars Görg-Nöldner,Germany,35,89.1,90,Open,200,-217.5,-220,,200,127.5,137.5,-145,,137.5,205,232.5,240,,240,577.5
6,SBD,Wraps,M,Tim Schweers,Germany,25,88.2,90,Open,180,200,-210,,200,-130,130,-150,,130,200,220,-225,,220,550
7,SBD,Wraps,M,Byuzand Baghdasaryan,Armenia,34,88.3,90,Open,180,190,200,,200,-140,150,-155,,150,200,-220,,,200,550
DQ,SBD,Wraps,M,Karol Janiceck,Slovakia,31,82.7,90,Open,-215,-215,-215,,,,,,,,,,,,,
1,SBD,Wraps,M,Nshan Malkhasyan,Armenia,27,100,100,Open,240,260,-270,,260,165,172.5,-177.5,,172.5,290,300,310,,310,742.5
2,SBD,Wraps,M,Pavel Kraus,Czechia,29,98,100,Open,230,250,260,,260,155,165,170,,170,250,270,-275,,270,700
3,SBD,Wraps,M,Matěj Pěnkava,Czechia,26,94.3,100,Open,250,-270,-275,,250,150,160,165,,165,-270,-270,270,,270,685
1,SBD,Wraps,M,Karel Štastný,Czechia,26,100.4,110,Open,240,260,270,,270,-162.5,-162.5,162.5,,162.5,255,267.5,275,,275,707.5
2,SBD,Wraps,M,Michael Wenig,Germany,35,107.4,110,Open,180,200,-220,,200,120,130,140,,140,200,220,240,,240,580
1,SBD,Wraps,M,Stefan Larch,Austria,26,119.6,125,Open,320,340,-355,,340,195,205,-210,,205,290,-305,,,290,835
2,SBD,Wraps,M,Felix Oehmigen,Germany,28,122.6,125,Open,190,200,-210,,200,120,122.5,125,,125,-200,200,220,,220,545
1,SBD,Wraps,M,Karapet Barseghyan,Armenia,28,155,140+,Open,280,-295,-295,,280,140,150,-160,,150,280,295,310,,310,740
2,SBD,Wraps,M,Maximilian Serfas,Germany,27,158,140+,Open,250,270,290,,290,160,-175,175,,175,230,250,270,,270,735
3,SBD,Wraps,M,Grzegorz Peksa,Poland,50,144.9,140+,Open,210,-235,-235,,210,190,200,207.5,,207.5,250,265,,,265,682.5
