Place,Name,CyrillicName,Country,BirthDate,BodyweightKg,Bench1Kg,Bench2Kg,Bench3Kg,Bench4Kg,Deadlift1Kg,Deadlift2Kg,Deadlift3Kg,Deadlift4Kg,TotalKg,WeightClassKg,Division,Sex,Event,Equipment,Tested,Best3BenchKg,Best3DeadliftKg,BirthYear
1,Arsen Ibragimov,Арсен Ібрагімов,Ukraine,2001-08-07,80.9,100,105,107.5,,185,202.5,205,,312.5,82.5,Amateur Teen 16-17,M,BD,Raw,Yes,107.5,205,2001
1,Danilo Filichkin,Данило Філічкін,Ukraine,1999-12-12,85.9,105,110,115,,155,162.5,175,,290,90,Amateur Teen 18-19,M,BD,Raw,Yes,115,175,1999
1,Andriy Patsera,Андрій Пацера,Ukraine,1995-12-13,102.1,-145,145,-152.5,,225,235,-240,,380,110,Amateur Juniors 20-23,M,BD,Raw,Yes,145,235,1995
1,Dmitro Perekhrest,Дмитро Перехрест,Ukraine,1994-08-06,72.2,105,110,115,,190,200,207.5,,322.5,75,Amateur Open,M,BD,Raw,Yes,115,207.5,1994
2,Ruslan Abbasov,Руслан Аббасов,Ukraine,1992-10-12,73.9,100,-105,105,,200,-210,215,,320,75,Amateur Open,M,BD,Raw,Yes,105,215,1992
1,Arsen Ibragimov,Арсен Ібрагімов,Ukraine,2001-08-07,80.9,100,105,107.5,,185,202.5,205,,312.5,82.5,Amateur Open,M,BD,Raw,Yes,107.5,205,2001
1,Vitaliy Bogdan,Віталій Богдан,Ukraine,1990-07-29,88.3,160,-170,170,,245,260,267.5,,437.5,90,Amateur Open,M,BD,Raw,Yes,170,267.5,1990
1,Andriy Patsera,Андрій Пацера,Ukraine,1995-12-13,102.1,-145,145,-152.5,,225,235,-240,,380,110,Amateur Open,M,BD,Raw,Yes,145,235,1995
1,Ivan Timokhin,Іван Тімохін,Ukraine,1980-08-10,88.8,110,120,130,,190,200,210,,340,90,Amateur Submasters 33-39,M,BD,Raw,Yes,130,210,1980
1,Rostislav Klevtsov,Ростислав Клевцов,Ukraine,1978-11-06,97.7,110,-120,130,,180,190,200,,330,100,Amateur Masters 40-44,M,BD,Raw,Yes,130,200,1978
1,Sevda Kondrashova,Севда Кондрашова,Ukraine,1995-01-23,51.4,-45,45,47.5,,-100,100,110,,157.5,52,Amateur Open,F,BD,Raw,Yes,47.5,110,1995
1,Katerina Yarushina,Катерина Ярушина,Ukraine,1990-11-06,55.1,52.5,55,-57.5,,115,120,-125,,175,56,Amateur Open,F,BD,Raw,Yes,55,120,1990
1,Irina Bozhko,Ірина Божко,Ukraine,1993-11-13,64,67.5,72.5,-75,,130,137.5,,,210,67.5,Amateur Open,F,BD,Raw,Yes,72.5,137.5,1993
1,Artem Tishkul,Артем Тишкул,Ukraine,1996-04-30,74.9,135,142.5,-150,,195,210,220,,362.5,75,Pro Juniors 20-23,M,BD,Raw,No,142.5,220,1996
1,Maksim Garkaviy,Максим Гарькавий,Ukraine,1995-08-15,106.4,140,150,152.5,,240,255,-262.5,,407.5,110,Pro Juniors 20-23,M,BD,Raw,No,152.5,255,1995
1,Sergiy Mazur,Сергій Мазур,Ukraine,1981-06-01,89.4,170,175,-180,,255,272.5,,,447.5,90,Pro Open,M,BD,Raw,No,175,272.5,1981
2,Evgen Ganzha,Євген Ганжа,Ukraine,1988-11-27,84.6,135,140,-145,,210,220,-225,,360,90,Pro Open,M,BD,Raw,No,140,220,1988
1,Dmitro Tkach,Дмитро Ткач,Ukraine,1991-06-10,94.9,170,177.5,-182.5,,210,220,225,,402.5,100,Pro Open,M,BD,Raw,No,177.5,225,1991
DQ,Vyacheslav Vakhrushev,Вячеслав Вахрушев,Ukraine,1977-08-17,85.7,-130,-130,-130,,-170,,,,,90,Pro Masters 40-44,M,BD,Raw,No,,,1977
1,Sergiy Romantsov,Сергій Романцов,Ukraine,1964-02-07,86.1,125,132.5,-135,,192.5,-202.5,-202.5,,325,90,Pro Masters 55-59,M,BD,Raw,No,132.5,192.5,1964
1,Viktoriya Negoda,Вікторія Негода,Ukraine,2002-08-23,54.5,25,27.5,-30,,60,-65,-65,,87.5,56,Pro Teen 16-17,F,BD,Raw,No,27.5,60,2002
DQ,Denis Mamiko,Денис Мамико,Ukraine,2003-06-27,72.3,-115,-115,-115,,,,,,,75,Amateur Teen 13-15,M,B,Raw,Yes,,,2003
1,Denis Mineev,Денис Мінєєв,Ukraine,2003-05-07,81,-82.5,82.5,-85,,,,,,82.5,82.5,Amateur Teen 16-17,M,B,Raw,Yes,82.5,,2003
DQ,Oleksandr Lutsenko,Олександр Луценко,Ukraine,1996-08-10,87.3,-127.5,-135,-135,,,,,,,90,Amateur Juniors 20-23,M,B,Raw,Yes,,,1996
1,Mikhaylo Korobko,Михайло Коробко,Ukraine,1997-01-22,94.8,115,-125,125,,,,,,125,100,Amateur Juniors 20-23,M,B,Raw,Yes,125,,1997
1,Mikhaylo Klinkevich,Михайло Клінкевич,Ukraine,1992-02-10,57.6,92.5,97.5,-100,,,,,,97.5,60,Amateur Open,M,B,Raw,Yes,97.5,,1992
1,Roman Golishev,Роман Голишев,Ukraine,1991-03-07,65.2,125,-130,-130,,,,,,125,67.5,Amateur Open,M,B,Raw,Yes,125,,1991
1,Sergiy Afanasev,Сергій Афанасьєв,Ukraine,1994-12-28,79,150,160,165,,,,,,165,82.5,Amateur Open,M,B,Raw,Yes,165,,1994
2,Oleksiy Ulyanenko,Олексій Ульяненко,Ukraine,1989-01-03,78.1,150,-155,155,,,,,,155,82.5,Amateur Open,M,B,Raw,Yes,155,,1989
3,Igor Galushko,Ігор Галушко,Ukraine,1989-07-08,81.2,-132.5,-132.5,132.5,,,,,,132.5,82.5,Amateur Open,M,B,Raw,Yes,132.5,,1989
4,Svyatoslav Smikhun,Святослав Сміхун,Ukraine,1993-01-21,80.9,120,125,-127.5,,,,,,125,82.5,Amateur Open,M,B,Raw,Yes,125,,1993
1,Yaroslav Telker,Ярослав Телькер,Ukraine,1988-02-22,89.2,165,-172.5,175,,,,,,175,90,Amateur Open,M,B,Raw,Yes,175,,1988
2,Igor Ilchenko,Ігор Ільченко,Ukraine,1981-09-07,86.8,170,-180,-180,,,,,,170,90,Amateur Open,M,B,Raw,Yes,170,,1981
3,Oleksandr Samofal,Олександр Самофал,Ukraine,1989-07-11,87,145,157.5,,,,,,,157.5,90,Amateur Open,M,B,Raw,Yes,157.5,,1989
1,Sergiy Kurazhenko,Сергій Кураженко,Ukraine,1985-03-21,98.1,170,-175,-175,,,,,,170,100,Amateur Open,M,B,Raw,Yes,170,,1985
2,Sergiy Shushakov,Сергій Шушаков,Ukraine,1978-06-16,95.4,-160,-167.5,167.5,,,,,,167.5,100,Amateur Open,M,B,Raw,Yes,167.5,,1978
3,Maksim Miroshnichenko #3,Максим Мірошніченко,Ukraine,1984-04-30,95.9,160,-170,-170,,,,,,160,100,Amateur Open,M,B,Raw,Yes,160,,1984
1,Oleg Chornoguz,Олег Чорногуз,Ukraine,1981-03-02,74.7,-127.5,127.5,-137.5,,,,,,127.5,75,Amateur Submasters 33-39,M,B,Raw,Yes,127.5,,1981
1,Dmitro Romanenko,Дмитро Романенко,Ukraine,1983-09-22,79.3,105,-112.5,-115,,,,,,105,82.5,Amateur Submasters 33-39,M,B,Raw,Yes,105,,1983
1,Igor Ilchenko,Ігор Ільченко,Ukraine,1981-09-07,86.8,170,-180,-180,,,,,,170,90,Amateur Submasters 33-39,M,B,Raw,Yes,170,,1981
2,Artem Sokolov,Артем Соколов,Ukraine,1982-12-25,86.4,90,95,-100,,,,,,95,90,Amateur Submasters 33-39,M,B,Raw,Yes,95,,1982
1,Sergiy Kurazhenko,Сергій Кураженко,Ukraine,1985-03-21,98.1,170,-175,-175,,,,,,170,100,Amateur Submasters 33-39,M,B,Raw,Yes,170,,1985
2,Oleg Labenko,Олег Лабенко,Ukraine,1982-11-26,96.2,140,145,-150,,,,,,145,100,Amateur Submasters 33-39,M,B,Raw,Yes,145,,1982
1,Vladislav Trotsenko,Владислав Троценко,Ukraine,1976-10-10,80.7,115,120,-125,,,,,,120,82.5,Amateur Masters 40-44,M,B,Raw,Yes,120,,1976
1,Mikhaylo Bugremenko,Михайло Бугременко,Ukraine,1979-05-13,88,145,-157.5,-157.5,,,,,,145,90,Amateur Masters 40-44,M,B,Raw,Yes,145,,1979
1,Sergiy Shushakov,Сергій Шушаков,Ukraine,1978-06-16,95.4,-160,-167.5,167.5,,,,,,167.5,100,Amateur Masters 40-44,M,B,Raw,Yes,167.5,,1978
2,Oleksandr Kornienko,Олександр Корнієнко,Ukraine,1978-03-20,99.4,-140,,145,,,,,,145,100,Amateur Masters 40-44,M,B,Raw,Yes,145,,1978
1,Yuriy Sisoev,Юрій Сисоєв,Ukraine,1975-10-15,110,180,190,-200,,,,,,190,110,Amateur Masters 40-44,M,B,Raw,Yes,190,,1975
DQ,Oleksandr Kashinskiy,Олександр Кашинський,Ukraine,1972-12-09,98.8,-180,-185,-185,,,,,,,100,Amateur Masters 45-49,M,B,Raw,Yes,,,1972
1,Oleksiy Ulyanenko,Олексій Ульяненко,Ukraine,1989-01-03,78.1,150,-155,155,,,,,,155,82.5,Amateur Military/Fire/Police,M,B,Raw,Yes,155,,1989
2,Sergiy Marushkin,Сергій Марушкін,Ukraine,1992-12-09,81,125,130,-140,,,,,,130,82.5,Amateur Military/Fire/Police,M,B,Raw,Yes,130,,1992
3,Dmitro Romanenko,Дмитро Романенко,Ukraine,1983-09-22,79.3,105,-112.5,-115,,,,,,105,82.5,Amateur Military/Fire/Police,M,B,Raw,Yes,105,,1983
1,Dmitro Anisimov,Дмитро Анісімов,Ukraine,1994-06-08,87.9,-140,140,-157.5,,,,,,140,90,Amateur Military/Fire/Police,M,B,Raw,Yes,140,,1994
1,Mikola Mikhaylov,Микола Михайлов,Ukraine,1988-12-29,115.9,-160,160,162.5,,,,,,162.5,125,Amateur Military/Fire/Police,M,B,Raw,Yes,162.5,,1988
1,Orina Borovkova,Оріна Боровкова,Ukraine,2002-04-17,55.7,65,67.5,-70,,,,,,67.5,56,Amateur Teen 16-17,F,B,Raw,Yes,67.5,,2002
1,Anastasiya Telyatnikova,Анастасія Телятнікова,Ukraine,2000-07-20,55.7,42.5,47.5,-52.5,,,,,,47.5,56,Amateur Teen 18-19,F,B,Raw,Yes,47.5,,2000
1,Katerina Yarushina,Катерина Ярушина,Ukraine,1990-11-06,55.1,52.5,55,-57.5,,,,,,55,56,Amateur Open,F,B,Raw,Yes,55,,1990
1,Olga Shavkun,Ольга Шавкун,Ukraine,1994-04-12,59.6,60,-65,-65,,,,,,60,60,Amateur Open,F,B,Raw,Yes,60,,1994
2,Darina Kayuk,Дарина Каюк,Ukraine,1990-05-30,59.4,57.5,-60,-62.5,,,,,,57.5,60,Amateur Open,F,B,Raw,Yes,57.5,,1990
1,Tetyana Kashulina,Тетяна Кашуліна,Ukraine,1986-07-16,70.7,50,-55,-55,,,,,,50,75,Amateur Open,F,B,Raw,Yes,50,,1986
1,Svitlana Plakhtieva-Potebnya,Світлана Плахтієва-Потебня,Ukraine,1982-12-13,62.1,52.5,-57.5,-57.5,,,,,,52.5,67.5,Amateur Submasters 33-39,F,B,Raw,Yes,52.5,,1982
1,Oleksandr Yurkovskiy,Олександр Юрковський,Ukraine,1991-07-01,78.5,160,167.5,172.5,,,,,,172.5,82.5,Pro Open,M,B,Raw,No,172.5,,1991
1,Kostyantin Grabovskiy,Костянтин Грабовський,Ukraine,1976-04-23,95,200,-210,,,,,,,200,100,Pro Open,M,B,Raw,No,200,,1976
2,Igor Melnik,Ігор Мельник,Ukraine,1982-10-17,97.2,175,180,185,,,,,,185,100,Pro Open,M,B,Raw,No,185,,1982
3,Maksim Medvid,Максим Медвідь,Ukraine,1988-03-24,98.8,175,185,-200,,,,,,185,100,Pro Open,M,B,Raw,No,185,,1988
4,Maksim Nechausov,Максим Нечаусов,Ukraine,1972-03-04,94.5,170,-175,,,,,,,170,100,Pro Open,M,B,Raw,No,170,,1972
5,Maksim Gilevich,Максим Гілевич,Ukraine,1996-08-21,98.3,-165,170,-180,,,,,,170,100,Pro Open,M,B,Raw,No,170,,1996
6,Anton Chirkov,Антон Чирков,Ukraine,1993-08-27,99.6,150,-155,-160,,,,,,150,100,Pro Open,M,B,Raw,No,150,,1993
1,Anton Fedichev,Антон Федічев,Ukraine,1982-09-15,106.6,162.5,167.5,170,,,,,,170,110,Pro Open,M,B,Raw,No,170,,1982
1,Taras Piven,Тарас Півень,Ukraine,1980-10-23,116.3,200,-207.5,,,,,,,200,125,Pro Open,M,B,Raw,No,200,,1980
1,Sergiy Mazur,Сергій Мазур,Ukraine,1981-06-01,89.4,170,175,-180,,,,,,175,90,Pro Submasters 33-39,M,B,Raw,No,175,,1981
1,Igor Melnik,Ігор Мельник,Ukraine,1982-10-17,97.2,175,180,185,,,,,,185,100,Pro Submasters 33-39,M,B,Raw,No,185,,1982
1,Anton Fedichev,Антон Федічев,Ukraine,1982-09-15,106.6,162.5,167.5,170,,,,,,170,110,Pro Submasters 33-39,M,B,Raw,No,170,,1982
1,Taras Piven,Тарас Півень,Ukraine,1980-10-23,116.3,200,-207.5,,,,,,,200,125,Pro Submasters 33-39,M,B,Raw,No,200,,1980
1,Vyacheslav Vakhrushev,Вячеслав Вахрушев,Ukraine,1977-08-17,85.7,130,145,150,,,,,,150,90,Pro Masters 40-44,M,B,Raw,No,150,,1977
2,Sergiy Glinyanskiy,Сергій Глинянський,Ukraine,1976-08-18,88.1,115,120,125,,,,,,125,90,Pro Masters 40-44,M,B,Raw,No,125,,1976
1,Kostyantin Grabovskiy,Костянтин Грабовський,Ukraine,1976-04-23,95,200,-210,,,,,,,200,100,Pro Masters 40-44,M,B,Raw,No,200,,1976
1,Maksim Nechausov,Максим Нечаусов,Ukraine,1972-03-04,94.5,170,-175,,,,,,,170,100,Pro Masters 45-49,M,B,Raw,No,170,,1972
1,Sergiy Avramenko,Сергій Авраменко,Ukraine,1971-08-16,113,112.5,-117.5,-117.5,,,,,,112.5,125,Pro Masters 45-49,M,B,Raw,No,112.5,,1971
1,Kostyantin Grabovskiy,Костянтин Грабовський,Ukraine,1976-04-23,95,200,-210,,,,,,,200,100,Pro Military/Fire/Police,M,B,Raw,No,200,,1976
1,Sergiy Avramenko,Сергій Авраменко,Ukraine,1971-08-16,113,112.5,-117.5,-117.5,,,,,,112.5,125,Pro Military/Fire/Police,M,B,Raw,No,112.5,,1971
1,Volodimir Chigirinskiy,Володимир Чигиринський,Ukraine,1962-12-07,95.3,155,172.5,,,,,,,172.5,100,Pro Open,M,B,Multi-ply,No,172.5,,1962
DQ,Stanislav Nikolaenko,Станіслав Ніколаєнко,Ukraine,1978-09-27,116.7,-300,-300,,,,,,,,125,Pro Masters 40-44,M,B,Multi-ply,No,,,1978
1,Volodimir Chigirinskiy,Володимир Чигиринський,Ukraine,1962-12-07,95.3,155,172.5,,,,,,,172.5,100,Pro Masters 55-59,M,B,Multi-ply,No,172.5,,1962
1,Volodimir Chigirinskiy,Володимир Чигиринський,Ukraine,1962-12-07,95.3,160,-175,175,,,,,,175,100,Pro Open,M,B,Multi-ply,No,175,,1962
1,Volodimir Chigirinskiy,Володимир Чигиринський,Ukraine,1962-12-07,95.3,160,-175,175,,,,,,175,100,Pro Masters 55-59,M,B,Unlimited,No,175,,1962
1,Irina Nikolaenko,Ірина Ніколаєнко,Ukraine,1979-11-28,69.3,145,155,160,,,,,,160,75,Pro Open,F,B,Unlimited,No,160,,1979
1,Evgen Isakov,Євген Ісаков,Ukraine,2003-05-15,65.2,,,,,120,130,-135,,130,67.5,Amateur Teen 16-17,M,D,Raw,Yes,,130,2003
1,Arsen Ibragimov,Арсен Ібрагімов,Ukraine,2001-08-07,80.9,,,,,185,202.5,205,,205,82.5,Amateur Teen 16-17,M,D,Raw,Yes,,205,2001
2,Denis Mineev,Денис Мінєєв,Ukraine,2003-05-07,81,,,,,135,145,150,,150,82.5,Amateur Teen 16-17,M,D,Raw,Yes,,150,2003
1,Dmitro Atyushev,Дмитро Атюшев,Ukraine,2000-11-09,66.5,,,,,-160,-160,160,,160,67.5,Amateur Teen 18-19,M,D,Raw,Yes,,160,2000
1,Mikola Tokar,Микола Токарь,Ukraine,1997-07-13,67.2,,,,,115,-125,125,,125,67.5,Amateur Juniors 20-23,M,D,Raw,Yes,,125,1997
1,Ruslan Abbasov,Руслан Аббасов,Ukraine,1992-10-12,73.9,,,,,200,-210,215,,215,75,Amateur Open,M,D,Raw,Yes,,215,1992
1,Arsen Ibragimov,Арсен Ібрагімов,Ukraine,2001-08-07,80.9,,,,,185,202.5,205,,205,82.5,Amateur Open,M,D,Raw,Yes,,205,2001
2,Sergiy Stolbtsov,Сергій Столбцов,Ukraine,1988-03-08,81.2,,,,,185,195,-202.5,,195,82.5,Amateur Open,M,D,Raw,Yes,,195,1988
1,Vitaliy Bogdan,Віталій Богдан,Ukraine,1990-07-29,88.3,,,,,245,260,267.5,,267.5,90,Amateur Open,M,D,Raw,Yes,,267.5,1990
2,Evgen Kitaygorodskiy,Євген Китайгородський,Ukraine,1989-02-13,87.9,,,,,240,-250,250,,250,90,Amateur Open,M,D,Raw,Yes,,250,1989
3,Maksim Lomaka,Максим Ломака,Ukraine,1993-07-27,87.3,,,,,210,-220,,,210,90,Amateur Open,M,D,Raw,Yes,,210,1993
4,Ivan Timokhin,Іван Тімохін,Ukraine,1980-08-10,88.8,,,,,190,200,210,,210,90,Amateur Open,M,D,Raw,Yes,,210,1980
1,Valeriy Lefler,Валерій Лефлер,Ukraine,1985-10-30,95.9,,,,,222.5,232.5,240,,240,100,Amateur Open,M,D,Raw,Yes,,240,1985
1,Volodimir Ogloblin,Володимир Оглоблін,Ukraine,1965-08-15,108.7,,,,,270,282.5,290,,290,110,Amateur Open,M,D,Raw,Yes,,290,1965
1,Ivan Timokhin,Іван Тімохін,Ukraine,1980-08-10,88.8,,,,,190,200,210,,210,90,Amateur Submasters 33-39,M,D,Raw,Yes,,210,1980
1,Valeriy Lefler,Валерій Лефлер,Ukraine,1985-10-30,95.9,,,,,222.5,232.5,240,,240,100,Amateur Submasters 33-39,M,D,Raw,Yes,,240,1985
2,Roman Levchenko,Роман Левченко,Ukraine,1986-03-05,94,,,,,180,202.5,-210,,202.5,100,Amateur Submasters 33-39,M,D,Raw,Yes,,202.5,1986
1,Maksim Chileev,Максим Чілєєв,Ukraine,1996-11-02,58.9,,,,,150,-170,-170,,150,60,Amateur Military/Fire/Police,M,D,Raw,Yes,,150,1996
1,Roman Goryachkivskiy,Роман Горячківський,Ukraine,1999-07-14,73.9,,,,,-180,180,200,,200,75,Amateur Military/Fire/Police,M,D,Raw,Yes,,200,1999
DQ,Artem Myakota,Артем Мякота,Ukraine,1993-01-24,73.3,,,,,-170,-170,-170,,,75,Amateur Military/Fire/Police,M,D,Raw,Yes,,,1993
1,Egor Nasteka,Єгор Настека,Ukraine,1999-08-28,80.9,,,,,190,195,-202.5,,195,82.5,Amateur Military/Fire/Police,M,D,Raw,Yes,,195,1999
1,Sergiy Blinov,Сергій Блінов,Ukraine,1998-07-14,90,,,,,230,250,-270,,250,90,Amateur Military/Fire/Police,M,D,Raw,Yes,,250,1998
1,Ivan Pilipchak,Іван Пилипчак,Ukraine,1992-03-05,98.5,,,,,230,-240,-240,,230,100,Amateur Military/Fire/Police,M,D,Raw,Yes,,230,1992
1,Mikola Mikhaylov,Микола Михайлов,Ukraine,1988-12-29,115.9,,,,,245,260,275,,275,125,Amateur Military/Fire/Police,M,D,Raw,Yes,,275,1988
1,Kseniya Mukhachova,Ксенія Мухачова,Ukraine,2001-12-31,58.9,,,,,-132.5,132.5,140,147.5,140,60,Amateur Teen 16-17,F,D,Raw,Yes,,140,2001
1,Marina Volkovitska,Марина Волковицька,Ukraine,2000-04-23,59.4,,,,,100,105,-107.5,,105,60,Amateur Teen 18-19,F,D,Raw,Yes,,105,2000
1,Vita Sokol,Віта Сокол,Ukraine,1984-08-04,51,,,,,75,80,90,,90,52,Amateur Open,F,D,Raw,Yes,,90,1984
1,Katerina Yarushina,Катерина Ярушина,Ukraine,1990-11-06,55.1,,,,,115,120,-125,,120,56,Amateur Open,F,D,Raw,Yes,,120,1990
1,Kseniya Mukhachova,Ксенія Мухачова,Ukraine,2001-12-31,58.9,,,,,-132.5,132.5,140,147.5,140,60,Amateur Open,F,D,Raw,Yes,,140,2001
1,Vita Sokol,Віта Сокол,Ukraine,1984-08-04,51,,,,,75,80,90,,90,52,Amateur Submasters 33-39,F,D,Raw,Yes,,90,1984
1,Olena Telyatnikova,Олена Телятнікова,Ukraine,1980-03-15,66,,,,,70,80,-82.5,,80,67.5,Amateur Submasters 33-39,F,D,Raw,Yes,,80,1980
1,Nataliya Kocherga,Наталія Кочерга,Ukraine,1977-06-25,52.8,,,,,80,90,-97.5,,90,56,Amateur Masters 40-44,F,D,Raw,Yes,,90,1977
1,Denis Saevskiy,Денис Саєвський,Ukraine,1995-12-16,73.7,,,,,210,220,230,,230,75,Pro Juniors 20-23,M,D,Raw,No,,230,1995
1,Glib Orlovskiy,Гліб Орловський,Ukraine,1987-11-17,65.4,,,,,150,160,-170,,160,67.5,Pro Open,M,D,Raw,No,,160,1987
1,Boris Novoselov,Борис Новоселов,Ukraine,1992-02-27,77.4,,,,,215,225,-232.5,,225,82.5,Pro Open,M,D,Raw,No,,225,1992
DQ,Vitaliy Chunikhovskiy,Віталій Чуніховський,Ukraine,1983-04-11,104.8,,,,,-292.5,-292.5,-292.5,,,110,Pro Open,M,D,Raw,No,,,1983
1,Sergiy Mazur,Сергій Мазур,Ukraine,1981-06-01,89.4,,,,,255,272.5,,,272.5,90,Pro Submasters 33-39,M,D,Raw,No,,272.5,1981
DQ,Vitaliy Chunikhovskiy,Віталій Чуніховський,Ukraine,1983-04-11,104.8,,,,,-292.5,-292.5,-292.5,,,110,Pro Submasters 33-39,M,D,Raw,No,,,1983
1,Vyacheslav Vakhrushev,Вячеслав Вахрушев,Ukraine,1977-08-17,85.7,,,,,170,180,190,,190,90,Pro Masters 40-44,M,D,Raw,No,,190,1977
1,Andriy Shemenov,Андрій Шеменьов,Ukraine,1970-08-05,88.6,,,,,180,195,-205,,195,90,Pro Masters 45-49,M,D,Raw,No,,195,1970
1,Khristina Kovtun,Христина Ковтун,Ukraine,2000-05-12,74.1,,,,,90,95,-100,,95,75,Pro Teen 18-19,F,D,Raw,No,,95,2000
1,Ganna Sivakova,Ганна Сівакова,Ukraine,1997-10-19,55.7,,,,,140,150,160,,160,56,Pro Open,F,D,Raw,No,,160,1997
1,Katerina Stolpakova,Катерина Столпакова,Ukraine,1984-08-07,70.5,,,,,-125,125,-130,,125,75,Pro Open,F,D,Raw,No,,125,1984
1,Marina Manzhenko,Марина Манженко,Ukraine,1983-09-02,50.8,,,,,90,100,105,,105,52,Pro Submasters 33-39,F,D,Raw,No,,105,1983
