Place,Name,CyrillicName,Country,BodyweightKg,Squat1Kg,Squat2Kg,Squat3Kg,Squat4Kg,Bench1Kg,Bench2Kg,Bench3Kg,Bench4Kg,Deadlift1Kg,Deadlift2Kg,Deadlift3Kg,Deadlift4Kg,TotalKg,WeightClassKg,Division,Sex,Event,Equipment,Best3SquatKg,Best3BenchKg,Best3DeadliftKg,BirthYear
1,Daniil Matvienko,Данііл Матвієнко,Ukraine,25.7,30,-35,35,,20,-25,,,45,50,55,,110,44,Amateur Youth 9,M,SBD,Wraps,35,20,55,2007
1,Dem'Yan Karandeev,Дем'Ян Карандєєв,Ukraine,50.5,40,50,55,,-25,25,-30,,50,60,70,,150,52,Amateur Sub-Teen 11-12,M,SBD,Wraps,55,25,70,2005
1,Dmitro Brindin,Дмитро Бриндін,Ukraine,42,65,70,75,,45,50,-55,,90,-95,-95,,215,44,Amateur Teen 13-15,M,SBD,Wraps,75,50,90,2002
1,Daniїl Brindin,Даніїл Бриндін,Ukraine,49.9,-100,100,110,,57.5,62.5,-65,,125,130,135,-140,307.5,52,Amateur Teen 13-15,M,SBD,Wraps,110,62.5,135,2002
1,Dmitro Zaets,Дмитро Заєць,Ukraine,55.7,120,130,-140,,60,-67.5,67.5,,130,150,157.5,,355,56,Amateur Teen 13-15,M,SBD,Wraps,130,67.5,157.5,2002
1,Vladislav Yolkin,Владислав Йолкін,Ukraine,59.15,85,90,-95,,50,55,-57.5,,105,110,112.5,,257.5,60,Amateur Teen 13-15,M,SBD,Wraps,90,55,112.5,2003
1,Oleksandr Tomashchuk,Олександр Томащук,Ukraine,67.45,100,115,-125,,-75,75,-82.5,,100,140,-150,,330,67.5,Amateur Teen 13-15,M,SBD,Wraps,115,75,140,2002
1,Nazar Tereshchenko,Назар Терещенко,Ukraine,79.5,115,120,125,,60,65,70,,130,135,137.5,,332.5,82.5,Amateur Teen 13-15,M,SBD,Wraps,125,70,137.5,2003
1,Ivan Avidenkov,Іван Авіденков,Ukraine,72.15,150,-160,-160,,100,110,120,,195,200,207.5,,477.5,75,Amateur Teen 16-17,M,SBD,Wraps,150,120,207.5,1999
1,Oles Petrenko,Олесь Петренко,Ukraine,124.05,120,130,-140,,75,80,-85,,160,170,180,,390,125,Amateur Teen 16-17,M,SBD,Wraps,130,80,180,2000
1,Vladislav Sklyarov,Владислав Скляров,Ukraine,74.9,155,175,-185,,100,-115,117.5,,182.5,202.5,212.5,,505,75,Amateur Teen 18-19,M,SBD,Wraps,175,117.5,212.5,1998
2,Miroslav Dryagin,Мирослав Дрягін,Ukraine,74,175,185,-195,,110,115,117.5,,180,192.5,-200,,495,75,Amateur Teen 18-19,M,SBD,Wraps,185,117.5,192.5,1997
1,Oleksandr Nayden,Олександр Найден,Ukraine,82.05,175,185,-190,,92.5,100,-105,,185,195,202.5,,487.5,82.5,Amateur Teen 18-19,M,SBD,Wraps,185,100,202.5,1997
2,Dmitro Gumanenko,Дмитро Гуманенко,Ukraine,81.6,130,150,-160,,80,90,-95,,-170,170,185,,425,82.5,Amateur Teen 18-19,M,SBD,Wraps,150,90,185,1999
DD,Volodimir Mashuta,Володимир Машута,Ukraine,86.2,-200,-210,-220,,-120,-125,-130,,-210,-220,-225,,,90,Amateur Teen 18-19,M,SBD,Wraps,,,,1997
DQ,Vadim Bozhik,Вадим Божик,Ukraine,63.05,-100,110,-120,,-90,-100,-100,,-150,,,,,67.5,Amateur Juniors 20-23,M,SBD,Wraps,110,,,1993
DQ,Alexandru Poiana,,Romania,65.9,170,180,-190,,-90,-90,-95,,-170,,,,,67.5,Amateur Juniors 20-23,M,SBD,Wraps,180,,,1994
1,Anatoliy Martsenyuk,Анатолій Марценюк,Ukraine,75,160,170,175,,140,150,-157.5,,180,190,200,,525,75,Amateur Juniors 20-23,M,SBD,Wraps,175,150,200,1995
2,Stepan Dolgopoliy,Степан Долгополий,Ukraine,74.7,135,145,152.5,,85,-90,92.5,,130,142.5,150,,395,75,Amateur Juniors 20-23,M,SBD,Wraps,152.5,92.5,150,1993
3,Dmitro Dudnik,Дмитро Дудник,Ukraine,73.8,125,135,-145,,90,97.5,-100,,130,145,152.5,,385,75,Amateur Juniors 20-23,M,SBD,Wraps,135,97.5,152.5,1994
1,Oleksandr Panov,Олександр Панов,Ukraine,81.6,190,200,-205,,105,115,120,,210,222.5,232.5,,552.5,82.5,Amateur Juniors 20-23,M,SBD,Wraps,200,120,232.5,1993
2,Andriy Gladiy,Андрій Гладій,Ukraine,81.7,-170,185,-200,,-110,115,-125,,180,202.5,210,,510,82.5,Amateur Juniors 20-23,M,SBD,Wraps,185,115,210,1995
1,Mikola Udovenko,Микола Удовенко,Ukraine,88.6,205,215,-225,,122.5,130,132.5,,222.5,-232.5,-240,,570,90,Amateur Juniors 20-23,M,SBD,Wraps,215,132.5,222.5,1993
1,Artem Cheberyak,Артем Чеберяк,Ukraine,109.5,-175,175,185,,110,117.5,125,,190,200,205,,515,110,Amateur Juniors 20-23,M,SBD,Wraps,185,125,205,1994
1,Dem'Yan Karandeev,Дем'Ян Карандєєв,Ukraine,50.5,40,50,55,,-25,25,-30,,50,60,70,,150,52,Amateur Open,M,SBD,Wraps,55,25,70,2005
1,Dmitro Zaets,Дмитро Заєць,Ukraine,55.7,120,130,-140,,60,-67.5,67.5,,130,150,157.5,,355,56,Amateur Open,M,SBD,Wraps,130,67.5,157.5,2002
1,Valeriy Varchuk,Валерій Варчук,Ukraine,67.4,-140,140,145,,125,135,-140,,180,190,197.5,,477.5,67.5,Amateur Open,M,SBD,Wraps,145,135,197.5,1986
1,Vladislav Sklyarov,Владислав Скляров,Ukraine,74.9,155,175,-185,,100,-115,117.5,,182.5,202.5,212.5,,505,75,Amateur Open,M,SBD,Wraps,175,117.5,212.5,1998
2,Miroslav Dryagin,Мирослав Дрягін,Ukraine,74,175,185,-195,,110,115,117.5,,180,192.5,-200,,495,75,Amateur Open,M,SBD,Wraps,185,117.5,192.5,1997
3,Vadim Doroshenko,Вадим Дорошенко,Ukraine,74.6,160,170,182.5,,100,-110,,,170,182.5,195,,477.5,75,Amateur Open,M,SBD,Wraps,182.5,100,195,1990
4,Dmitro Dudnik,Дмитро Дудник,Ukraine,73.8,125,135,-145,,90,97.5,-100,,130,145,152.5,,385,75,Amateur Open,M,SBD,Wraps,135,97.5,152.5,1994
1,Oleksandr Panov,Олександр Панов,Ukraine,81.6,190,200,-205,,105,115,120,,210,222.5,232.5,,552.5,82.5,Amateur Open,M,SBD,Wraps,200,120,232.5,1993
2,Michał Lenart,,Poland,79,180,-190,190,,-110,110,112.5,,220,232.5,240,,542.5,82.5,Amateur Open,M,SBD,Wraps,190,112.5,240,1991
3,Oleksiy Kozulin,Олексій Козулін,Ukraine,80.95,-190,190,200,,120,127.5,-132.5,,202.5,215,-232.5,,542.5,82.5,Amateur Open,M,SBD,Wraps,200,127.5,215,1980
4,Andriy Gladiy,Андрій Гладій,Ukraine,81.7,-170,185,-200,,-110,115,-125,,180,202.5,210,,510,82.5,Amateur Open,M,SBD,Wraps,185,115,210,1995
1,Ivan Kozir,Іван Козир,Ukraine,84.65,180,190,200,,165,170,175,,200,-210,210,,585,90,Amateur Open,M,SBD,Wraps,200,175,210,1986
2,Dmitro Bogomaz,Дмитро Богомаз,Ukraine,88.5,-200,200,-207.5,,130,137.5,142.5,,220,230,240,,582.5,90,Amateur Open,M,SBD,Wraps,200,142.5,240,1990
3,Pavlo Zelinskiy,Павло Зелінський,Ukraine,88.4,210,-215,-215,,140,-150,-150,,220,230,,,580,90,Amateur Open,M,SBD,Wraps,210,140,230,1991
DD,Boris Stashuk,Борис Сташук,Ukraine,88.1,-250,-250,-260,,-170,-175,-180,,-230,-250,-260,,,90,Amateur Open,M,SBD,Wraps,,,,1985
1,Maksim Zhuravel,Максим Журавель,Ukraine,97.95,210,220,225,,140,150,-157.5,,215,225,235,,610,100,Amateur Open,M,SBD,Wraps,225,150,235,1987
2,Evgeniy Omelyanovskiy,Євгеній Омельяновський,Ukraine,96.45,200,210,220,,145,150,-155,,200,215,-230,,585,100,Amateur Open,M,SBD,Wraps,220,150,215,1989
3,Andriy Tupchiy,Андрій Тупчій,Ukraine,92.5,-180,180,190,,140,150,155,,220,-235,-235,,565,100,Amateur Open,M,SBD,Wraps,190,155,220,1987
DQ,Denis Sidorov,Денис Сидоров,Ukraine,99.05,-250,-250,-250,-250,-130,,,,-225,-250,-276,,,100,Amateur Open,M,SBD,Wraps,,,,1987
1,Sergiy Bessel,Сергій Бессель,Ukraine,108.5,230,-245,245,,172.5,180,185,,230,247.5,255,,685,110,Amateur Open,M,SBD,Wraps,245,185,255,1984
2,Stanislav Poruban,Станіслав Порубан,Ukraine,105.5,222.5,235,245,,160,170,175,,235,250,-260,,670,110,Amateur Open,M,SBD,Wraps,245,175,250,1986
3,Artem Cheberyak,Артем Чеберяк,Ukraine,109.5,-175,175,185,,110,117.5,125,,190,200,205,,515,110,Amateur Open,M,SBD,Wraps,185,125,205,1994
DD,Yuriy Chlek,Юрій Члек,Ukraine,101.2,-190,-210,-230,,-140,-155,-170,,-250,-270,-290,,,110,Amateur Open,M,SBD,Wraps,,,,1990
1,Danilo Udovik,Данило Удовик,Ukraine,111.35,180,190,200,,112.5,122.5,132.5,,200,215,220,,552.5,125,Amateur Open,M,SBD,Wraps,200,132.5,220,1992
2,Oleksandr Foshchanko,Олександр Фощанко,Ukraine,116,150,165,180,,105,115,130,,190,210,-245,-245,520,125,Amateur Open,M,SBD,Wraps,180,130,210,1989
1,Evgen Gavrilin,Євген Гаврилін,Ukraine,148.3,230,245,-260,,180,190,-200,,250,265,-280,,700,140+,Amateur Open,M,SBD,Wraps,245,190,265,1982
1,Oleksiy Kozulin,Олексій Козулін,Ukraine,80.95,-190,190,200,,120,127.5,-132.5,,202.5,215,-232.5,,542.5,82.5,Amateur Submasters 33-39,M,SBD,Wraps,200,127.5,215,1980
1,Oleksandr Drobilko,Олександр Дробілко,Ukraine,84.6,150,160,170,,105,110,-112.5,,205,215,220,,500,90,Amateur Masters 40-44,M,SBD,Wraps,170,110,220,1972
2,Sergiy Shevchenko,Сергій Шевченко,Ukraine,89.55,-155,160,-175,,100,107.5,-112.5,,165,180,-185,,447.5,90,Amateur Masters 40-44,M,SBD,Wraps,160,107.5,180,1973
1,Mikhaylo Burkov,Михайло Бурков,Ukraine,80.1,170,-180,180,,105,110,-112.5,,170,180,187.5,,477.5,82.5,Amateur Masters 50-54,M,SBD,Wraps,180,110,187.5,1963
1,Boris Khoroshiy,Борис Хороший,Ukraine,107,175,190,200,,110,-117.5,-117.5,,175,190,200,,510,110,Amateur Masters 50-54,M,SBD,Wraps,200,110,200,1966
DQ,Volodimir Morozevich,Володимир Морозевич,Ukraine,64.6,-100,-100,-100,,-70,,,,-100,,,,,67.5,Amateur Masters 55-59,M,SBD,Wraps,,,,1958
DQ,Igor Zubarev,Ігор Зубарєв,Ukraine,72,-50,-50,-50,,-35,,,,-80,,,,,75,Amateur Masters 75-79,M,SBD,Wraps,,,,1941
1,Ruslan Gribanov,Руслан Грибанов,Ukraine,72.3,110,120,130,,100,-110,-110,,115,125,135,,365,75,Amateur Military/Fire/Police,M,SBD,Wraps,130,100,135,1991
1,Oleksandr Chorniy,Олександр Чорний,Ukraine,81.7,190,200,-205,,130,140,142.5,,205,215,-232.5,,557.5,82.5,Amateur Military/Fire/Police,M,SBD,Wraps,200,142.5,215,1989
2,Oleksandr Panov,Олександр Панов,Ukraine,81.6,190,200,-205,,105,115,120,,210,222.5,232.5,,552.5,82.5,Amateur Military/Fire/Police,M,SBD,Wraps,200,120,232.5,1993
3,Mikhaylo Burkov,Михайло Бурков,Ukraine,80.1,170,-180,180,,105,110,-112.5,,170,180,187.5,,477.5,82.5,Amateur Military/Fire/Police,M,SBD,Wraps,180,110,187.5,1963
1,Maksim Zhuravel,Максим Журавель,Ukraine,97.95,210,220,225,,140,150,-157.5,,215,225,235,,610,100,Amateur Military/Fire/Police,M,SBD,Wraps,225,150,235,1987
1,Viktoriya Druzyaka,Вікторія Друзяка,Ukraine,46.55,-95,95,102.5,,50,55,57.5,,-95,95,105,,265,48,Amateur Teen 18-19,F,SBD,Wraps,102.5,57.5,105,1998
2,Ganna Sivakova,Ганна Сівакова,Ukraine,46.5,85,-92.5,-92.5,,-40,42.5,-45,,85,92.5,95,,222.5,48,Amateur Teen 18-19,F,SBD,Wraps,85,42.5,95,1997
1,Roksolana Busko,Роксолана Бусько,Ukraine,51,85,90,-92.5,,45,47.5,-50,,95,100,105,,242.5,52,Amateur Juniors 20-23,F,SBD,Wraps,90,47.5,105,1996
2,Olena Batchenko,Олена Батченко,Ukraine,52,60,65,-70,,30,40,42.5,,65,75,77.5,,185,52,Amateur Juniors 20-23,F,SBD,Wraps,65,42.5,77.5,1994
1,Katerina Protolyuk,Катерина Протолюк,Ukraine,54.05,-90,95,100,,55,-60,-60,,90,100,-105,,255,56,Amateur Juniors 20-23,F,SBD,Wraps,100,55,100,1996
2,Valentina Yaremchuk,Валентина Яремчук,Ukraine,54,87.5,92.5,-97.5,,37.5,40,42.5,,85,92.5,-100,,227.5,56,Amateur Juniors 20-23,F,SBD,Wraps,92.5,42.5,92.5,1996
1,Yuliya Manko,Юлія Манько,Ukraine,62.6,-95,95,102.5,,50,55,-57.5,,100,112.5,117.5,,275,67.5,Amateur Juniors 20-23,F,SBD,Wraps,102.5,55,117.5,1993
1,Tetyana Stepatska,Тетяна Степацька,Ukraine,48,80,92.5,-100,,37.5,42.5,-45,,70,-85,-85,,205,48,Amateur Open,F,SBD,Wraps,92.5,42.5,70,1989
1,Irina Kornelyuk,Ірина Корнелюк,Ukraine,52,85,90,95,,52.5,-55,57.5,,105,-112.5,-112.5,,257.5,52,Amateur Open,F,SBD,Wraps,95,57.5,105,1984
2,Marina Matvienko,Марина Матвієнко,Ukraine,51.6,90,-95,-95,,57.5,62.5,-65,,100,-110,,,252.5,52,Amateur Open,F,SBD,Wraps,90,62.5,100,1989
3,Marina Rolando,Марина Роландо,Ukraine,50.9,45,50,55,,25,30,-35,,60,65,70,,155,52,Amateur Open,F,SBD,Wraps,55,30,70,1988
1,Tetyana Grigor'eva,Тетяна Григор'Єва,Ukraine,55.3,80,90,95,,-40,-45,45,,120,130,-140,,270,56,Amateur Open,F,SBD,Wraps,95,45,130,1980
2,Katerina Protolyuk,Катерина Протолюк,Ukraine,54.05,-90,95,100,,55,-60,-60,,90,100,-105,,255,56,Amateur Open,F,SBD,Wraps,100,55,100,1996
3,Nadiya Tishchenko,Надія Тищенко,Ukraine,56,62.5,67.5,72.5,,37.5,42.5,47.5,,90,105,-117.5,,225,56,Amateur Open,F,SBD,Wraps,72.5,47.5,105,1985
1,Nataliya Sokurenko,Наталія Сокуренко,Ukraine,58.8,-125,125,130,,-70,70,72.5,,130,140,145,,347.5,60,Amateur Open,F,SBD,Wraps,130,72.5,145,1981
2,Yuliya Malinovska,Юлія Маліновська,Ukraine,60,115,120,127.5,,55,-62.5,-65,,120,130,140,,322.5,60,Amateur Open,F,SBD,Wraps,127.5,55,140,1984
3,Kapitalina Gushchina,Капітоліна Гущина,Ukraine,59.6,65,80,85,,47.5,55,-57.5,,90,105,115,,255,60,Amateur Open,F,SBD,Wraps,85,55,115,1982
4,Yuliya Chumaeva,Юлія Чумаєва,Ukraine,60,50,65,75,,42.5,-47.5,-47.5,,95,105,110,,227.5,60,Amateur Open,F,SBD,Wraps,75,42.5,110,1973
1,Nataliya Mavdrik,Наталія Мавдрик,Ukraine,65.6,140,-145,145,,90,92.5,-95,,150,152.5,-155,,390,67.5,Amateur Open,F,SBD,Wraps,145,92.5,152.5,1984
2,Oksana Muzika,Оксана Музика,Ukraine,67.2,85,95,100,,60,65,67.5,,105,-115,-115,,272.5,67.5,Amateur Open,F,SBD,Wraps,100,67.5,105,1969
DQ,Viktoriya Oliynik,Вікторія Олійник,Ukraine,67.5,-95,100,-110,,-50,-50,-50,,-115,,,,,67.5,Amateur Open,F,SBD,Wraps,100,,,1968
1,Irina Kornelyuk,Ірина Корнелюк,Ukraine,52,85,90,95,,52.5,-55,57.5,,105,-112.5,-112.5,,257.5,52,Amateur Submasters 33-39,F,SBD,Wraps,95,57.5,105,1984
1,Tetyana Grigor'eva,Тетяна Григор'Єва,Ukraine,55.3,80,90,95,,-40,-45,45,,120,130,-140,,270,56,Amateur Submasters 33-39,F,SBD,Wraps,95,45,130,1980
1,Kapitalina Gushchina,Капітоліна Гущина,Ukraine,59.6,65,80,85,,47.5,55,-57.5,,90,105,115,,255,60,Amateur Submasters 33-39,F,SBD,Wraps,85,55,115,1982
1,Tetyana Khomyak,Тетяна Хомяк,Ukraine,78,85,95,100,,55,65,67.5,,90,105,115,,282.5,82.5,Amateur Submasters 33-39,F,SBD,Wraps,100,67.5,115,1979
1,Yuliya Chumaeva,Юлія Чумаєва,Ukraine,60,50,65,75,,42.5,-47.5,-47.5,,95,105,110,,227.5,60,Amateur Masters 40-44,F,SBD,Wraps,75,42.5,110,1973
1,Oksana Muzika,Оксана Музика,Ukraine,67.2,85,95,100,,60,65,67.5,,105,-115,-115,,272.5,67.5,Amateur Masters 45-49,F,SBD,Wraps,100,67.5,105,1969
DQ,Viktoriya Oliynik,Вікторія Олійник,Ukraine,67.5,-95,100,-110,,-50,-50,-50,,-115,,,,,67.5,Amateur Masters 45-49,F,SBD,Wraps,100,,,1968
DQ,Denis Okhrimenko,Денис Охріменко,Ukraine,65,-100,-105,105,,-75,-75,-75,,-115,,,,,67.5,Pro Teen 13-15,M,SBD,Wraps,105,,,2001
1,Andriy Boyko,Андрій Бойко,Ukraine,73.15,200,210,-220,,100,-110,-110,,200,-210,-212.5,,510,75,Pro Juniors 20-23,M,SBD,Wraps,210,100,200,1993
1,Maksim Boyko,Максим Бойко,Ukraine,89.4,300,-315,,,190,-200,-200,,230,240,250,,740,90,Pro Juniors 20-23,M,SBD,Wraps,300,190,250,1996
1,Andriy Boyko,Андрій Бойко,Ukraine,73.15,200,210,-220,,100,-110,-110,,200,-210,-212.5,,510,75,Pro Open,M,SBD,Wraps,210,100,200,1993
2,Sergiy Lazebniy,Сергій Лазебний,Ukraine,74.7,-115,-115,115,,-100,100,-102.5,,125,132.5,-135,,347.5,75,Pro Open,M,SBD,Wraps,115,100,132.5,1992
1,Andriy Bodrov,Андрій Бодров,Ukraine,81.1,-260,260,-280,,135,142.5,150,,240,-255,257.5,,667.5,82.5,Pro Open,M,SBD,Wraps,260,150,257.5,1992
1,Oleksii Melnyk,Олексій Мельник,Ukraine,89.2,320,-345,-345,,185,192.5,-200,,-280,280,310,-320,822.5,90,Pro Open,M,SBD,Wraps,320,192.5,310,1990
2,Maksim Boyko,Максим Бойко,Ukraine,89.4,300,-315,,,190,-200,-200,,230,240,250,,740,90,Pro Open,M,SBD,Wraps,300,190,250,1996
3,Mikola Tishuk,Микола Тишук,Ukraine,88.3,-265,265,-270,,160,165,170,,270,-280,-280,,705,90,Pro Open,M,SBD,Wraps,265,170,270,1992
1,Viktor Rublyov,Віктор Рубльов,Ukraine,97.5,240,260,-270,,170,-185,-185,,250,265,275,,705,100,Pro Open,M,SBD,Wraps,260,170,275,1975
2,Mikola Matvienko,Микола Матвієнко,Ukraine,96.15,240,250,-255,,150,160,170,,230,240,250,,670,100,Pro Open,M,SBD,Wraps,250,170,250,1984
3,Pavlo Slichenko,Павло Сліченко,Ukraine,96.4,235,240,-250,,145,155,160,,240,255,262.5,,662.5,100,Pro Open,M,SBD,Wraps,240,160,262.5,1982
DQ,Oleksandr Glushchenko,Олександр Глущенко,Ukraine,110,-300,-300,-300,,-200,,,,-300,,,,,110,Pro Open,M,SBD,Wraps,,,,1984
DQ,Evgeniy Pavlov #10,Євгеній Павлов,Ukraine,120.65,-330,-340,-345,,-145,,,,-250,,,,,125,Pro Open,M,SBD,Wraps,,,,1976
1,Oleg Cherchel,,Moldova,95.75,210,230,-240,,110,120,125,,210,220,-225,,575,100,Pro Submasters 33-39,M,SBD,Wraps,230,125,220,1978
1,Oleksandr Popovich,Олександр Попович,Ukraine,75,150,-170,180,,125,137.5,147.5,150,170,185,195,,522.5,75,Pro Masters 40-44,M,SBD,Wraps,180,147.5,195,1972
1,Viktor Rublyov,Віктор Рубльов,Ukraine,97.5,240,260,-270,,170,-185,-185,,250,265,275,,705,100,Pro Masters 40-44,M,SBD,Wraps,260,170,275,1975
1,Dmitro Chebakov,Дмитро Чебаков,Ukraine,103.1,170,185,-200,,150,160,170,,170,185,-200,,540,110,Pro Masters 40-44,M,SBD,Wraps,185,170,185,1973
1,Vasil Stelmakh,Василь Стельмах,Ukraine,117.85,240,250,-270,,170,175,,,240,250,260,,685,125,Pro Masters 40-44,M,SBD,Wraps,250,175,260,1972
DQ,Evgeniy Pavlov #10,Євгеній Павлов,Ukraine,120.65,-330,-340,-345,,-145,,,,-250,,,,,125,Pro Masters 40-44,M,SBD,Wraps,,,,1976
1,Oleksandr Molodid,Олександр Молодід,Ukraine,94.7,-115,115,-120,,85,90,95,,165,170,175,,385,100,Pro Masters 45-49,M,SBD,Wraps,115,95,175,1969
1,Andriy Boyko,Андрій Бойко,Ukraine,73.15,200,210,-220,,100,-110,-110,,200,-210,-212.5,,510,75,Pro Military/Fire/Police,M,SBD,Wraps,210,100,200,1993
1,Anastasiya Martim'Yanova,Анастасія Мартим'Янова,Ukraine,81.3,135,145,-152.5,,-67.5,-67.5,67.5,,145,152.5,160,,372.5,82.5,Pro Teen 18-19,F,SBD,Wraps,145,67.5,160,1997
1,Olena Razuvaeva,Олена Разуваєва,Ukraine,67.4,-145,-150,150,,72.5,-80,80,,130,140,150,,380,67.5,Pro Open,F,SBD,Wraps,150,80,150,1988
1,Marina Soltanova,Марина Солтанова,Ukraine,75,145,157.5,-165,,90,97.5,-105,,167.5,-177.5,-177.5,,422.5,75,Pro Open,F,SBD,Wraps,157.5,97.5,167.5,1985
1,Vitaliy Menchuk,Віталій Менчук,Ukraine,90,-220,-220,220,,185,200,215,,200,215,222.5,,657.5,90,Amateur Teen 18-19,M,SBD,Multi-ply,220,215,222.5,1998
1,Yuriy Lutsenko #1,Юрій Луценко,Ukraine,26,,,,,20,22.5,25,,,,,,25,44,Amateur Youth 8,M,B,Raw,,25,,2009
1,Alan Kvyatkovskiy,Алан Квятковський,Ukraine,49.6,,,,,-42.5,45,-47.5,,,,,,45,52,Amateur Sub-Teen 11-12,M,B,Raw,,45,,2005
2,Dem'Yan Karandeev,Дем'Ян Карандєєв,Ukraine,50.5,,,,,-25,25,-30,,,,,,25,52,Amateur Sub-Teen 11-12,M,B,Raw,,25,,2005
1,Vitaliy Dragushchak,Віталій Драгущак,Ukraine,50.5,,,,,57.5,-62.5,-62.5,,,,,,57.5,52,Amateur Teen 13-15,M,B,Raw,,57.5,,2001
1,Dmitro Sitnikov,Дмитро Ситніков,Ukraine,55.4,,,,,50,-55,-57.5,,,,,,50,56,Amateur Teen 13-15,M,B,Raw,,50,,2002
1,Oleksandr Tomashchuk,Олександр Томащук,Ukraine,67.45,,,,,-75,75,-82.5,,,,,,75,67.5,Amateur Teen 13-15,M,B,Raw,,75,,2002
2,Illya Kuzma,Ілля Кузьма,Ukraine,67.2,,,,,70,-80,-80,,,,,,70,67.5,Amateur Teen 13-15,M,B,Raw,,70,,2002
1,Denis Maletskiy,Денис Малецький,Ukraine,65.3,,,,,110,115,-120,,,,,,115,67.5,Amateur Teen 16-17,M,B,Raw,,115,,2000
1,Ivan Avidenkov,Іван Авіденков,Ukraine,72.15,,,,,100,110,120,,,,,,120,75,Amateur Teen 16-17,M,B,Raw,,120,,1999
2,Oleksandr Ovcharenko,Олександр Овчаренко,Ukraine,74.95,,,,,95,-100,-100,,,,,,95,75,Amateur Teen 16-17,M,B,Raw,,95,,2001
1,Dmitro Novikov,Дмитро Новіков,Ukraine,80.25,,,,,132.5,137.5,-140,,,,,,137.5,82.5,Amateur Teen 16-17,M,B,Raw,,137.5,,1999
1,Pavlo Pidtoptaniy,Павло Підтоптаний,Ukraine,71.4,,,,,122.5,127.5,-132.5,,,,,,127.5,75,Amateur Teen 18-19,M,B,Raw,,127.5,,1997
2,Vasil Kovalchuk,Василь Ковальчук,Ukraine,73.45,,,,,112.5,117.5,-125,,,,,,117.5,75,Amateur Teen 18-19,M,B,Raw,,117.5,,1999
1,Oleksandr Nayden,Олександр Найден,Ukraine,82.05,,,,,92.5,100,-105,,,,,,100,82.5,Amateur Teen 18-19,M,B,Raw,,100,,1997
2,Dmitro Gumanenko,Дмитро Гуманенко,Ukraine,81.6,,,,,80,90,-95,,,,,,90,82.5,Amateur Teen 18-19,M,B,Raw,,90,,1999
DQ,Kostyantin Kirik,Костянтин Кирик,Ukraine,82.3,,,,,-115,-115,-115,,,,,,,82.5,Amateur Teen 18-19,M,B,Raw,,,,1997
1,Mikhaylo Malkush,Михайло Малкуш,Ukraine,58.25,,,,,120,125,,,,,,,125,60,Amateur Juniors 20-23,M,B,Raw,,125,,1996
1,Petro Kalinovskiy,Петро Калиновський,Ukraine,66.7,,,,,112.5,120,-125,,,,,,120,67.5,Amateur Juniors 20-23,M,B,Raw,,120,,1996
2,Vadim Bozhik,Вадим Божик,Ukraine,63.05,,,,,-80,85,-100,,,,,,85,67.5,Amateur Juniors 20-23,M,B,Raw,,85,,1993
1,Anatoliy Martsenyuk,Анатолій Марценюк,Ukraine,75,,,,,140,150,-157.5,,,,,,150,75,Amateur Juniors 20-23,M,B,Raw,,150,,1995
2,Taras Polishchuk,Тарас Поліщук,Ukraine,73.8,,,,,120,125,-130,,,,,,125,75,Amateur Juniors 20-23,M,B,Raw,,125,,1996
1,Nikita Krutik,Нікіта Крутик,Ukraine,82.15,,,,,130,135,140,,,,,,140,82.5,Amateur Juniors 20-23,M,B,Raw,,140,,1994
2,Mikola Yur'Ev,Микола Юр'Єв,Ukraine,80.5,,,,,122.5,127.5,132.5,,,,,,132.5,82.5,Amateur Juniors 20-23,M,B,Raw,,132.5,,1995
3,Oleksandr Panov,Олександр Панов,Ukraine,81.6,,,,,105,115,120,,,,,,120,82.5,Amateur Juniors 20-23,M,B,Raw,,120,,1993
1,Oleg Melnichuk,Олег Мельничук,Ukraine,88.6,,,,,155,160,-162.5,,,,,,160,90,Amateur Juniors 20-23,M,B,Raw,,160,,1994
2,Mikola Udovenko,Микола Удовенко,Ukraine,88.6,,,,,122.5,130,132.5,,,,,,132.5,90,Amateur Juniors 20-23,M,B,Raw,,132.5,,1993
1,Nazar Korzhak,Назар Коржак,Ukraine,98.65,,,,,155,-162.5,165,,,,,,165,100,Amateur Juniors 20-23,M,B,Raw,,165,,1993
1,Yuriy Lutsenko #1,Юрій Луценко,Ukraine,26,,,,,20,22.5,25,,,,,,25,44,Amateur Open,M,B,Raw,,25,,2009
1,Dem'Yan Karandeev,Дем'Ян Карандєєв,Ukraine,50.5,,,,,-25,25,-30,,,,,,25,52,Amateur Open,M,B,Raw,,25,,2005
1,Mikhaylo Malkush,Михайло Малкуш,Ukraine,58.25,,,,,120,125,,,,,,,125,60,Amateur Open,M,B,Raw,,125,,1996
1,Sergiy Melnik,Сергій Мельник,Ukraine,66.8,,,,,130,135,-137.5,,,,,,135,67.5,Amateur Open,M,B,Raw,,135,,1982
2,Valeriy Varchuk,Валерій Варчук,Ukraine,67.4,,,,,125,135,-140,,,,,,135,67.5,Amateur Open,M,B,Raw,,135,,1986
3,Vyacheslav Batyuk,Вячеслав Батюк,Ukraine,63.55,,,,,110,115,-120,,,,,,115,67.5,Amateur Open,M,B,Raw,,115,,1984
1,Maksim Obertas,Максим Обертас,Ukraine,74.5,,,,,-137.5,145,150,,,,,,150,75,Amateur Open,M,B,Raw,,150,,1988
2,Sergiy Goncharuk,Сергій Гончарук,Ukraine,74.9,,,,,135,140,-142.5,,,,,,140,75,Amateur Open,M,B,Raw,,140,,1978
3,Pavlo Pidtoptaniy,Павло Підтоптаний,Ukraine,71.4,,,,,122.5,127.5,-132.5,,,,,,127.5,75,Amateur Open,M,B,Raw,,127.5,,1997
1,Oleksandr Klimenko #1,Олександр Кліменко,Ukraine,80.65,,,,,140,145,150,,,,,,150,82.5,Amateur Open,M,B,Raw,,150,,1990
2,Nikita Krutik,Нікіта Крутик,Ukraine,82.15,,,,,130,135,140,,,,,,140,82.5,Amateur Open,M,B,Raw,,140,,1994
3,Oleksandr Panov,Олександр Панов,Ukraine,81.6,,,,,105,115,120,,,,,,120,82.5,Amateur Open,M,B,Raw,,120,,1993
DD,Viktor Blakitniy,Віктор Блакитний,Ukraine,80.85,,,,,-155,-165,-175,,,,,,,82.5,Amateur Open,M,B,Raw,,,,1981
1,Ivan Kozir,Іван Козир,Ukraine,84.65,,,,,165,170,175,,,,,,175,90,Amateur Open,M,B,Raw,,175,,1986
2,Artem Bogdan,Артем Богдан,Ukraine,89,,,,,150,157.5,170,,,,,,170,90,Amateur Open,M,B,Raw,,170,,1989
3,Vitaliy Meserenko,Віталій Месеренко,Ukraine,89.3,,,,,155,162.5,-167.5,,,,,,162.5,90,Amateur Open,M,B,Raw,,162.5,,1976
4,Oleg Melnichuk,Олег Мельничук,Ukraine,88.6,,,,,155,160,-162.5,,,,,,160,90,Amateur Open,M,B,Raw,,160,,1994
5,Vitaliy Demedyuk,Віталій Демедюк,Ukraine,89,,,,,152.5,157.5,-172.5,,,,,,157.5,90,Amateur Open,M,B,Raw,,157.5,,1989
6,Yuriy Kuzava,Юрій Кузава,Ukraine,86.4,,,,,135,-140,140,,,,,,140,90,Amateur Open,M,B,Raw,,140,,1992
7,Yuriy Filonenko,Юрій Філоненко,Ukraine,88.65,,,,,127.5,-132.5,135,,,,,,135,90,Amateur Open,M,B,Raw,,135,,1954
DD,Boris Stashuk,Борис Сташук,Ukraine,88.1,,,,,-170,-175,-180,,,,,,,90,Amateur Open,M,B,Raw,,,,1985
1,Andriy Petruk,Андрій Петрук,Ukraine,96.6,,,,,175,185,187.5,,,,,,187.5,100,Amateur Open,M,B,Raw,,187.5,,1975
2,Mikola Gorbachov,Микола Горбачов,Ukraine,92.75,,,,,160,165,-170,,,,,,165,100,Amateur Open,M,B,Raw,,165,,1962
3,Oleksandr Gavrilyuk,Олександр Гаврилюк,Ukraine,95.25,,,,,150,-157.5,-157.5,,,,,,150,100,Amateur Open,M,B,Raw,,150,,1980
4,Evgen Filima,Євген Филима,Ukraine,94.2,,,,,125,130,135,,,,,,135,100,Amateur Open,M,B,Raw,,135,,1990
1,Sergiy Bessel,Сергій Бессель,Ukraine,108.5,,,,,172.5,180,185,,,,,,185,110,Amateur Open,M,B,Raw,,185,,1984
DD,Yuriy Chlek,Юрій Члек,Ukraine,101.2,,,,,-140,-155,-170,,,,,,,110,Amateur Open,M,B,Raw,,,,1990
DD,Andriy Tarnovskiy,Андрій Тарновський,Ukraine,108.15,,,,,-175,-180,-185,,,,,,,110,Amateur Open,M,B,Raw,,,,1989
1,Danilo Udovik,Данило Удовик,Ukraine,111.35,,,,,112.5,122.5,137.5,,,,,,137.5,125,Amateur Open,M,B,Raw,,137.5,,1992
1,Sergiy Goncharuk,Сергій Гончарук,Ukraine,74.9,,,,,135,140,-142.5,,,,,,140,75,Amateur Submasters 33-39,M,B,Raw,,140,,1978
1,Lyubomir Kogut,Любомир Когут,Ukraine,82.3,,,,,120,132.5,-140,,,,,,132.5,82.5,Amateur Submasters 33-39,M,B,Raw,,132.5,,1983
1,Yaroslav Yurkiv,Ярослав Юрків,Ukraine,88.5,,,,,130,140,-157.5,,,,,,140,90,Amateur Submasters 33-39,M,B,Raw,,140,,1983
1,Oleksandr Gavrilyuk,Олександр Гаврилюк,Ukraine,95.25,,,,,150,-157.5,-157.5,,,,,,150,100,Amateur Submasters 33-39,M,B,Raw,,150,,1980
1,Evgen Sitnikov,Євген Ситніков,Ukraine,72.8,,,,,95,102.5,-110,,,,,,102.5,75,Amateur Masters 40-44,M,B,Raw,,102.5,,1973
1,Artem Sukhovarov,Артем Суховаров,Ukraine,80.9,,,,,127.5,-132.5,132.5,,,,,,132.5,82.5,Amateur Masters 40-44,M,B,Raw,,132.5,,1976
1,Vitaliy Meserenko,Віталій Месеренко,Ukraine,89.3,,,,,155,162.5,-167.5,,,,,,162.5,90,Amateur Masters 40-44,M,B,Raw,,162.5,,1976
1,Andriy Petruk,Андрій Петрук,Ukraine,96.6,,,,,175,185,187.5,,,,,,187.5,100,Amateur Masters 40-44,M,B,Raw,,187.5,,1975
2,Volodimir Ratushniy,Володимир Ратушний,Ukraine,99.4,,,,,145,150,157.5,,,,,,157.5,100,Amateur Masters 40-44,M,B,Raw,,157.5,,1974
3,Vitaliy Shikun,Віталій Шикун,Ukraine,99.35,,,,,147.5,152.5,155,,,,,,155,100,Amateur Masters 40-44,M,B,Raw,,155,,1974
4,Valentin Slutskiy,Валентин Слуцький,Ukraine,100,,,,,135,145,-155,,,,,,145,100,Amateur Masters 40-44,M,B,Raw,,145,,1973
1,Oleksandr Slutskiy,Олександр Слуцький,Ukraine,118.9,,,,,170,180,190,,,,,,190,125,Amateur Masters 40-44,M,B,Raw,,190,,1975
1,Mikola Grigorovich,Микола Григорович,Ukraine,94.15,,,,,120,125,-130,,,,,,125,100,Amateur Masters 45-49,M,B,Raw,,125,,1969
1,Igor Chumak,Ігор Чумак,Ukraine,70,,,,,95,105,-110,,,,,,105,75,Amateur Masters 50-54,M,B,Raw,,105,,1965
1,Mikola Gorbachov,Микола Горбачов,Ukraine,92.75,,,,,160,165,-170,,,,,,165,100,Amateur Masters 50-54,M,B,Raw,,165,,1962
1,Vitaliy Filonenko,Віталій Філоненко,Ukraine,102.45,,,,,132.5,137.5,-140,,,,,,137.5,110,Amateur Masters 50-54,M,B,Raw,,137.5,,1964
1,Volodimir Morozevich,Володимир Морозевич,Ukraine,64.9,,,,,50,60,-70,,,,,,60,67.5,Amateur Masters 55-59,M,B,Raw,,60,,1958
1,Yuriy Filonenko,Юрій Філоненко,Ukraine,88.65,,,,,127.5,-132.5,135,,,,,,135,90,Amateur Masters 60-64,M,B,Raw,,135,,1954
1,Igor Zubarev,Ігор Зубарєв,Ukraine,72,,,,,35,-40,40,,,,,,40,75,Amateur Masters 75-79,M,B,Raw,,40,,1941
1,Oleksandr Panov,Олександр Панов,Ukraine,81.6,,,,,105,115,120,,,,,,120,82.5,Amateur Military/Fire/Police,M,B,Raw,,120,,1993
1,Vitaliy Filonenko,Віталій Філоненко,Ukraine,102.45,,,,,132.5,137.5,-140,,,,,,137.5,110,Amateur Military/Fire/Police,M,B,Raw,,137.5,,1964
1,Viktoriya Druzyaka,Вікторія Друзяка,Ukraine,46.55,,,,,50,55,57.5,,,,,,57.5,48,Amateur Teen 18-19,F,B,Raw,,57.5,,1998
2,Yuliya Mukha,Юлія Муха,Ukraine,48,,,,,37.5,42.5,50,,,,,,50,48,Amateur Teen 18-19,F,B,Raw,,50,,1999
3,Ganna Sivakova,Ганна Сівакова,Ukraine,46.5,,,,,-40,42.5,-45,,,,,,42.5,48,Amateur Teen 18-19,F,B,Raw,,42.5,,1997
1,Mariya Soltisyak,Марія Солтисяк,Ukraine,56,,,,,45,50,-52.5,,,,,,50,56,Amateur Teen 18-19,F,B,Raw,,50,,1998
1,Irina Galayda,Ірина Галайда,Ukraine,53.05,,,,,52.5,57.5,62.5,,,,,,62.5,56,Amateur Juniors 20-23,F,B,Raw,,62.5,,1994
2,Katerina Protolyuk,Катерина Протолюк,Ukraine,54.05,,,,,55,-60,-60,,,,,,55,56,Amateur Juniors 20-23,F,B,Raw,,55,,1996
1,Nadiya Tishchenko,Надія Тищенко,Ukraine,66.4,,,,,90,-95,-95,,,,,,90,67.5,Amateur Juniors 20-23,F,B,Raw,,90,,1993
1,Renata Zapała,,Poland,74.2,,,,,55,-65,-65,,,,,,55,75,Amateur Juniors 20-23,F,B,Raw,,55,,1994
1,Tetyana Stepatska,Тетяна Степацька,Ukraine,48,,,,,37.5,42.5,-45,,,,,,42.5,48,Amateur Open,F,B,Raw,,42.5,,1989
1,Nataliya Melnichuk,Наталія Мельничук,Ukraine,52,,,,,67.5,70,-72.5,,,,,,70,52,Amateur Open,F,B,Raw,,70,,1975
2,Marina Matvienko,Марина Матвієнко,Ukraine,51.6,,,,,57.5,62.5,-65,,,,,,62.5,52,Amateur Open,F,B,Raw,,62.5,,1989
1,Armine Sargsyan,Арміне Саргсян,Ukraine,56,,,,,60,-65,65,,,,,,65,56,Amateur Open,F,B,Raw,,65,,1981
2,Irina Galayda,Ірина Галайда,Ukraine,53.05,,,,,52.5,57.5,62.5,,,,,,62.5,56,Amateur Open,F,B,Raw,,62.5,,1994
3,Katerina Protolyuk,Катерина Протолюк,Ukraine,54.05,,,,,55,-60,-60,,,,,,55,56,Amateur Open,F,B,Raw,,55,,1996
1,Nataliya Sokurenko,Наталія Сокуренко,Ukraine,58.8,,,,,-70,70,72.5,,,,,,72.5,60,Amateur Open,F,B,Raw,,72.5,,1981
2,Alla Kasyanyuk,Алла Касянюк,Ukraine,58.6,,,,,-50,50,60,,,,,,60,60,Amateur Open,F,B,Raw,,60,,1978
3,Yuliya Malinovska,Юлія Маліновська,Ukraine,60,,,,,55,-62.5,-65,,,,,,55,60,Amateur Open,F,B,Raw,,55,,1984
4,Joanna Gawron,,Poland,57.7,,,,,40,45,50,,,,,,50,60,Amateur Open,F,B,Raw,,50,,1993
1,Nataliya Mavdrik,Наталія Мавдрик,Ukraine,65.6,,,,,90,92.5,-95,,,,,,92.5,67.5,Amateur Open,F,B,Raw,,92.5,,1984
2,Nadiya Tishchenko,Надія Тищенко,Ukraine,66.4,,,,,90,-95,-95,,,,,,90,67.5,Amateur Open,F,B,Raw,,90,,1993
3,Tetyana Shavidze,Тетяна Шавідзе,Ukraine,63.4,,,,,80,-82.5,-82.5,,,,,,80,67.5,Amateur Open,F,B,Raw,,80,,1977
4,Oksana Muzika,Оксана Музика,Ukraine,67.2,,,,,60,65,67.5,,,,,,67.5,67.5,Amateur Open,F,B,Raw,,67.5,,1969
5,Liana Kapitula,Ліана Капітула,Ukraine,61,,,,,60,65,-67.5,,,,,,65,67.5,Amateur Open,F,B,Raw,,65,,1988
6,Anna Ilїna,Анна Ільїна,Ukraine,66.75,,,,,-57.5,60,-62.5,,,,,,60,67.5,Amateur Open,F,B,Raw,,60,,1992
7,Sofiya Smila,Софія Сміла,Ukraine,64.2,,,,,52.5,57.5,-62.5,,,,,,57.5,67.5,Amateur Open,F,B,Raw,,57.5,,1989
8,Marina Yavorovska,Марина Яворовська,Ukraine,66.2,,,,,45,-47.5,47.5,,,,,,47.5,67.5,Amateur Open,F,B,Raw,,47.5,,1968
1,Tetyana Fomenko,Тетяна Фоменко,Ukraine,99.8,,,,,-45,-45,45,,,,,,45,100,Amateur Open,F,B,Raw,,45,,1987
1,Armine Sargsyan,Арміне Саргсян,Ukraine,56,,,,,60,-65,65,,,,,,65,56,Amateur Submasters 33-39,F,B,Raw,,65,,1981
1,Tetyana Shavidze,Тетяна Шавідзе,Ukraine,63.4,,,,,80,-82.5,-82.5,,,,,,80,67.5,Amateur Submasters 33-39,F,B,Raw,,80,,1977
2,Svitlana Plakhtieva-Potebnya,Світлана Плахтієва-Потебня,Ukraine,62.3,,,,,50,-52.5,-55,,,,,,50,67.5,Amateur Submasters 33-39,F,B,Raw,,50,,1982
1,Nataliya Melnichuk,Наталія Мельничук,Ukraine,52,,,,,67.5,70,-72.5,,,,,,70,52,Amateur Masters 40-44,F,B,Raw,,70,,1975
1,Viktoriya Ryabkova,Вікторія Рябкова,Ukraine,57,,,,,45,-50,-50,,,,,,45,60,Amateur Masters 40-44,F,B,Raw,,45,,1975
1,Oksana Muzika,Оксана Музика,Ukraine,67.2,,,,,60,65,67.5,,,,,,67.5,67.5,Amateur Masters 45-49,F,B,Raw,,67.5,,1969
2,Marina Yavorovska,Марина Яворовська,Ukraine,66.2,,,,,45,-47.5,47.5,,,,,,47.5,67.5,Amateur Masters 45-49,F,B,Raw,,47.5,,1968
1,Oleg Mikhalskiy,Олег Михальський,Ukraine,36.7,,,,,47.5,-52.5,-52.5,,,,,,47.5,44,Pro Sub-Teen 11-12,M,B,Raw,,47.5,,2004
1,Vladislav Pavlov,Владислав Павлов,Ukraine,55.6,,,,,60,65,-70,,,,,,65,56,Pro Sub-Teen 11-12,M,B,Raw,,65,,2004
1,Bogdan Reznikov,Богдан Резніков,Ukraine,96.4,,,,,180,-190,190,,,,,,190,100,Pro Teen 18-19,M,B,Raw,,190,,1998
1,Viktor Smichuk,Віктор Смичук,Ukraine,56.7,,,,,95,100,107.5,-110,,,,,107.5,60,Pro Juniors 20-23,M,B,Raw,,107.5,,1994
1,Artem Gayday,Артем Гайдай,Ukraine,83.5,,,,,155,162.5,-170,,,,,,162.5,90,Pro Juniors 20-23,M,B,Raw,,162.5,,1996
2,Volodimir Yakimchuk,Володимир Якимчук,Ukraine,88.6,,,,,150,155,160,,,,,,160,90,Pro Juniors 20-23,M,B,Raw,,160,,1993
1,Oleg Mikhalskiy,Олег Михальський,Ukraine,36.7,,,,,47.5,-52.5,-52.5,,,,,,47.5,44,Pro Open,M,B,Raw,,47.5,,2004
1,Yuriy Tsarik,Юрій Царик,Ukraine,60.95,,,,,97.5,-107.5,-107.5,,,,,,97.5,67.5,Pro Open,M,B,Raw,,97.5,,1992
1,Sergiy Baybula,Сергій Байбула,Ukraine,72.95,,,,,165,-170,-170,,,,,,165,75,Pro Open,M,B,Raw,,165,,1974
2,Igor Trofimchuk,Ігор Трофимчук,Ukraine,69,,,,,120,125,132.5,,,,,,132.5,75,Pro Open,M,B,Raw,,132.5,,1978
1,Ruslan Dragun,Руслан Драгун,Ukraine,79.7,,,,,150,155,160,,,,,,160,82.5,Pro Open,M,B,Raw,,160,,1989
1,Danilo Shmatovskiy,Данило Шматовський,Ukraine,86.9,,,,,190,197.5,-200,,,,,,197.5,90,Pro Open,M,B,Raw,,197.5,,1983
2,Volodimir Galiga,Володимир Галига,Ukraine,90,,,,,190,195,-200,,,,,,195,90,Pro Open,M,B,Raw,,195,,1983
3,Viktor Kolko,Віктор Колько,Ukraine,88.66,,,,,165,-170,-170,,,,,,165,90,Pro Open,M,B,Raw,,165,,1989
1,Aleksandr Scherbakov,,Moldova,92.5,,,,,202.5,207.5,217.5,,,,,,217.5,100,Pro Open,M,B,Raw,,217.5,,1966
2,Oleksandr Kostenko,Олександр Костенко,Ukraine,99,,,,,-200,210,215,,,,,,215,100,Pro Open,M,B,Raw,,215,,1989
3,Evgen Aleksienko,Євген Алексієнко,Ukraine,100,,,,,200,205,-210,,,,,,205,100,Pro Open,M,B,Raw,,205,,1976
4,Bogdan Reznikov,Богдан Резніков,Ukraine,96.4,,,,,180,-190,190,,,,,,190,100,Pro Open,M,B,Raw,,190,,1998
5,Maksim Medvid,Максим Медвідь,Ukraine,100,,,,,175,180,-185,,,,,,180,100,Pro Open,M,B,Raw,,180,,1988
6,Mikola Matvienko,Микола Матвієнко,Ukraine,96.15,,,,,150,160,170,,,,,,170,100,Pro Open,M,B,Raw,,170,,1984
7,Viktor Rublyov,Віктор Рубльов,Ukraine,97.5,,,,,170,-185,-185,,,,,,170,100,Pro Open,M,B,Raw,,170,,1975
8,Franciszek Szabluk,,Poland,96.65,,,,,155,160,165,,,,,,165,100,Pro Open,M,B,Raw,,165,,1956
9,Pavlo Slichenko,Павло Сліченко,Ukraine,96.4,,,,,145,155,160,,,,,,160,100,Pro Open,M,B,Raw,,160,,1982
1,Andriy Tomashevich,Андрій Томашевич,Ukraine,110,,,,,185,192.5,200,,,,,,200,110,Pro Open,M,B,Raw,,200,,1978
2,Igor Viplaven,Ігор Виплавень,Ukraine,105.65,,,,,185,192.5,-200,,,,,,192.5,110,Pro Open,M,B,Raw,,192.5,,1991
3,Andriy Prikhodko,Андрій Приходько,Ukraine,108,,,,,180,190,-200,,,,,,190,110,Pro Open,M,B,Raw,,190,,1981
4,Valeriy Gazaev,Валерій Газаєв,Ukraine,108.8,,,,,170,180,187.5,,,,,,187.5,110,Pro Open,M,B,Raw,,187.5,,1987
5,Mikhaylo Geenko,Михайло Геєнко,Ukraine,110,,,,,165,170,175,,,,,,175,110,Pro Open,M,B,Raw,,175,,1963
6,Sergiy Denyak,Сергій Деняк,Ukraine,102.4,,,,,160,-165,-170,,,,,,160,110,Pro Open,M,B,Raw,,160,,1966
1,Ruslan Gutnev,Руслан Гутнєв,Ukraine,111.5,,,,,180,187.5,-192.5,,,,,,187.5,125,Pro Open,M,B,Raw,,187.5,,1991
1,Igor Trofimchuk,Ігор Трофимчук,Ukraine,69,,,,,120,125,132.5,,,,,,132.5,75,Pro Submasters 33-39,M,B,Raw,,132.5,,1978
1,Danilo Shmatovskiy,Данило Шматовський,Ukraine,86.9,,,,,190,197.5,-200,,,,,,197.5,90,Pro Submasters 33-39,M,B,Raw,,197.5,,1983
2,Volodimir Galiga,Володимир Галига,Ukraine,90,,,,,190,195,-200,,,,,,195,90,Pro Submasters 33-39,M,B,Raw,,195,,1983
1,Andriy Tomashevich,Андрій Томашевич,Ukraine,110,,,,,185,192.5,200,,,,,,200,110,Pro Submasters 33-39,M,B,Raw,,200,,1978
2,Andriy Prikhodko,Андрій Приходько,Ukraine,108,,,,,180,190,-200,,,,,,190,110,Pro Submasters 33-39,M,B,Raw,,190,,1981
1,Sergiy Baybula,Сергій Байбула,Ukraine,72.95,,,,,165,-170,-170,,,,,,165,75,Pro Masters 40-44,M,B,Raw,,165,,1974
2,Oleksandr Popovich,Олександр Попович,Ukraine,75,,,,,125,137.5,147.5,,,,,,147.5,75,Pro Masters 40-44,M,B,Raw,,147.5,,1972
1,Oleksandr Ploskiy,Олександр Плоский,Ukraine,88.6,,,,,155,-160,-160,,,,,,155,90,Pro Masters 40-44,M,B,Raw,,155,,1974
1,Evgen Aleksienko,Євген Алексієнко,Ukraine,100,,,,,200,205,-210,,,,,,205,100,Pro Masters 40-44,M,B,Raw,,205,,1976
2,Viktor Rublyov,Віктор Рубльов,Ukraine,97.5,,,,,170,-185,-185,,,,,,170,100,Pro Masters 40-44,M,B,Raw,,170,,1975
1,Oleksandr Fedorchenko,Олександр Федорченко,Ukraine,111.15,,,,,185,190,200,,,,,,200,125,Pro Masters 40-44,M,B,Raw,,200,,1976
1,Viktor Viplaven,Віктор Виплавень,Ukraine,94.35,,,,,155,162.5,-170,,,,,,162.5,100,Pro Masters 45-49,M,B,Raw,,162.5,,1970
2,Volodimir Busol,Володимир Бусол,Ukraine,95,,,,,110,115,-120,,,,,,115,100,Pro Masters 45-49,M,B,Raw,,115,,1971
1,Aleksandr Scherbakov,,Moldova,92.5,,,,,202.5,207.5,217.5,,,,,,217.5,100,Pro Masters 50-54,M,B,Raw,,217.5,,1966
1,Mikhaylo Geenko,Михайло Геєнко,Ukraine,110,,,,,165,170,175,,,,,,175,110,Pro Masters 50-54,M,B,Raw,,175,,1963
2,Sergiy Denyak,Сергій Деняк,Ukraine,102.4,,,,,160,-165,-170,,,,,,160,110,Pro Masters 50-54,M,B,Raw,,160,,1966
1,Franciszek Szabluk,,Poland,96.65,,,,,155,160,165,,,,,,165,100,Pro Masters 60-64,M,B,Raw,,165,,1956
1,Oleksandr Popovich,Олександр Попович,Ukraine,75,,,,,125,137.5,147.5,,,,,,147.5,75,Pro Military/Fire/Police,M,B,Raw,,147.5,,1972
1,Oleksandr Ploskiy,Олександр Плоский,Ukraine,88.6,,,,,155,-160,-160,,,,,,155,90,Pro Military/Fire/Police,M,B,Raw,,155,,1974
2,Roman Rusin,Роман Русин,Ukraine,87.8,,,,,117.5,-125,-130,,,,,,117.5,90,Pro Military/Fire/Police,M,B,Raw,,117.5,,1992
1,Sergiy Denyak,Сергій Деняк,Ukraine,102.4,,,,,160,-165,-170,,,,,,160,110,Pro Military/Fire/Police,M,B,Raw,,160,,1966
1,Irina Polishchuk,Ірина Поліщук,Ukraine,62.55,,,,,65,-70,-72.5,,,,,,65,67.5,Pro Teen 13-15,F,B,Raw,,65,,2002
1,Olena Shcherbinina,Олена Щербініна,Ukraine,56,,,,,60,62.5,65,,,,,,65,56,Pro Open,F,B,Raw,,65,,1982
1,Olena Razuvaeva,Олена Разуваєва,Ukraine,67.4,,,,,72.5,-80,80,,,,,,80,67.5,Pro Open,F,B,Raw,,80,,1988
1,Olena Shcherbinina,Олена Щербініна,Ukraine,56,,,,,60,62.5,65,,,,,,65,56,Pro Submasters 33-39,F,B,Raw,,65,,1982
1,Vitaliy Menchuk,Віталій Менчук,Ukraine,90,,,,,185,200,215,,,,,,215,90,Amateur Teen 18-19,M,B,Multi-ply,,215,,1998
2,Dmitro Dushok,Дмитро Душок,Ukraine,90,,,,,140,155,165,,,,,,165,90,Amateur Teen 18-19,M,B,Multi-ply,,165,,1999
1,Mikhaylo Malkush,Михайло Малкуш,Ukraine,58.25,,,,,150,-158,-158,,,,,,150,60,Amateur Juniors 20-23,M,B,Multi-ply,,150,,1996
1,Mikhaylo Malkush,Михайло Малкуш,Ukraine,58.25,,,,,150,-158,-158,,,,,,150,60,Amateur Open,M,B,Multi-ply,,150,,1996
1,Oleksandr Shvab,Олександр Шваб,Ukraine,126.1,,,,,190,200,,,,,,,200,140,Amateur Masters 40-44,M,B,Multi-ply,,200,,1976
1,Roman Pelikh,Роман Пелих,Ukraine,72.05,,,,,190,-200,205,,,,,,205,75,Pro Open,M,B,Multi-ply,,205,,1985
1,Oleksii Melnyk,Олексій Мельник,Ukraine,89.2,,,,,270,280,290,-300,,,,,290,90,Pro Open,M,B,Multi-ply,,290,,1990
2,Kostyantin Chernov,Костянтин Чернов,Ukraine,88.45,,,,,250,270,280,,,,,,280,90,Pro Open,M,B,Multi-ply,,280,,1984
DQ,Volodimir Galiga,Володимир Галига,Ukraine,90,,,,,-250,,,,,,,,,90,Pro Open,M,B,Multi-ply,,,,1983
1,Yukhim Stepatskiy,Юхим Степацький,Ukraine,91,,,,,195,-205,,,,,,,195,100,Pro Open,M,B,Multi-ply,,195,,1987
1,Valeriy Ternov,Валерій Тернов,Ukraine,111.6,,,,,-280,300,310,,,,,,310,125,Pro Open,M,B,Multi-ply,,310,,1973
DQ,Volodimir Galiga,Володимир Галига,Ukraine,90,,,,,-250,,,,,,,,,90,Pro Submasters 33-39,M,B,Multi-ply,,,,1983
1,Valeriy Ternov,Валерій Тернов,Ukraine,111.6,,,,,-280,300,310,,,,,,310,125,Pro Masters 40-44,M,B,Multi-ply,,310,,1973
1,Yukhim Stepatskiy,Юхим Степацький,Ukraine,91,,,,,195,-205,,,,,,,195,100,Pro Military/Fire/Police,M,B,Multi-ply,,195,,1987
1,Dem'Yan Karandeev,Дем'Ян Карандєєв,Ukraine,50.5,,,,,,,,,50,60,70,,70,52,Amateur Sub-Teen 11-12,M,D,Raw,,,70,2005
1,Daniїl Brindin,Даніїл Бриндін,Ukraine,49.9,,,,,,,,,125,130,135,,135,52,Amateur Teen 13-15,M,D,Raw,,,135,2002
1,Dmitro Zaets,Дмитро Заєць,Ukraine,55.7,,,,,,,,,130,150,157.5,,157.5,56,Amateur Teen 13-15,M,D,Raw,,,157.5,2002
1,Sergiy Vishnevskiy,Сергій Вишневський,Ukraine,56.1,,,,,,,,,90,105,112.5,,112.5,60,Amateur Teen 13-15,M,D,Raw,,,112.5,2002
1,Oleksandr Tomashchuk,Олександр Томащук,Ukraine,67.45,,,,,,,,,100,140,-150,,140,67.5,Amateur Teen 13-15,M,D,Raw,,,140,2002
1,Ivan Avidenkov,Іван Авіденков,Ukraine,72.15,,,,,,,,,195,200,207.5,,207.5,75,Amateur Teen 16-17,M,D,Raw,,,207.5,1999
1,Yaroslav Kukhtyuk,Ярослав Кухтюк,Ukraine,77.4,,,,,,,,,175,180,,,180,82.5,Amateur Teen 16-17,M,D,Raw,,,180,2000
1,Oles Petrenko,Олесь Петренко,Ukraine,124.05,,,,,,,,,160,170,180,,180,125,Amateur Teen 16-17,M,D,Raw,,,180,2000
1,Nazar Sokol,Назар Сокол,Ukraine,75,,,,,,,,,175,185,190,,190,75,Amateur Teen 18-19,M,D,Raw,,,190,1998
1,Mikhaylo Yurchenko,Михайло Юрченко,Ukraine,76.6,,,,,,,,,240,255,-262.5,,255,82.5,Amateur Teen 18-19,M,D,Raw,,,255,1999
2,Oleksandr Nayden,Олександр Найден,Ukraine,82.05,,,,,,,,,185,195,202.5,,202.5,82.5,Amateur Teen 18-19,M,D,Raw,,,202.5,1997
3,Dmitro Gumanenko,Дмитро Гуманенко,Ukraine,81.6,,,,,,,,,-170,170,185,,185,82.5,Amateur Teen 18-19,M,D,Raw,,,185,1999
1,Leonid Glibov,Леонід Глібов,Ukraine,88.05,,,,,,,,,210,215,-220,,215,90,Amateur Teen 18-19,M,D,Raw,,,215,1997
1,Oleksandr Tkachenko,Олександр Ткаченко,Ukraine,95.35,,,,,,,,,165,175,-182.5,,175,100,Amateur Teen 18-19,M,D,Raw,,,175,1998
1,Sergiy Denisevich,Сергій Денисевич,Ukraine,67,,,,,,,,,200,220,230,,230,67.5,Amateur Juniors 20-23,M,D,Raw,,,230,1994
2,Alexandru Poiana,,Romania,67.5,,,,,,,,,160,175,185,,185,67.5,Amateur Juniors 20-23,M,D,Raw,,,185,1994
3,Vadim Bozhik,Вадим Божик,Ukraine,63.05,,,,,,,,,140,155,-175,,155,67.5,Amateur Juniors 20-23,M,D,Raw,,,155,1993
4,Dmitro Severin,Дмитро Северин,Ukraine,66.3,,,,,,,,,-150,150,-175,,150,67.5,Amateur Juniors 20-23,M,D,Raw,,,150,1996
1,Taras Chosik,Тарас Чосік,Ukraine,73.35,,,,,,,,,195,205,-210,,205,75,Amateur Juniors 20-23,M,D,Raw,,,205,1996
2,Anatoliy Martsenyuk,Анатолій Марценюк,Ukraine,75,,,,,,,,,180,190,200,,200,75,Amateur Juniors 20-23,M,D,Raw,,,200,1995
3,Sergiy Shpak,Сергій Шпак,Ukraine,74.75,,,,,,,,,195,-200,-200,,195,75,Amateur Juniors 20-23,M,D,Raw,,,195,1994
1,Oleksandr Panov,Олександр Панов,Ukraine,81.6,,,,,,,,,215,222.5,232.5,,232.5,82.5,Amateur Juniors 20-23,M,D,Raw,,,232.5,1993
2,Yuriy Tsibulskiy,Юрій Цибульський,Ukraine,82.45,,,,,,,,,210,220,232.5,,232.5,82.5,Amateur Juniors 20-23,M,D,Raw,,,232.5,1995
3,Nikita Krutik,Нікіта Крутик,Ukraine,82.15,,,,,,,,,202.5,207.5,212.5,,212.5,82.5,Amateur Juniors 20-23,M,D,Raw,,,212.5,1994
4,Bogdan Kobilinskiy,Богдан Кобилинський,Ukraine,80,,,,,,,,,190,202.5,210,,210,82.5,Amateur Juniors 20-23,M,D,Raw,,,210,1996
5,Andriy Gladiy,Андрій Гладій,Ukraine,81.7,,,,,,,,,180,202.5,210,,210,82.5,Amateur Juniors 20-23,M,D,Raw,,,210,1995
6,Oleksiy Medvedev,Олексій Медведєв,Ukraine,78.9,,,,,,,,,160,180,202.5,,202.5,82.5,Amateur Juniors 20-23,M,D,Raw,,,202.5,1994
1,Mikola Udovenko,Микола Удовенко,Ukraine,88.6,,,,,,,,,222.5,-232.5,-240,,222.5,90,Amateur Juniors 20-23,M,D,Raw,,,222.5,1993
2,Roman Moroz,Роман Мороз,Ukraine,88,,,,,,,,,190,210,-217.5,,210,90,Amateur Juniors 20-23,M,D,Raw,,,210,1994
1,Arkadiy Boldirev,Аркадій Болдирєв,Ukraine,93.4,,,,,,,,,222.5,240,-250,,240,100,Amateur Juniors 20-23,M,D,Raw,,,240,1994
2,Nazar Korzhak,Назар Коржак,Ukraine,98.65,,,,,,,,,225,-235,-252.5,,225,100,Amateur Juniors 20-23,M,D,Raw,,,225,1993
1,Dem'Yan Karandeev,Дем'Ян Карандєєв,Ukraine,50.5,,,,,,,,,50,60,70,,70,52,Amateur Open,M,D,Raw,,,70,2005
1,Dmitro Zaets,Дмитро Заєць,Ukraine,55.7,,,,,,,,,130,150,157.5,,157.5,56,Amateur Open,M,D,Raw,,,157.5,2002
1,Sergiy Vishnevskiy,Сергій Вишневський,Ukraine,56.1,,,,,,,,,90,105,112.5,,112.5,60,Amateur Open,M,D,Raw,,,112.5,2002
1,Sergiy Denisevich,Сергій Денисевич,Ukraine,67,,,,,,,,,200,220,230,,230,67.5,Amateur Open,M,D,Raw,,,230,1994
1,Taras Chosik,Тарас Чосік,Ukraine,73.35,,,,,,,,,195,205,-210,,205,75,Amateur Open,M,D,Raw,,,205,1996
2,Artem Karpyak,Артем Карпяк,Ukraine,71.3,,,,,,,,,195,-200,-200,,195,75,Amateur Open,M,D,Raw,,,195,1992
1,Mikhaylo Yurchenko,Михайло Юрченко,Ukraine,76.6,,,,,,,,,240,255,-262.5,,255,82.5,Amateur Open,M,D,Raw,,,255,1999
2,Michał Lenart,,Poland,79,,,,,,,,,220,232.5,240,,240,82.5,Amateur Open,M,D,Raw,,,240,1991
3,Oleksandr Panov,Олександр Панов,Ukraine,81.6,,,,,,,,,215,222.5,232.5,,232.5,82.5,Amateur Open,M,D,Raw,,,232.5,1993
4,Yuriy Tsibulskiy,Юрій Цибульський,Ukraine,82.45,,,,,,,,,210,220,232.5,,232.5,82.5,Amateur Open,M,D,Raw,,,232.5,1995
5,Nikita Krutik,Нікіта Крутик,Ukraine,82.15,,,,,,,,,202.5,207.5,212.5,,212.5,82.5,Amateur Open,M,D,Raw,,,212.5,1994
6,Mateusz Buławski,,Poland,79.5,,,,,,,,,175,190,210,,210,82.5,Amateur Open,M,D,Raw,,,210,1989
7,Andriy Gladiy,Андрій Гладій,Ukraine,81.7,,,,,,,,,180,202.5,210,,210,82.5,Amateur Open,M,D,Raw,,,210,1995
8,Oleksiy Medvedev,Олексій Медведєв,Ukraine,78.9,,,,,,,,,160,180,202.5,,202.5,82.5,Amateur Open,M,D,Raw,,,202.5,1994
9,Oleksandr Bikhovchenko,Олександр Биховченко,Ukraine,79.2,,,,,,,,,-202.5,202.5,-205,,202.5,82.5,Amateur Open,M,D,Raw,,,202.5,1991
DD,Viktor Blakitniy,Віктор Блакитний,Ukraine,80.85,,,,,,,,,-210,-225,-232.5,,,82.5,Amateur Open,M,D,Raw,,,,1981
1,Mikhaylo Kravchenya,Михайло Кравченя,Ukraine,89.6,,,,,,,,,-230,240,250,,250,90,Amateur Open,M,D,Raw,,,250,1992
2,Dmitro Bogomaz,Дмитро Богомаз,Ukraine,88.5,,,,,,,,,220,230,240,,240,90,Amateur Open,M,D,Raw,,,240,1990
3,Andriy Sokolov,Андрій Соколов,Ukraine,84.1,,,,,,,,,210,220,230,,230,90,Amateur Open,M,D,Raw,,,230,1987
4,Ivan Kozir,Іван Козир,Ukraine,84.65,,,,,,,,,200,-210,210,,210,90,Amateur Open,M,D,Raw,,,210,1986
5,Roman Moroz,Роман Мороз,Ukraine,88,,,,,,,,,190,210,-217.5,,210,90,Amateur Open,M,D,Raw,,,210,1994
6,Bogdan Sidoruk,Богдан Сидорук,Ukraine,89.4,,,,,,,,,200,210,-220,,210,90,Amateur Open,M,D,Raw,,,210,1992
DD,Boris Stashuk,Борис Сташук,Ukraine,88.1,,,,,,,,,-230,-250,-260,,,90,Amateur Open,M,D,Raw,,,,1985
DD,Anatoliy Korniychuk,Анатолій Корнійчук,Ukraine,87,,,,,,,,,-270,-290,-300,,,90,Amateur Open,M,D,Raw,,,,1992
1,Oleksandr Lisovskiy #1,Олександр Лісовський,Ukraine,93.6,,,,,,,,,240,252.5,260.5,267.5,260.5,100,Amateur Open,M,D,Raw,,,260.5,1990
2,Denis Sidorov,Денис Сидоров,Ukraine,99.05,,,,,,,,,225,250,-276,,250,100,Amateur Open,M,D,Raw,,,250,1987
3,Maksim Zhuravel,Максим Журавель,Ukraine,97.95,,,,,,,,,215,225,235,,235,100,Amateur Open,M,D,Raw,,,235,1987
4,Andriy Tupchiy,Андрій Тупчій,Ukraine,92.5,,,,,,,,,220,-235,-235,,220,100,Amateur Open,M,D,Raw,,,220,1987
5,Roman Kryukovskikh,Роман Крюковських,Ukraine,90.6,,,,,,,,,140,-170,-170,,140,100,Amateur Open,M,D,Raw,,,140,1990
2,Sergiy Bessel,Сергій Бессель,Ukraine,108.5,,,,,,,,,230,247.5,255,,255,110,Amateur Open,M,D,Raw,,,255,1984
3,Stanislav Poruban,Станіслав Порубан,Ukraine,105.5,,,,,,,,,235,250,-260,,250,110,Amateur Open,M,D,Raw,,,250,1986
DD,Yuriy Chlek,Юрій Члек,Ukraine,101.2,,,,,,,,,-250,-270,-290,,,110,Amateur Open,M,D,Raw,,,,1990
1,Danilo Udovik,Данило Удовик,Ukraine,111.35,,,,,,,,,200,215,220,,220,125,Amateur Open,M,D,Raw,,,220,1992
1,Sergiy Goncharuk,Сергій Гончарук,Ukraine,74.9,,,,,,,,,170,175,180,,180,75,Amateur Submasters 33-39,M,D,Raw,,,180,1978
1,Oleksiy Kozulin,Олексій Козулін,Ukraine,80.95,,,,,,,,,202.5,215,-232.5,,215,82.5,Amateur Submasters 33-39,M,D,Raw,,,215,1980
1,Igor Golovko,Ігор Головко,Ukraine,120.75,,,,,,,,,230,245,-250,,245,125,Amateur Submasters 33-39,M,D,Raw,,,245,1983
1,Oleksandr Drobilko,Олександр Дробілко,Ukraine,84.6,,,,,,,,,205,215,220,,220,90,Amateur Masters 40-44,M,D,Raw,,,220,1972
1,Gasan Garumov,Гасан Гарумов,Ukraine,68.9,,,,,,,,,140,150,160,,160,75,Amateur Masters 50-54,M,D,Raw,,,160,1963
1,Vitaliy Filonenko,Віталій Філоненко,Ukraine,102.45,,,,,,,,,160,170,,,170,110,Amateur Masters 50-54,M,D,Raw,,,170,1964
1,Igor Zubarev,Ігор Зубарєв,Ukraine,72,,,,,,,,,80,95,-105,,95,75,Amateur Masters 75-79,M,D,Raw,,,95,1941
1,Oleksandr Panov,Олександр Панов,Ukraine,81.6,,,,,,,,,215,222.5,232.5,,232.5,82.5,Amateur Military/Fire/Police,M,D,Raw,,,232.5,1993
2,Oleksandr Chorniy,Олександр Чорний,Ukraine,81.7,,,,,,,,,205,215,-232.5,,215,82.5,Amateur Military/Fire/Police,M,D,Raw,,,215,1989
1,Oleksandr Lisovskiy #1,Олександр Лісовський,Ukraine,93.6,,,,,,,,,240,252.5,260.5,267.5,260.5,100,Amateur Military/Fire/Police,M,D,Raw,,,260.5,1990
2,Maksim Zhuravel,Максим Журавель,Ukraine,97.95,,,,,,,,,215,225,235,,235,100,Amateur Military/Fire/Police,M,D,Raw,,,235,1987
1,Vitaliy Filonenko,Віталій Філоненко,Ukraine,102.45,,,,,,,,,160,170,,,170,110,Amateur Military/Fire/Police,M,D,Raw,,,170,1964
1,Igor Golovko,Ігор Головко,Ukraine,120.75,,,,,,,,,230,245,-250,,245,125,Amateur Military/Fire/Police,M,D,Raw,,,245,1983
1,Viktoriya Druzyaka,Вікторія Друзяка,Ukraine,46.55,,,,,,,,,-95,95,105,,105,48,Amateur Teen 18-19,F,D,Raw,,,105,1998
1,Mariya Soltisyak,Марія Солтисяк,Ukraine,56,,,,,,,,,90,105,-120,,105,56,Amateur Teen 18-19,F,D,Raw,,,105,1998
1,Gabriela Gacek,,Poland,61.9,,,,,,,,,85,-95,-95,,85,67.5,Amateur Teen 18-19,F,D,Raw,,,85,1998
1,Yuliya Manko,Юлія Манько,Ukraine,62.6,,,,,,,,,100,112.5,117.5,,117.5,67.5,Amateur Juniors 20-23,F,D,Raw,,,117.5,1993
1,Renata Zapała,,Poland,74.2,,,,,,,,,130,140,150,,150,75,Amateur Juniors 20-23,F,D,Raw,,,150,1994
2,Yuliya Istratova,Юлія Істратова,Ukraine,73.8,,,,,,,,,122.5,-130,-130,,122.5,75,Amateur Juniors 20-23,F,D,Raw,,,122.5,1995
1,Tetyana Stepatska,Тетяна Степацька,Ukraine,48,,,,,,,,,70,-85,,,70,48,Amateur Open,F,D,Raw,,,70,1989
1,Marina Matvienko,Марина Матвієнко,Ukraine,51.6,,,,,,,,,100,-120,,,100,52,Amateur Open,F,D,Raw,,,100,1989
2,Irina Kambur,Ірина Камбур,Ukraine,50.55,,,,,,,,,82.5,90,-92.5,,90,52,Amateur Open,F,D,Raw,,,90,1987
1,Olga Yarmolyuk,Ольга Ярмолюк,Ukraine,56,,,,,,,,,125,135,140,,140,56,Amateur Open,F,D,Raw,,,140,1989
2,Tetyana Grigor'eva,Тетяна Григор'Єва,Ukraine,55.3,,,,,,,,,120,130,-140,,130,56,Amateur Open,F,D,Raw,,,130,1980
3,Svitlana Melnichuk,Світлана Мельничук,Ukraine,54.9,,,,,,,,,105,115,120,,120,56,Amateur Open,F,D,Raw,,,120,1991
4,Mariya Soltisyak,Марія Солтисяк,Ukraine,56,,,,,,,,,90,105,-120,,105,56,Amateur Open,F,D,Raw,,,105,1998
5,Nadiya Tishchenko,Надія Тищенко,Ukraine,56,,,,,,,,,90,105,-117.5,,105,56,Amateur Open,F,D,Raw,,,105,1985
6,Yuliya Tsimbalyuk,Юлія Цимбалюк,Ukraine,53.95,,,,,,,,,85,100,-107.5,,100,56,Amateur Open,F,D,Raw,,,100,1986
1,Nataliya Sokurenko,Наталія Сокуренко,Ukraine,58.8,,,,,,,,,130,140,145,,145,60,Amateur Open,F,D,Raw,,,145,1981
2,Joanna Gawron,,Poland,57.7,,,,,,,,,125,135,140,,140,60,Amateur Open,F,D,Raw,,,140,1993
3,Yuliya Malinovska,Юлія Маліновська,Ukraine,60,,,,,,,,,120,130,140,,140,60,Amateur Open,F,D,Raw,,,140,1984
4,Kapitalina Gushchina,Капітоліна Гущина,Ukraine,59.8,,,,,,,,,90,105,115,,115,60,Amateur Open,F,D,Raw,,,115,1982
5,Olga Viyuk,Ольга Віюк,Ukraine,57.8,,,,,,,,,95,-105,105,,105,60,Amateur Open,F,D,Raw,,,105,1987
1,Nataliya Mavdrik,Наталія Мавдрик,Ukraine,65.6,,,,,,,,,150,152.5,-155,,152.5,67.5,Amateur Open,F,D,Raw,,,152.5,1984
2,Viktoriya Oliynik,Вікторія Олійник,Ukraine,67.5,,,,,,,,,115,120,-125,,120,67.5,Amateur Open,F,D,Raw,,,120,1968
3,Oksana Muzika,Оксана Музика,Ukraine,67.2,,,,,,,,,105,-115,-115,,105,67.5,Amateur Open,F,D,Raw,,,105,1969
1,Tetyana Fomenko,Тетяна Фоменко,Ukraine,99.8,,,,,,,,,60,70,77.5,,77.5,100,Amateur Open,F,D,Raw,,,77.5,1987
1,Tetyana Grigor'eva,Тетяна Григор'Єва,Ukraine,55.3,,,,,,,,,120,130,-140,,130,56,Amateur Submasters 33-39,F,D,Raw,,,130,1980
1,Kapitalina Gushchina,Капітоліна Гущина,Ukraine,59.8,,,,,,,,,90,105,115,,115,60,Amateur Submasters 33-39,F,D,Raw,,,115,1982
1,Yuliya Chumaeva,Юлія Чумаєва,Ukraine,60,,,,,,,,,95,105,110,,110,60,Amateur Masters 40-44,F,D,Raw,,,110,1973
1,Viktoriya Oliynik,Вікторія Олійник,Ukraine,67.5,,,,,,,,,115,120,-125,,120,67.5,Amateur Masters 45-49,F,D,Raw,,,120,1968
2,Oksana Muzika,Оксана Музика,Ukraine,67.2,,,,,,,,,105,-115,-115,,105,67.5,Amateur Masters 45-49,F,D,Raw,,,105,1969
1,Andriy Boyko,Андрій Бойко,Ukraine,73.15,,,,,,,,,200,-210,-212.5,,200,75,Pro Juniors 20-23,M,D,Raw,,,200,1993
1,Andriy Boyko,Андрій Бойко,Ukraine,73.15,,,,,,,,,200,-210,-212.5,,200,75,Pro Open,M,D,Raw,,,200,1993
1,Vadim Omelchuk,Вадим Омельчук,Ukraine,89.4,,,,,,,,,150,165,,,165,90,Pro Open,M,D,Raw,,,165,1989
1,Viktor Rublyov,Віктор Рубльов,Ukraine,97.5,,,,,,,,,250,265,275,,275,100,Pro Open,M,D,Raw,,,275,1975
2,Pavlo Slichenko,Павло Сліченко,Ukraine,96.4,,,,,,,,,240,255,262.5,,262.5,100,Pro Open,M,D,Raw,,,262.5,1982
3,Mikola Matvienko,Микола Матвієнко,Ukraine,96.15,,,,,,,,,230,240,250,,250,100,Pro Open,M,D,Raw,,,250,1984
1,Valeriy Gazaev,Валерій Газаєв,Ukraine,108.8,,,,,,,,,275,292.5,-300,,292.5,110,Pro Open,M,D,Raw,,,292.5,1987
2,Sergiy Denyak,Сергій Деняк,Ukraine,102.4,,,,,,,,,190,200,210,,210,110,Pro Open,M,D,Raw,,,210,1966
1,Robert Nemś,,Poland,130.3,,,,,,,,,280,300,310,,310,140,Pro Open,M,D,Raw,,,310,1969
1,Sergiy Ostapchuk,Сергій Остапчук,Ukraine,71.85,,,,,,,,,150,170,-190,-190,170,75,Pro Submasters 33-39,M,D,Raw,,,170,1983
1,Viktor Rublyov,Віктор Рубльов,Ukraine,97.5,,,,,,,,,250,265,275,,275,100,Pro Masters 40-44,M,D,Raw,,,275,1975
1,Robert Nemś,,Poland,130.3,,,,,,,,,280,300,310,,310,140,Pro Masters 45-49,M,D,Raw,,,310,1969
1,Sergiy Denyak,Сергій Деняк,Ukraine,102.4,,,,,,,,,190,200,210,,210,110,Pro Masters 50-54,M,D,Raw,,,210,1966
1,Vadim Yukhov,Вадим Юхов,Ukraine,72.9,,,,,,,,,190,200,210,,210,75,Pro Military/Fire/Police,M,D,Raw,,,210,1996
2,Andriy Boyko,Андрій Бойко,Ukraine,73.15,,,,,,,,,200,-210,-212.5,,200,75,Pro Military/Fire/Police,M,D,Raw,,,200,1993
1,Sergiy Denyak,Сергій Деняк,Ukraine,102.4,,,,,,,,,190,200,210,,210,110,Pro Military/Fire/Police,M,D,Raw,,,210,1966
1,Anastasiya Bulankina,Анастасія Буланкіна,Ukraine,45.7,,,,,,,,,45,52.5,-60,,52.5,48,Pro Teen 13-15,F,D,Raw,,,52.5,2001
1,Olena Pilipchuk,Олена Пилипчук,Ukraine,54.3,,,,,,,,,105,115,120.5,122.5,120.5,56,Pro Teen 18-19,F,D,Raw,,,120.5,1997
1,Lyudmila Sus,Людмила Сус,Ukraine,57.8,,,,,,,,,110,120,130,,130,60,Pro Teen 18-19,F,D,Raw,,,130,1997
1,Olena Shcherbinina,Олена Щербініна,Ukraine,56,,,,,,,,,110,120,127.5,,127.5,56,Pro Open,F,D,Raw,,,127.5,1982
1,Olena Razuvaeva,Олена Разуваєва,Ukraine,67.4,,,,,,,,,130,140,150,,150,67.5,Pro Open,F,D,Raw,,,150,1988
1,Olena Shcherbinina,Олена Щербініна,Ukraine,56,,,,,,,,,110,120,127.5,,127.5,56,Pro Submasters 33-39,F,D,Raw,,,127.5,1982
1,Dmitro Dushok,Дмитро Душок,Ukraine,90,,,,,,,,,205,222.5,230,-235,230,90,Amateur Teen 18-19,M,D,Multi-ply,,,230,1999
1,Oleksandr Mushinskiy,Олександр Мушинський,Ukraine,81.7,,,,,,,,,200,215,-222.5,,215,82.5,Amateur Juniors 20-23,M,D,Multi-ply,,,215,1993
1,Oleksandr Mushinskiy,Олександр Мушинський,Ukraine,81.7,,,,,,,,,200,215,-222.5,,215,82.5,Amateur Open,M,D,Multi-ply,,,215,1993
1,Andriy Tupchiy,Андрій Тупчій,Ukraine,92.5,,,,,,,,,200,220,240,,240,100,Amateur Open,M,D,Multi-ply,,,240,1987
1,Yukhim Stepatskiy,Юхим Степацький,Ukraine,91,,,,,,,,,250,-265,265,,265,100,Pro Open,M,D,Multi-ply,,,265,1987
1,Yukhim Stepatskiy,Юхим Степацький,Ukraine,91,,,,,,,,,250,-265,265,,265,100,Pro Military/Fire/Police,M,D,Multi-ply,,,265,1987
